Versuch03/Measurements/3_2_i.csv

#Digilent WaveForms Oscilloscope Acquisition
#Device Name: Discovery2
#Serial Number: SN:210321AA2D13
#Date Time: 2023-12-23 09:44:31.113
#Sample rate: 91074.7Hz
#Samples: 8192
#Trigger: Source: Channel 1 Type: Edge Condition: Rising Level: 0 V Hyst.: Auto HoldOff: 0 s
#Vg: Function: C1

#Vr: Function: C2

#Id: Function: C2/199.6

#Wavegen Channel 1: Running
#Mode: Simple
#Type: Triangle
#Frequency: 50 Hz
#Period: 20 ms
#Amplitude: 1.5 V
#Offset: 2.5 V
#Symmetry: 50 %
#Phase: 0 °

Time (s),Vg (V),Vr (V),Id (A)
-0.08886098639582762,2.708884675545393,4.861921311789125,0.02435832320535634
-0.08885000639582762,2.712585487549164,4.861921311789125,0.02435832320535634
-0.08883902639582761,2.716286299552934,4.858155072504452,0.02433945427106439
-0.08882804639582761,2.719987111556698,4.854388833219787,0.02432058533677248
-0.08881706639582762,2.723687923560463,4.858155072504454,0.0243394542710644
-0.08880608639582761,2.727388735564234,4.858155072504456,0.02433945427106441
-0.08879510639582762,2.731089547567997,4.858155072504456,0.02433945427106441
-0.08878412639582761,2.734790359571766,4.858155072504456,0.02433945427106441
-0.08877314639582762,2.734790359571766,4.858155072504456,0.02433945427106441
-0.08876216639582762,2.73849117157553,4.858155072504456,0.02433945427106441
-0.08875118639582762,2.742191983579301,4.861921311789125,0.02435832320535634
-0.08874020639582761,2.745892795583068,4.861921311789125,0.02435832320535634
-0.08872922639582762,2.745892795583068,4.861921311789125,0.02435832320535634
-0.08871824639582762,2.753294419590599,4.861921311789125,0.02435832320535634
-0.08870726639582761,2.753294419590603,4.861921311789125,0.02435832320535634
-0.08869628639582761,2.760696043598137,4.861921311789128,0.02435832320535635
-0.08868530639582761,2.760696043598139,4.865687551073792,0.02437719213964826
-0.08867432639582762,2.764396855601902,4.865687551073792,0.02437719213964826
-0.08866334639582762,2.764396855601904,4.865687551073792,0.02437719213964826
-0.08865236639582762,2.768097667605671,4.861921311789125,0.02435832320535634
-0.08864138639582761,2.771798479609442,4.865687551073792,0.02437719213964826
-0.08863040639582762,2.779200103616973,4.865687551073792,0.02437719213964826
-0.08861942639582762,2.782900915620738,4.865687551073792,0.02437719213964826
-0.08860844639582761,2.78290091562074,4.865687551073792,0.02437719213964826
-0.08859746639582761,2.786601727624507,4.869453790358461,0.02439606107394019
-0.08858648639582761,2.786601727624511,4.86945379035846,0.02439606107394018
-0.08857550639582762,2.794003351632038,4.865687551073794,0.02437719213964826
-0.08856452639582763,2.794003351632041,4.865687551073792,0.02437719213964826
-0.08855354639582762,2.797704163635808,4.865687551073792,0.02437719213964826
-0.08854256639582761,2.801404975639576,4.865687551073792,0.02437719213964826
-0.08853158639582762,2.801404975639576,4.865687551073792,0.02437719213964826
-0.08852060639582762,2.805105787643341,4.861921311789127,0.02435832320535634
-0.08850962639582761,2.80880659964711,4.858155072504456,0.02433945427106441
-0.08849864639582761,2.808806599647113,4.858155072504456,0.02433945427106441
-0.08848766639582761,2.812507411650881,4.858155072504458,0.02433945427106441
-0.08847668639582762,2.819909035658408,4.861921311789123,0.02435832320535633
-0.08846570639582763,2.819909035658411,4.858155072504459,0.02433945427106442
-0.08845472639582762,2.823609847662178,4.858155072504456,0.02433945427106441
-0.08844374639582761,2.827310659665947,4.861921311789125,0.02435832320535634
-0.08843276639582762,2.831011471669713,4.861921311789125,0.02435832320535634
-0.08842178639582762,2.834712283673478,4.861921311789125,0.02435832320535634
-0.08841080639582762,2.83471228367348,4.858155072504456,0.02433945427106441
-0.08839982639582761,2.838413095677248,4.861921311789128,0.02435832320535635
-0.08838884639582761,2.838413095677248,4.865687551073792,0.02437719213964826
-0.08837786639582762,2.845814719684778,4.865687551073792,0.02437719213964826
-0.08836688639582763,2.845814719684782,4.865687551073792,0.02437719213964826
-0.08835590639582762,2.849515531688547,4.865687551073792,0.02437719213964826
-0.08834492639582761,2.853216343692318,4.865687551073792,0.02437719213964826
-0.08833394639582762,2.856917155696083,4.865687551073792,0.02437719213964826
-0.08832296639582762,2.856917155696083,4.865687551073792,0.02437719213964826
-0.08831198639582762,2.86061796769985,4.869453790358461,0.02439606107394019
-0.08830100639582761,2.864318779703621,4.869453790358458,0.02439606107394017
-0.08829002639582761,2.868019591707385,4.865687551073792,0.02437719213964826
-0.08827904639582762,2.868019591707385,4.865687551073792,0.02437719213964826
-0.08826806639582761,2.871720403711154,4.869453790358461,0.02439606107394019
-0.08825708639582762,2.875421215714917,4.869453790358461,0.02439606107394019
-0.08824610639582761,2.875421215714923,4.869453790358461,0.02439606107394019
-0.08823512639582762,2.882822839722453,4.869453790358461,0.02439606107394019
-0.08822414639582762,2.882822839722453,4.865687551073796,0.02437719213964827
-0.08821316639582762,2.88652365172622,4.861921311789125,0.02435832320535634
-0.08820218639582761,2.886523651726224,4.861921311789125,0.02435832320535634
-0.08819120639582761,2.893925275733755,4.861921311789125,0.02435832320535634
-0.08818022639582762,2.89762608773752,4.858155072504458,0.02433945427106441
-0.08816924639582761,2.897626087737522,4.858155072504456,0.02433945427106441
-0.08815826639582761,2.90502771174506,4.858155072504456,0.02433945427106441
-0.08814728639582761,2.908728523748823,4.858155072504458,0.02433945427106441
-0.08813630639582762,2.908728523748823,4.861921311789125,0.02435832320535634
-0.08812532639582762,2.912429335752587,4.858155072504459,0.02433945427106442
-0.08811434639582762,2.916130147756358,4.861921311789125,0.02435832320535634
-0.08810336639582761,2.916130147756361,4.861921311789123,0.02435832320535633
-0.08809238639582762,2.923531771763892,4.858155072504456,0.02433945427106441
-0.08808140639582762,2.923531771763892,4.861921311789123,0.02435832320535633
-0.08807042639582761,2.927232583767659,4.865687551073792,0.02437719213964826
-0.08805944639582761,2.93093339577143,4.865687551073789,0.02437719213964824
-0.08804846639582761,2.934634207775194,4.861921311789127,0.02435832320535634
-0.08803748639582762,2.934634207775194,4.86568755107379,0.02437719213964825
-0.08802650639582763,2.938335019778958,4.869453790358458,0.02439606107394017
-0.08801552639582762,2.942035831782728,4.869453790358461,0.02439606107394019
-0.08800454639582761,2.945736643786495,4.865687551073792,0.02437719213964826
-0.08799356639582762,2.945736643786495,4.865687551073792,0.02437719213964826
-0.08798258639582762,2.949437455790261,4.86945379035846,0.02439606107394018
-0.08797160639582761,2.95313826779403,4.869453790358461,0.02439606107394019
-0.08796062639582761,2.9568390797978,4.869453790358461,0.02439606107394019
-0.08794964639582761,2.960539891801564,4.869453790358461,0.02439606107394019
-0.08793866639582762,2.960539891801564,4.869453790358461,0.02439606107394019
-0.08792768639582763,2.967941515809092,4.873220029643127,0.0244149300082321
-0.08791670639582762,2.967941515809098,4.869453790358461,0.02439606107394019
-0.08790572639582761,2.971642327812867,4.865687551073794,0.02437719213964826
-0.08789474639582762,2.975343139816633,4.869453790358461,0.02439606107394019
-0.08788376639582762,2.979043951820398,4.865687551073794,0.02437719213964826
-0.08787278639582762,2.982744763824167,4.865687551073792,0.02437719213964826
-0.08786180639582761,2.98274476382417,4.861921311789121,0.02435832320535632
-0.08785082639582761,2.986445575827934,4.858155072504456,0.02433945427106441
-0.08783984639582762,2.990146387831699,4.858155072504456,0.02433945427106441
-0.08782886639582763,2.990146387831701,4.858155072504456,0.02433945427106441
-0.08781788639582762,2.993847199835467,4.861921311789123,0.02435832320535633
-0.08780690639582761,2.997548011839237,4.858155072504456,0.02433945427106441
-0.08779592639582762,3.001248823843003,4.858155072504456,0.02433945427106441
-0.08778494639582762,3.004949635846768,4.861921311789123,0.02435832320535633
-0.08777396639582762,3.012351259854304,4.861921311789125,0.02435832320535634
-0.08776298639582761,3.008650447850544,4.861921311789125,0.02435832320535634
-0.08775200639582761,3.016052071858072,4.861921311789125,0.02435832320535634
-0.08774102639582762,3.019752883861837,4.86568755107379,0.02437719213964825
-0.08773004639582761,3.01975288386184,4.865687551073792,0.02437719213964826
-0.08771906639582762,3.023453695865604,4.865687551073792,0.02437719213964826
-0.08770808639582761,3.027154507869374,4.865687551073794,0.02437719213964826
-0.08769710639582762,3.03085531987314,4.869453790358461,0.02439606107394019
-0.08768612639582762,3.034556131876903,4.869453790358461,0.02439606107394019
-0.08767514639582762,3.038256943880675,4.865687551073792,0.02437719213964826
-0.08766416639582761,3.038256943880676,4.865687551073796,0.02437719213964827
-0.08765318639582761,3.041957755884442,4.873220029643131,0.02441493000823212
-0.08764220639582762,3.045658567888207,4.869453790358463,0.02439606107394019
-0.08763122639582761,3.045658567888211,4.86945379035846,0.02439606107394018
-0.08762024639582761,3.049359379891976,4.865687551073796,0.02437719213964827
-0.08760926639582761,3.04935937989198,4.869453790358461,0.02439606107394019
-0.08759828639582762,3.05676100389951,4.869453790358461,0.02439606107394019
-0.08758730639582762,3.05676100389951,4.869453790358461,0.02439606107394019
-0.08757632639582762,3.060461815903277,4.869453790358461,0.02439606107394019
-0.08756534639582761,3.064162627907046,4.86568755107379,0.02437719213964825
-0.08755436639582762,3.067863439910812,4.861921311789125,0.02435832320535634
-0.08754338639582762,3.071564251914577,4.861921311789125,0.02435832320535634
-0.08753240639582761,3.071564251914579,4.861921311789125,0.02435832320535634
-0.08752142639582761,3.07526506391835,4.858155072504456,0.02433945427106441
-0.08751044639582761,3.078965875922115,4.858155072504456,0.02433945427106441
-0.08749946639582762,3.082666687925879,4.858155072504456,0.02433945427106441
-0.08748848639582762,3.086367499929644,4.858155072504456,0.02433945427106441
-0.08747750639582762,3.086367499929648,4.861921311789125,0.02435832320535634
-0.08746652639582761,3.093769123937182,4.861921311789125,0.02435832320535634
-0.08745554639582762,3.093769123937182,4.861921311789125,0.02435832320535634
-0.08744456639582762,3.097469935940947,4.86568755107379,0.02437719213964825
-0.08743358639582761,3.097469935940949,4.861921311789125,0.02435832320535634
-0.08742260639582761,3.10117074794472,4.861921311789128,0.02435832320535635
-0.08741162639582761,3.104871559948485,4.865687551073792,0.02437719213964826
-0.08740064639582762,3.108572371952249,4.865687551073792,0.02437719213964826
-0.08738966639582763,3.112273183956014,4.865687551073792,0.02437719213964826
-0.08737868639582762,3.115973995959785,4.865687551073792,0.02437719213964826
-0.08736770639582761,3.115973995959787,4.869453790358461,0.02439606107394019
-0.08735672639582762,3.119674807963552,4.869453790358461,0.02439606107394019
-0.08734574639582762,3.123375619967318,4.865687551073794,0.02437719213964826
-0.08733476639582761,3.127076431971086,4.869453790358461,0.02439606107394019
-0.08732378639582761,3.130777243974857,4.869453790358461,0.02439606107394019
-0.08731280639582761,3.134478055978621,4.869453790358461,0.02439606107394019
-0.08730182639582762,3.138178867982386,4.869453790358461,0.02439606107394019
-0.08729084639582763,3.138178867982388,4.869453790358461,0.02439606107394019
-0.08727986639582762,3.141879679986155,4.869453790358461,0.02439606107394019
-0.08726888639582761,3.145580491989924,4.873220029643129,0.02441493000823211
-0.08725790639582762,3.14928130399369,4.869453790358461,0.02439606107394019
-0.08724692639582762,3.152982115997455,4.869453790358461,0.02439606107394019
-0.08723594639582762,3.152982115997457,4.869453790358461,0.02439606107394019
-0.08722496639582761,3.156682928001227,4.865687551073792,0.02437719213964826
-0.08721398639582761,3.160383740004991,4.865687551073792,0.02437719213964826
-0.08720300639582762,3.164084552008756,4.861921311789127,0.02435832320535634
-0.08719202639582761,3.167785364012527,4.861921311789123,0.02435832320535633
-0.08718104639582762,3.171486176016291,4.858155072504458,0.02433945427106441
-0.08717006639582761,3.171486176016294,4.861921311789127,0.02435832320535634
-0.08715908639582762,3.17518698802006,4.865687551073792,0.02437719213964826
-0.08714810639582762,3.178887800023823,4.861921311789128,0.02435832320535635
-0.08713712639582762,3.182588612027594,4.858155072504456,0.02433945427106441
-0.08712614639582761,3.186289424031361,4.861921311789125,0.02435832320535634
-0.08711516639582761,3.186289424031361,4.861921311789125,0.02435832320535634
-0.08710418639582762,3.189990236035126,4.861921311789125,0.02435832320535634
-0.08709320639582761,3.193691048038895,4.865687551073792,0.02437719213964826
-0.08708222639582762,3.193691048038895,4.865687551073792,0.02437719213964826
-0.08707124639582761,3.197391860042664,4.865687551073792,0.02437719213964826
-0.08706026639582762,3.20109267204643,4.865687551073792,0.02437719213964826
-0.08704928639582762,3.20109267204643,4.865687551073792,0.02437719213964826
-0.08703830639582762,3.208494296053964,4.865687551073792,0.02437719213964826
-0.08702732639582761,3.208494296053966,4.865687551073792,0.02437719213964826
-0.08701634639582762,3.212195108057731,4.865687551073792,0.02437719213964826
-0.08700536639582762,3.215895920061497,4.86945379035846,0.02439606107394018
-0.08699438639582761,3.215895920061499,4.865687551073792,0.02437719213964826
-0.08698340639582761,3.219596732065272,4.869453790358461,0.02439606107394019
-0.08697242639582761,3.226998356072802,4.869453790358461,0.02439606107394019
-0.08696144639582762,3.230699168076566,4.869453790358461,0.02439606107394019
-0.08695046639582762,3.230699168076567,4.873220029643127,0.0244149300082321
-0.08693948639582762,3.230699168076567,4.869453790358461,0.02439606107394019
-0.08692850639582761,3.238100792084102,4.86945379035846,0.02439606107394018
-0.08691752639582762,3.238100792084102,4.865687551073792,0.02437719213964826
-0.08690654639582762,3.241801604087867,4.865687551073792,0.02437719213964826
-0.08689556639582761,3.245502416091636,4.865687551073792,0.02437719213964826
-0.08688458639582761,3.245502416091643,4.865687551073789,0.02437719213964824
-0.08687360639582761,3.252904040099172,4.861921311789123,0.02435832320535633
-0.08686262639582762,3.256604852102936,4.858155072504458,0.02433945427106441
-0.08685164639582763,3.260305664106701,4.858155072504456,0.02433945427106441
-0.08684066639582762,3.260305664106705,4.858155072504456,0.02433945427106441
-0.08682968639582761,3.264006476110473,4.861921311789123,0.02435832320535633
-0.08681870639582762,3.267707288114239,4.858155072504456,0.02433945427106441
-0.08680772639582762,3.271408100118004,4.858155072504456,0.02433945427106441
-0.08679674639582761,3.275108912121773,4.861921311789125,0.02435832320535634
-0.08678576639582761,3.278809724125544,4.865687551073789,0.02437719213964824
-0.08677478639582761,3.282510536129309,4.861921311789125,0.02435832320535634
-0.08676380639582762,3.286211348133073,4.861921311789125,0.02435832320535634
-0.08675282639582763,3.286211348133075,4.865687551073789,0.02437719213964824
-0.08674184639582762,3.289912160136842,4.865687551073792,0.02437719213964826
-0.08673086639582761,3.293612972140611,4.865687551073794,0.02437719213964826
-0.08671988639582762,3.297313784144376,4.869453790358461,0.02439606107394019
-0.08670890639582762,3.301014596148142,4.865687551073794,0.02437719213964826
-0.08669792639582762,3.301014596148144,4.869453790358461,0.02439606107394019
-0.08668694639582761,3.304715408151914,4.865687551073796,0.02437719213964827
-0.08667596639582761,3.308416220155678,4.869453790358461,0.02439606107394019
-0.08666498639582762,3.312117032159443,4.869453790358461,0.02439606107394019
-0.08665400639582763,3.312117032159445,4.869453790358461,0.02439606107394019
-0.08664302639582762,3.319518656166976,4.869453790358461,0.02439606107394019
-0.08663204639582761,3.319518656166981,4.869453790358461,0.02439606107394019
-0.08662106639582762,3.323219468170747,4.869453790358461,0.02439606107394019
-0.08661008639582762,3.326920280174512,4.873220029643129,0.02441493000823211
-0.08659910639582762,3.326920280174514,4.873220029643131,0.02441493000823212
-0.08658812639582761,3.330621092178284,4.869453790358461,0.02439606107394019
-0.08657714639582761,3.334321904182048,4.869453790358461,0.02439606107394019
-0.08656616639582762,3.338022716185813,4.865687551073794,0.02437719213964826
-0.08655518639582761,3.338022716185817,4.865687551073789,0.02437719213964824
-0.08654420639582762,3.341723528189581,4.858155072504459,0.02433945427106442
-0.08653322639582761,3.345424340193349,4.861921311789123,0.02435832320535633
-0.08652224639582762,3.345424340193349,4.858155072504456,0.02433945427106441
-0.08651126639582762,3.352825964200877,4.858155072504456,0.02433945427106441
-0.08650028639582762,3.356526776204651,4.861921311789125,0.02435832320535634
-0.08648930639582761,3.356526776204653,4.861921311789123,0.02435832320535633
-0.08647832639582761,3.360227588208418,4.858155072504456,0.02433945427106441
-0.08646734639582762,3.360227588208418,4.861921311789123,0.02435832320535633
-0.08645636639582761,3.363928400212185,4.861921311789125,0.02435832320535634
-0.08644538639582761,3.371330024219723,4.861921311789125,0.02435832320535634
-0.08643440639582761,3.375030836223487,4.861921311789127,0.02435832320535634
-0.08642342639582762,3.375030836223487,4.865687551073792,0.02437719213964826
-0.08641244639582762,3.375030836223487,4.865687551073792,0.02437719213964826
-0.08640146639582762,3.382432460231021,4.865687551073792,0.02437719213964826
-0.08639048639582761,3.382432460231023,4.86945379035846,0.02439606107394018
-0.08637950639582762,3.386133272234788,4.865687551073792,0.02437719213964826
-0.08636852639582762,3.389834084238553,4.865687551073792,0.02437719213964826
-0.08635754639582761,3.393534896242323,4.865687551073792,0.02437719213964826
-0.08634656639582761,3.393534896242326,4.865687551073796,0.02437719213964827
-0.08633558639582761,3.397235708246091,4.869453790358461,0.02439606107394019
-0.08632460639582762,3.400936520249855,4.869453790358461,0.02439606107394019
-0.08631362639582763,3.40463733225362,4.865687551073796,0.02437719213964827
-0.08630264639582762,3.408338144257391,4.869453790358461,0.02439606107394019
-0.08629166639582761,3.408338144257395,4.869453790358461,0.02439606107394019
-0.08628068639582762,3.415739768264926,4.869453790358461,0.02439606107394019
-0.08626970639582762,3.415739768264926,4.869453790358461,0.02439606107394019
-0.08625872639582761,3.419440580268693,4.865687551073792,0.02437719213964826
-0.08624774639582761,3.423141392272464,4.861921311789128,0.02435832320535635
-0.08623676639582761,3.426842204276229,4.86568755107379,0.02437719213964825
-0.08622578639582762,3.430543016279993,4.861921311789127,0.02435832320535634
-0.08621480639582763,3.430543016279994,4.861921311789125,0.02435832320535634
-0.08620382639582762,3.430543016279994,4.858155072504456,0.02433945427106441
-0.08619284639582761,3.441645452291296,4.858155072504458,0.02433945427106441
-0.08618186639582762,3.441645452291296,4.861921311789125,0.02435832320535634
-0.08617088639582762,3.445346264295061,4.858155072504458,0.02433945427106441
-0.08615990639582762,3.445346264295063,4.858155072504456,0.02433945427106441
-0.08614892639582761,3.449047076298837,4.858155072504459,0.02433945427106442
-0.08613794639582761,3.456448700306364,4.861921311789125,0.02435832320535634
-0.08612696639582762,3.456448700306364,4.86568755107379,0.02437719213964825
-0.08611598639582763,3.460149512310128,4.865687551073792,0.02437719213964826
-0.08610500639582762,3.460149512310132,4.865687551073792,0.02437719213964826
-0.08609402639582761,3.467551136317666,4.865687551073792,0.02437719213964826
