Versuch03/Measurements/3_4_d_500.csv

#Digilent WaveForms Oscilloscope Acquisition
#Device Name: Discovery2
#Serial Number: SN:210321AA2D13
#Date Time: 2023-12-23 15:00:43.074
#Sample rate: 61500.6Hz
#Samples: 8192
#Trigger: Source: Vdcout Type: Edge Condition: Rising Level: 0 V Hyst.: Auto HoldOff: 0 s
#Vdcout: Range: 1 V/div Offset: -1 V Attenuation: 1 X Sample Mode: Average
#Vp: Range: 1 V/div Offset: 0 V Attenuation: 1 X Sample Mode: Average
#Wavegen Channel 1: Running
#Mode: Simple
#Type: Square
#Frequency: 500 Hz
#Period: 2 ms
#Amplitude: 2.5 V
#Offset: 2.49 V
#Symmetry: 50 %
#Phase: 0 °

Time (s),Vdcout (V),Vp (V)
-0.07661705729923091,4.899634121422556,-0.01622805316171878
-0.0766007972992309,4.899634121422556,-0.01622805316171878
-0.07658453729923091,4.899634121422556,-0.01622805316171878
-0.07656827729923091,4.895933309418789,-0.01999429244638748
-0.0765520172992309,4.895933309418789,-0.01999429244638748
-0.07653575729923091,4.895933309418789,-0.01999429244638748
-0.07651949729923091,4.899634121422556,2.691697992515076
-0.07650323729923091,4.895933309418789,4.555986438426083
-0.0764869772992309,4.89223249741502,4.533389002718059
-0.07647071729923091,4.888531685411254,4.50702532772539
-0.07645445729923091,4.888531685411254,4.491960370586715
-0.0764381972992309,4.888531685411254,4.484427892017374
-0.07642193729923091,4.888531685411254,4.476895413448044
-0.07640567729923091,4.888531685411254,4.473129174163371
-0.07638941729923091,4.884830873407488,4.473129174163371
-0.0763731572992309,4.888531685411253,4.473129174163369
-0.07635689729923091,4.884830873407488,4.469362934878703
-0.07634063729923091,4.888531685411254,4.473129174163371
-0.0763243772992309,4.884830873407486,4.469362934878703
-0.07630811729923091,4.881130061403722,4.469362934878703
-0.07629185729923091,4.88113006140372,4.469362934878703
-0.0762755972992309,4.88113006140372,4.469362934878703
-0.07625933729923091,4.88113006140372,4.469362934878703
-0.07624307729923091,4.88113006140372,4.469362934878703
-0.07622681729923091,4.877429249399953,4.469362934878703
-0.0762105572992309,4.877429249399953,4.469362934878703
-0.07619429729923091,4.877429249399953,4.469362934878703
-0.07617803729923091,4.877429249399953,4.469362934878703
-0.0761617772992309,4.877429249399952,4.469362934878703
-0.07614551729923091,4.873728437396188,4.469362934878703
-0.07612925729923091,4.870027625392419,4.469362934878703
-0.07611299729923091,4.873728437396186,4.465596695594034
-0.0760967372992309,4.870027625392419,4.469362934878703
-0.07608047729923091,4.870027625392419,4.469362934878703
-0.07606421729923091,4.870027625392419,4.469362934878703
-0.0760479572992309,4.873728437396184,4.469362934878703
-0.07603169729923091,4.870027625392421,4.469362934878703
-0.07601543729923091,4.866326813388651,4.469362934878703
-0.07599917729923091,4.866326813388651,4.469362934878703
-0.0759829172992309,4.866326813388651,4.469362934878703
-0.07596665729923091,4.866326813388651,4.469362934878703
-0.07595039729923091,4.866326813388651,4.469362934878703
-0.0759341372992309,4.86632681338865,4.469362934878701
-0.07591787729923091,4.862626001384887,4.465596695594035
-0.07590161729923091,4.862626001384885,4.469362934878703
-0.0758853572992309,4.862626001384885,4.469362934878703
-0.07586909729923091,4.862626001384885,4.469362934878703
-0.07585283729923091,4.858925189381117,4.469362934878703
-0.07583657729923091,4.858925189381117,4.469362934878703
-0.0758203172992309,4.858925189381117,4.469362934878703
-0.07580405729923091,4.858925189381117,4.469362934878703
-0.07578779729923091,4.858925189381117,4.469362934878703
-0.0757715372992309,4.855224377377352,4.469362934878703
-0.07575527729923091,4.858925189381115,4.469362934878703
-0.07573901729923091,4.85522437737735,4.465596695594034
-0.07572275729923091,4.85522437737735,4.469362934878703
-0.0757064972992309,4.855224377377349,4.465596695594035
-0.07569023729923091,4.851523565373583,4.469362934878703
-0.07567397729923091,4.851523565373583,4.469362934878703
-0.0756577172992309,4.851523565373583,4.469362934878703
-0.07564145729923091,4.851523565373583,4.469362934878703
-0.07562519729923091,4.851523565373583,4.469362934878703
-0.07560893729923091,4.847822753369816,4.469362934878703
-0.0755926772992309,4.851523565373581,4.469362934878701
-0.07557641729923091,4.847822753369816,4.465596695594034
-0.07556015729923091,4.851523565373583,4.469362934878703
-0.0755438972992309,4.847822753369824,4.469362934878446
-0.07552763729923091,4.866326813388643,3.904427042178654
-0.07551137729923091,5.006957669531804,-0.08402036028575538
-0.0754951172992309,4.955146301479064,-0.09155283885509277
-0.07547885729923091,4.947744677471533,-0.06895540314709084
-0.07546259729923091,4.944043865467762,-0.05012420672373707
-0.07544633729923091,4.94774467747153,-0.03505924958506228
-0.0754300772992309,4.944043865467762,-0.02752677101572317
-0.07541381729923091,4.944043865467762,-0.0237605317310579
-0.07539755729923091,4.940343053463995,-0.01999429244638748
-0.0753812972992309,4.940343053463994,-0.01999429244638748
-0.07536503729923091,4.93664224146023,-0.01999429244638748
-0.07534877729923091,4.936642241460228,-0.01999429244638748
-0.07533251729923091,4.932941429456461,-0.01622805316171878
-0.0753162572992309,4.936642241460226,-0.01999429244638748
-0.07529999729923091,4.932941429456461,-0.01999429244638748
-0.07528373729923091,4.932941429456461,-0.01622805316171878
-0.0752674772992309,4.929240617452693,-0.01999429244638577
-0.07525121729923091,4.929240617452693,-0.0162280531617205
-0.07523495729923091,4.929240617452693,-0.01999429244638748
-0.0752186972992309,4.929240617452693,-0.01999429244638748
-0.0752024372992309,4.929240617452693,-0.0162280531617205
-0.07518617729923091,4.929240617452693,-0.01999429244638748
-0.07516991729923091,4.929240617452693,-0.01999429244638748
-0.0751536572992309,4.925539805448926,-0.01999429244638577
-0.07513739729923091,4.925539805448926,-0.0162280531617205
-0.07512113729923091,4.925539805448926,-0.01999429244638748
-0.0751048772992309,4.921838993445159,-0.01999429244638748
-0.07508861729923091,4.921838993445159,-0.01999429244638748
-0.07507235729923091,4.921838993445159,-0.01999429244638748
-0.07505609729923091,4.918138181441392,-0.01999429244638748
-0.0750398372992309,4.918138181441392,-0.01999429244638748
-0.07502357729923091,4.918138181441392,-0.01999429244638748
-0.07500731729923091,4.918138181441392,-0.01999429244638748
-0.0749910572992309,4.914437369437625,-0.01999429244638748
-0.07497479729923091,4.914437369437625,-0.01999429244638748
-0.07495853729923091,4.914437369437625,-0.01622805316171878
-0.07494227729923091,4.914437369437625,-0.01999429244638748
-0.0749260172992309,4.914437369437625,-0.01999429244638748
-0.07490975729923091,4.914437369437625,-0.01999429244638748
-0.07489349729923091,4.910736557433857,-0.01622805316171878
-0.0748772372992309,4.910736557433857,-0.01622805316171878
-0.07486097729923091,4.910736557433857,-0.01622805316171878
-0.07484471729923091,4.910736557433857,-0.01622805316171878
-0.0748284572992309,4.910736557433857,-0.01999429244638748
-0.0748121972992309,4.910736557433856,-0.0162280531617205
-0.07479593729923091,4.907035745430091,-0.01999429244638748
-0.07477967729923091,4.907035745430091,-0.01999429244638748
-0.0747634172992309,4.907035745430091,-0.01999429244638748
-0.07474715729923091,4.907035745430091,-0.01999429244638748
-0.07473089729923091,4.907035745430091,-0.01622805316171878
-0.0747146372992309,4.903334933426323,-0.01622805316171878
-0.07469837729923091,4.903334933426323,-0.01622805316171878
-0.07468211729923091,4.903334933426323,-0.01622805316171878
-0.07466585729923091,4.903334933426323,-0.01999429244638748
-0.0746495972992309,4.903334933426323,-0.01622805316171878
-0.07463333729923091,4.903334933426323,-0.01622805316171878
-0.07461707729923091,4.899634121422556,-0.01622805316171878
-0.0746008172992309,4.899634121422556,-0.0162280531617205
-0.07458455729923091,4.899634121422556,-0.01999429244638577
-0.07456829729923091,4.895933309418789,-0.01999429244638748
-0.07455203729923091,4.895933309418789,-0.01622805316171878
-0.0745357772992309,4.89593330941879,-0.01622805316043941
-0.07451951729923091,4.899634121422556,2.7971526924858
-0.07450325729923091,4.892232497415022,4.555986438426083
-0.0744869972992309,4.892232497415022,4.53338900271806
-0.07447073729923091,4.892232497415022,4.510791567010068
-0.07445447729923091,4.888531685411254,4.495726609871383
-0.0744382172992309,4.888531685411254,4.484427892017377
-0.0744219572992309,4.888531685411254,4.476895413448038
-0.07440569729923091,4.888531685411254,4.473129174163371
-0.07438943729923091,4.888531685411254,4.473129174163371
-0.0743731772992309,4.888531685411253,4.469362934878703
-0.07435691729923091,4.884830873407489,4.469362934878703
-0.07434065729923091,4.884830873407488,4.469362934878703
-0.0743243972992309,4.884830873407488,4.469362934878703
-0.07430813729923091,4.884830873407488,4.469362934878703
-0.07429187729923091,4.884830873407488,4.469362934878703
-0.07427561729923091,4.88113006140372,4.469362934878703
-0.0742593572992309,4.88113006140372,4.469362934878703
-0.07424309729923091,4.88113006140372,4.469362934878703
-0.07422683729923091,4.877429249399953,4.465596695594034
-0.0742105772992309,4.877429249399953,4.469362934878703
-0.07419431729923091,4.877429249399953,4.469362934878703
-0.07417805729923091,4.873728437396186,4.469362934878703
-0.07416179729923091,4.873728437396186,4.469362934878703
-0.0741455372992309,4.877429249399952,4.469362934878703
-0.07412927729923091,4.873728437396186,4.469362934878703
-0.07411301729923091,4.873728437396186,4.469362934878703
-0.0740967572992309,4.873728437396184,4.469362934878703
-0.07408049729923091,4.870027625392421,4.469362934878703
-0.07406423729923091,4.870027625392419,4.469362934878703
-0.0740479772992309,4.866326813388651,4.469362934878703
-0.07403171729923091,4.870027625392417,4.469362934878703
-0.07401545729923091,4.866326813388651,4.469362934878703
-0.07399919729923091,4.866326813388651,4.465596695594034
-0.0739829372992309,4.866326813388651,4.469362934878701
-0.07396667729923091,4.866326813388651,4.465596695594035
-0.07395041729923091,4.862626001384885,4.469362934878703
-0.0739341572992309,4.862626001384885,4.469362934878703
-0.07391789729923091,4.862626001384885,4.469362934878703
-0.07390163729923091,4.862626001384885,4.469362934878703
-0.07388537729923091,4.862626001384885,4.469362934878703
-0.0738691172992309,4.862626001384883,4.469362934878701
-0.07385285729923091,4.858925189381119,4.465596695594035
-0.07383659729923091,4.858925189381117,4.469362934878703
-0.0738203372992309,4.858925189381117,4.469362934878703
-0.07380407729923091,4.858925189381117,4.469362934878703
-0.07378781729923091,4.858925189381117,4.469362934878703
-0.07377155729923091,4.85522437737735,4.469362934878703
-0.0737552972992309,4.85522437737735,4.469362934878703
-0.07373903729923091,4.85522437737735,4.469362934878703
-0.07372277729923091,4.85522437737735,4.469362934878703
-0.0737065172992309,4.851523565373583,4.469362934878703
-0.07369025729923091,4.851523565373583,4.469362934878703
-0.07367399729923091,4.851523565373583,4.469362934878703
-0.0736577372992309,4.851523565373583,4.469362934878703
-0.07364147729923091,4.847822753369818,4.469362934878703
-0.07362521729923091,4.847822753369816,4.465596695594034
-0.07360895729923091,4.847822753369816,4.469362934878703
-0.0735926972992309,4.847822753369816,4.469362934878703
-0.07357643729923091,4.847822753369816,4.469362934878703
-0.07356017729923091,4.847822753369816,4.469362934878703
-0.0735439172992309,4.847822753369816,4.469362934878703
-0.07352765729923091,4.862626001384878,3.930790717171323
-0.07351139729923091,5.006957669531804,-0.08025412100108667
-0.07349513729923091,4.955146301479064,-0.09531907813976147
-0.0734788772992309,4.947744677471528,-0.06895540314707201
-0.07346261729923091,4.944043865467764,-0.05012420672374564
-0.07344635729923091,4.944043865467762,-0.03882548886973098
-0.0734300972992309,4.94404386546776,-0.02752677101572317
-0.07341383729923091,4.940343053463997,-0.0237605317310579
-0.07339757729923091,4.940343053463995,-0.01999429244638748
-0.07338131729923091,4.940343053463995,-0.01999429244638748
-0.0733650572992309,4.940343053463994,-0.01999429244638748
-0.07334879729923091,4.936642241460228,-0.01999429244638748
-0.07333253729923091,4.936642241460228,-0.01999429244638748
-0.0733162772992309,4.936642241460226,-0.01999429244638748
-0.07330001729923091,4.932941429456463,-0.01999429244638748
-0.07328375729923091,4.932941429456461,-0.01999429244638748
-0.0732674972992309,4.932941429456461,-0.01999429244638748
-0.07325123729923091,4.932941429456461,-0.01999429244638748
-0.07323497729923091,4.929240617452693,-0.01999429244638748
-0.07321871729923091,4.929240617452693,-0.01999429244638748
-0.0732024572992309,4.925539805448926,-0.01999429244638577
-0.07318619729923091,4.925539805448926,-0.0162280531617205
-0.07316993729923091,4.929240617452693,-0.01622805316171878
-0.0731536772992309,4.925539805448926,-0.01999429244638748
-0.07313741729923091,4.925539805448926,-0.01999429244638748
-0.07312115729923091,4.921838993445159,-0.01999429244638748
-0.07310489729923091,4.921838993445159,-0.01999429244638748
-0.0730886372992309,4.921838993445159,-0.01999429244638748
-0.07307237729923091,4.921838993445159,-0.01999429244638748
-0.07305611729923091,4.921838993445159,-0.01999429244638748
-0.0730398572992309,4.918138181441392,-0.01999429244638748
-0.07302359729923091,4.918138181441392,-0.01999429244638748
-0.07300733729923091,4.918138181441392,-0.01622805316171878
-0.07299107729923091,4.914437369437625,-0.01999429244638748
-0.0729748172992309,4.914437369437625,-0.01999429244638577
-0.07295855729923091,4.914437369437625,-0.01622805316171878
-0.07294229729923091,4.914437369437625,-0.01999429244638748
-0.0729260372992309,4.914437369437623,-0.01999429244638748
-0.07290977729923091,4.910736557433859,-0.01999429244638748
-0.07289351729923091,4.914437369437625,-0.01999429244638748
-0.0728772572992309,4.910736557433857,-0.01999429244638748
-0.07286099729923091,4.910736557433857,-0.01999429244638748
-0.07284473729923091,4.910736557433857,-0.01999429244638748
-0.07282847729923091,4.910736557433857,-0.01622805316171878
-0.0728122172992309,4.910736557433856,-0.01999429244638748
-0.07279595729923091,4.907035745430092,-0.01999429244638748
-0.07277969729923091,4.907035745430091,-0.01999429244638748
-0.0727634372992309,4.907035745430091,-0.01999429244638748
-0.07274717729923091,4.903334933426325,-0.01999429244638748
-0.07273091729923091,4.907035745430091,-0.01622805316171878
-0.07271465729923091,4.903334933426323,-0.01622805316171878
-0.0726983972992309,4.903334933426323,-0.01999429244638748
-0.07268213729923091,4.903334933426323,-0.01999429244638748
-0.07266587729923091,4.899634121422556,-0.01622805316171878
-0.0726496172992309,4.899634121422556,-0.01999429244638748
-0.07263335729923091,4.899634121422556,-0.01999429244638748
-0.07261709729923091,4.899634121422556,-0.01622805316171878
-0.07260083729923091,4.895933309418789,-0.01999429244638748
-0.0725845772992309,4.895933309418789,-0.01999429244638748
-0.07256831729923091,4.895933309418789,-0.01999429244638748
-0.07255205729923091,4.895933309418789,-0.01622805316171878
-0.0725357972992309,4.89593330941879,-0.01999429244512009
-0.07251953729923091,4.899634121422555,2.767022778207183
-0.07250327729923091,4.892232497415022,4.555986438426083
-0.0724870172992309,4.892232497415022,4.533389002718071
-0.07247075729923091,4.888531685411256,4.510791567010068
-0.07245449729923091,4.888531685411254,4.491960370586715
-0.07243823729923091,4.888531685411254,4.480661652732708
-0.07242197729923092,4.888531685411254,4.476895413448042
-0.07240571729923091,4.888531685411254,4.473129174163373
-0.07238945729923091,4.888531685411254,4.469362934878703
-0.07237319729923092,4.888531685411254,4.465596695594035
-0.07235693729923091,4.884830873407489,4.469362934878701
-0.07234067729923091,4.884830873407488,4.469362934878703
-0.07232441729923091,4.88113006140372,4.469362934878703
-0.07230815729923092,4.884830873407486,4.469362934878703
-0.07229189729923091,4.884830873407488,4.469362934878703
-0.07227563729923091,4.88113006140372,4.469362934878703
-0.07225937729923092,4.88113006140372,4.469362934878703
-0.07224311729923091,4.88113006140372,4.469362934878703
-0.07222685729923091,4.877429249399953,4.469362934878703
-0.07221059729923091,4.877429249399953,4.469362934878703
-0.07219433729923092,4.873728437396188,4.465596695594035
-0.07217807729923091,4.873728437396186,4.469362934878703
-0.07216181729923091,4.877429249399953,4.469362934878703
-0.07214555729923092,4.873728437396188,4.465596695594035
-0.07212929729923091,4.873728437396186,4.469362934878701
-0.07211303729923091,4.873728437396186,4.469362934878703
-0.0720967772992309,4.873728437396186,4.469362934878703
-0.07208051729923091,4.870027625392421,4.469362934878703
-0.07206425729923091,4.870027625392419,4.469362934878703
-0.07204799729923091,4.870027625392419,4.465596695594034
-0.07203173729923092,4.866326813388653,4.465596695594034
-0.07201547729923091,4.870027625392417,4.465596695594034
-0.07199921729923091,4.866326813388651,4.469362934878703
-0.07198295729923092,4.866326813388651,4.465596695594035
-0.07196669729923091,4.866326813388651,4.465596695594034
-0.07195043729923091,4.866326813388651,4.469362934878703
-0.07193417729923091,4.866326813388651,4.469362934878703
-0.07191791729923092,4.862626001384887,4.469362934878703
-0.07190165729923091,4.862626001384885,4.469362934878703
-0.07188539729923091,4.862626001384885,4.469362934878703
-0.07186913729923092,4.858925189381119,4.469362934878703
-0.07185287729923091,4.862626001384883,4.469362934878703
-0.07183661729923091,4.858925189381117,4.469362934878703
-0.07182035729923091,4.858925189381117,4.469362934878703
-0.07180409729923092,4.858925189381117,4.469362934878703
-0.07178783729923091,4.858925189381117,4.469362934878703
-0.07177157729923091,4.85522437737735,4.469362934878703
-0.07175531729923092,4.85522437737735,4.469362934878703
-0.07173905729923091,4.85522437737735,4.469362934878703
-0.07172279729923091,4.85522437737735,4.469362934878703
-0.0717065372992309,4.851523565373583,4.469362934878703
-0.07169027729923091,4.851523565373583,4.469362934878703
-0.07167401729923091,4.851523565373583,4.469362934878703
-0.07165775729923091,4.851523565373583,4.469362934878703
-0.07164149729923092,4.851523565373583,4.469362934878703
-0.07162523729923091,4.851523565373583,4.469362934878703
-0.07160897729923091,4.851523565373583,4.469362934878703
-0.07159271729923092,4.847822753369818,4.469362934878703
-0.07157645729923091,4.847822753369816,4.469362934878703
-0.07156019729923091,4.847822753369816,4.469362934878703
-0.07154393729923091,4.847822753369816,4.469362934878703
-0.07152767729923092,4.862626001384878,3.953388152879325
-0.07151141729923091,5.003256857527973,-0.08025412099925244
-0.07149515729923091,4.955146301479064,-0.09531907813976147
-0.07147889729923092,4.947744677471533,-0.07272164243175955
-0.07146263729923091,4.944043865467764,-0.05012420672374735
-0.07144637729923091,4.940343053463995,-0.03882548886973098
-0.07143011729923091,4.940343053463995,-0.03129301030039358
-0.07141385729923092,4.940343053463995,-0.02376053173105961
-0.07139759729923091,4.940343053463995,-0.01999429244638748
-0.07138133729923091,4.940343053463995,-0.01999429244638748
-0.07136507729923092,4.940343053463995,-0.01999429244638748
-0.07134881729923091,4.93664224146023,-0.01999429244638748
-0.07133255729923091,4.936642241460228,-0.01999429244638748
-0.0713162972992309,4.932941429456461,-0.01622805316171878
-0.07130003729923091,4.932941429456461,-0.01999429244638577
-0.07128377729923091,4.929240617452693,-0.01622805316171878
-0.07126751729923091,4.932941429456461,-0.01622805316171878
-0.07125125729923092,4.932941429456461,-0.01622805316171878
-0.07123499729923091,4.929240617452695,-0.01622805316171878
-0.07121873729923091,4.929240617452693,-0.01622805316171878
-0.07120247729923092,4.929240617452693,-0.01999429244638577
