Versuch03/Measurements/3_4_d_2000.csv

#Digilent WaveForms Oscilloscope Acquisition
#Device Name: Discovery2
#Serial Number: SN:210321AA2D13
#Date Time: 2023-12-23 15:01:51.866
#Sample rate: 294985Hz
#Samples: 8192
#Trigger: Source: Vdcout Type: Edge Condition: Rising Level: 0 V Hyst.: Auto HoldOff: 0 s
#Vdcout: Range: 1 V/div Offset: -5 V Attenuation: 1 X Sample Mode: Average
#Vp: Range: 1 V/div Offset: 0 V Attenuation: 1 X Sample Mode: Average
#Wavegen Channel 1: Running
#Mode: Simple
#Type: Square
#Frequency: 2 kHz
#Period: 500 us
#Amplitude: 2.5 V
#Offset: 2.49 V
#Symmetry: 50 %
#Phase: 0 °

Time (s),Vdcout (V),Vp (V)
-0.02744206152312829,8.323147745613195,4.50702532772539
-0.0274386715231283,8.323147745613195,4.50702532772539
-0.0274352815231283,8.323147745613195,4.50702532772539
-0.0274318915231283,8.319446933609429,4.499492849156056
-0.0274285015231283,8.319446933609427,4.495726609871383
-0.0274251115231283,8.323147745613195,4.495726609871383
-0.02742172152312829,8.319446933609427,4.488194131302044
-0.02741833152312829,8.319446933609429,4.484427892017381
-0.0274149415231283,8.323147745613195,4.491960370586715
-0.0274115515231283,8.319446933609429,4.488194131302047
-0.0274081615231283,8.319446933609427,4.480661652732715
-0.0274047715231283,8.319446933609427,4.480661652732708
-0.02740138152312829,8.315746121605663,4.480661652732708
-0.02739799152312829,8.319446933609425,4.480661652732707
-0.0273946015231283,8.31574612160566,4.47689541344804
-0.0273912115231283,8.319446933609427,4.47689541344804
-0.0273878215231283,8.319446933609427,4.47689541344804
-0.02738443152312829,8.323147745613195,4.473129174163371
-0.0273810415231283,8.31574612160566,4.473129174163371
-0.02737765152312829,8.319446933609424,4.473129174163371
-0.02737426152312829,8.312045309601894,4.473129174163369
-0.0273708715231283,8.312045309601894,4.469362934878703
-0.0273674815231283,8.315746121605658,4.473129174163369
-0.0273640915231283,8.312045309601896,4.473129174163371
-0.0273607015231283,8.31574612160566,4.473129174163371
-0.0273573115231283,8.312045309601894,4.473129174163371
-0.02735392152312829,8.319446933609425,4.473129174163369
-0.02735053152312829,8.31574612160566,4.469362934878703
-0.0273471415231283,8.31574612160566,4.469362934878703
-0.0273437515231283,8.31574612160566,4.469362934878703
-0.0273403615231283,8.31574612160566,4.469362934878703
-0.0273369715231283,8.31574612160566,4.469362934878703
-0.02733358152312829,8.31574612160566,4.476895413448038
-0.02733019152312829,8.315746121605658,4.473129174163367
-0.0273268015231283,8.312045309601894,4.465596695594034
-0.0273234115231283,8.315746121605658,4.469362934878701
-0.0273200215231283,8.312045309601896,4.469362934878703
-0.0273166315231283,8.312045309601894,4.469362934878703
-0.0273132415231283,8.31574612160566,4.469362934878703
-0.02730985152312829,8.31204530960189,4.469362934878703
-0.02730646152312829,8.304643685594362,4.469362934878703
-0.0273030715231283,8.312045309601894,4.469362934878703
-0.0272996815231283,8.312045309601894,4.469362934878703
-0.0272962915231283,8.308344497598128,4.469362934878703
-0.0272929015231283,8.308344497598126,4.465596695594034
-0.02728951152312829,8.304643685594362,4.469362934878699
-0.02728612152312829,8.308344497598128,4.465596695594034
-0.0272827315231283,8.312045309601894,4.465596695594034
-0.0272793415231283,8.308344497598126,4.469362934878703
-0.0272759515231283,8.312045309601892,4.469362934878703
-0.02727256152312829,8.308344497598126,4.469362934878703
-0.0272691715231283,8.308344497598126,4.465596695594034
-0.02726578152312829,8.308344497598128,4.469362934878703
-0.02726239152312829,8.312045309601892,4.469362934878701
-0.0272590015231283,8.308344497598126,4.465596695594034
-0.0272556115231283,8.308344497598126,4.469362934878701
-0.0272522215231283,8.308344497598126,4.465596695594035
-0.0272488315231283,8.308344497598126,4.469362934878703
-0.0272454415231283,8.308344497598126,4.469362934878703
-0.02724205152312829,8.312045309601947,3.889362085038177
-0.02723866152312829,8.430471293722443,0.4922142502685556
-0.0272352715231283,8.400864797692305,-0.07272164243174928
-0.0272318815231283,8.360155865650885,-0.1066177959937522
-0.0272284915231283,8.352754241643339,-0.1103840352784328
-0.0272251015231283,8.352754241643332,-0.1066177959937676
-0.02722171152312829,8.349053429639564,-0.09908531742443016
-0.02721832152312829,8.349053429639564,-0.09908531742442846
-0.0272149315231283,8.349053429639564,-0.09531907813976147
-0.0272115415231283,8.349053429639564,-0.09155283885509448
-0.0272081515231283,8.345352617635799,-0.08402036028575881
-0.0272047615231283,8.349053429639564,-0.08025412100108667
-0.0272013715231283,8.349053429639564,-0.07648788171641797
-0.02719798152312829,8.349053429639563,-0.06895540314707886
-0.02719459152312829,8.345352617635795,-0.06518916386240844
-0.0271912015231283,8.341651805632031,-0.05765668529307448
-0.0271878115231283,8.345352617635795,-0.05765668529307448
-0.0271844215231283,8.345352617635797,-0.0501242067237405
-0.0271810315231283,8.341651805632031,-0.04635796743906838
-0.02717764152312829,8.345352617635797,-0.04259172815439968
-0.02717425152312829,8.345352617635797,-0.04259172815439626
-0.0271708615231283,8.345352617635797,-0.03505924958506228
-0.0271674715231283,8.341651805632031,-0.03505924958506228
-0.0271640815231283,8.345352617635795,-0.03505924958506228
-0.02716069152312829,8.341651805632031,-0.03505924958506228
-0.0271573015231283,8.345352617635797,-0.03505924958506228
-0.02715391152312829,8.345352617635795,-0.03505924958506056
-0.02715052152312829,8.341651805632031,-0.03129301030039187
-0.0271471315231283,8.341651805632031,-0.02752677101572488
-0.0271437415231283,8.345352617635795,-0.0237605317310579
-0.0271403515231283,8.341651805632033,-0.02752677101572317
-0.0271369615231283,8.345352617635797,-0.02376053173105618
-0.0271335715231283,8.337950993628263,-0.02752677101572488
-0.02713018152312829,8.337950993628265,-0.02376053173105447
-0.02712679152312829,8.341651805632031,-0.01999429244638748
-0.0271234015231283,8.341651805632031,-0.02376053173105618
-0.0271200115231283,8.337950993628265,-0.0199942924463892
-0.0271166215231283,8.337950993628263,-0.01999429244638748
-0.0271132315231283,8.341651805632031,-0.02376053173105618
-0.02710984152312829,8.341651805632031,-0.01999429244638748
-0.02710645152312829,8.341651805632029,-0.01999429244638748
-0.0271030615231283,8.337950993628263,-0.01999429244638748
-0.0270996715231283,8.341651805632029,-0.0162280531617205
-0.0270962815231283,8.337950993628265,-0.01999429244638577
-0.0270928915231283,8.337950993628263,-0.01999429244638748
-0.0270895015231283,8.334250181624496,-0.02376053173105618
-0.02708611152312829,8.337950993628263,-0.01999429244638748
-0.02708272152312829,8.337950993628263,-0.01999429244638577
-0.0270793315231283,8.337950993628263,-0.01622805316171878
-0.0270759415231283,8.334250181624498,-0.01999429244638577
-0.0270725515231283,8.334250181624496,-0.01999429244638748
-0.0270691615231283,8.334250181624496,-0.01999429244638748
-0.02706577152312829,8.330549369620734,-0.01622805316172221
-0.02706238152312829,8.334250181624496,-0.01999429244638577
-0.0270589915231283,8.334250181624496,-0.01622805316171878
-0.0270556015231283,8.334250181624496,-0.01622805316171878
-0.0270522115231283,8.334250181624496,-0.01999429244638577
-0.02704882152312829,8.334250181624494,-0.01999429244638748
-0.0270454315231283,8.33054936962073,-0.01999429244638748
-0.02704204152312829,8.334250181624494,-0.02376053173105447
-0.02703865152312829,8.330549369620728,-0.01999429244638748
-0.0270352615231283,8.326848557616962,-0.01999429244638748
-0.0270318715231283,8.334250181624492,-0.01999429244638748
-0.0270284815231283,8.330549369620732,-0.01999429244638748
-0.0270250915231283,8.33054936962073,-0.01999429244638748
-0.0270217015231283,8.33054936962073,-0.01999429244638748
-0.02701831152312829,8.326848557616964,-0.0199942924463892
-0.02701492152312829,8.33054936962073,-0.02376053173105618
-0.0270115315231283,8.33054936962073,-0.01622805316171878
-0.0270081415231283,8.33054936962073,-0.01999429244638577
-0.0270047515231283,8.33054936962073,-0.01999429244638748
-0.0270013615231283,8.326848557616962,-0.01999429244638748
-0.02699797152312829,8.326848557616959,-0.01622805316171878
-0.02699458152312829,8.323147745613202,-0.01622805316107653
-0.0269911915231283,8.337950993628263,1.396111678589044
-0.0269878015231283,8.334250181624498,4.258453534935954
-0.0269844115231283,8.330549369620732,4.540921481287279
-0.0269810215231283,8.33054936962073,4.559752677710751
-0.0269776315231283,8.33054936962073,4.555986438426083
-0.02697424152312829,8.323147745613197,4.559752677710749
-0.02697085152312829,8.326848557616962,4.555986438426079
-0.0269674615231283,8.326848557616962,4.548453959856745
-0.0269640715231283,8.323147745613197,4.544687720572078
-0.0269606815231283,8.323147745613195,4.537155242002743
-0.0269572915231283,8.323147745613195,4.537155242002739
-0.02695390152312829,8.326848557616959,4.525856524148729
-0.02695051152312829,8.323147745613195,4.522090284864064
-0.0269471215231283,8.323147745613195,4.522090284864064
-0.0269437315231283,8.323147745613195,4.514557806294727
-0.0269403415231283,8.326848557616961,4.51079156701006
-0.02693695152312829,8.323147745613195,4.507025327725388
-0.0269335615231283,8.323147745613195,4.50325908844072
-0.02693017152312829,8.323147745613195,4.49949284915605
-0.02692678152312829,8.323147745613193,4.49572660987138
-0.0269233915231283,8.319446933609427,4.488194131302046
-0.0269200015231283,8.323147745613193,4.491960370586713
-0.0269166115231283,8.323147745613195,4.488194131302047
-0.0269132215231283,8.319446933609427,4.484427892017377
-0.0269098315231283,8.319446933609427,4.484427892017377
-0.02690644152312829,8.319446933609429,4.48066165273271
-0.02690305152312829,8.323147745613195,4.484427892017377
-0.0268996615231283,8.319446933609427,4.47689541344804
-0.0268962715231283,8.319446933609427,4.47689541344804
-0.0268928815231283,8.315746121605663,4.480661652732705
-0.0268894915231283,8.31574612160566,4.473129174163371
-0.02688610152312829,8.319446933609427,4.476895413448037
-0.02688271152312829,8.319446933609425,4.473129174163371
-0.0268793215231283,8.31574612160566,4.473129174163371
-0.0268759315231283,8.31574612160566,4.473129174163371
-0.0268725415231283,8.31574612160566,4.476895413448038
-0.02686915152312829,8.31574612160566,4.469362934878703
-0.0268657615231283,8.31574612160566,4.469362934878703
-0.02686237152312829,8.31574612160566,4.473129174163371
-0.02685898152312829,8.31574612160566,4.473129174163371
-0.0268555915231283,8.31574612160566,4.473129174163371
-0.0268522015231283,8.31574612160566,4.469362934878705
-0.0268488115231283,8.312045309601896,4.469362934878703
-0.0268454215231283,8.31574612160566,4.469362934878703
-0.0268420315231283,8.312045309601896,4.469362934878703
-0.02683864152312829,8.312045309601894,4.469362934878701
-0.0268352515231283,8.312045309601894,4.465596695594034
-0.0268318615231283,8.312045309601894,4.469362934878703
-0.0268284715231283,8.315746121605658,4.469362934878703
-0.02682508152312829,8.312045309601894,4.469362934878703
-0.0268216915231283,8.312045309601894,4.469362934878703
-0.02681830152312829,8.312045309601894,4.465596695594035
-0.02681491152312829,8.312045309601892,4.469362934878701
-0.0268115215231283,8.308344497598126,4.465596695594034
-0.0268081315231283,8.312045309601892,4.473129174163367
-0.0268047415231283,8.315746121605658,4.469362934878705
-0.0268013515231283,8.31574612160566,4.469362934878703
-0.0267979615231283,8.308344497598126,4.473129174163371
-0.02679457152312829,8.308344497598126,4.469362934878703
-0.02679118152312829,8.308344497598126,4.469362934878703
-0.0267877915231283,8.308344497598126,4.465596695594034
-0.0267844015231283,8.312045309601892,4.469362934878701
-0.0267810115231283,8.30834449759813,4.469362934878703
-0.0267776215231283,8.312045309601894,4.469362934878703
-0.02677423152312829,8.308344497598126,4.461830456309365
-0.02677084152312829,8.308344497598126,4.461830456309369
-0.0267674515231283,8.308344497598126,4.469362934878703
-0.0267640615231283,8.304643685594359,4.469362934878703
-0.0267606715231283,8.300942873590595,4.469362934878703
-0.02675728152312829,8.300942873590593,4.469362934878703
-0.0267538915231283,8.304643685594359,4.465596695594034
-0.02675050152312829,8.308344497598123,4.465596695594035
-0.02674711152312829,8.300942873590595,4.469362934878703
-0.0267437215231283,8.304643685594359,4.469362934878703
-0.0267403315231283,8.374959113665904,2.043904835553163
-0.0267369415231283,8.426770481718652,0.0364992968245561
-0.0267335515231283,8.378659925669702,-0.1028515567090989
-0.0267301615231283,8.35645505364711,-0.1103840352784328
-0.02672677152312829,8.35275424164333,-0.1066177959937693
-0.0267233815231283,8.349053429639564,-0.1103840352784363
-0.0267199915231283,8.345352617635797,-0.1028515567090989
-0.0267166015231283,8.349053429639563,-0.09908531742443187
-0.02671321152312829,8.35275424164333,-0.09531907813975976
-0.0267098215231283,8.349053429639564,-0.09155283885509277
-0.02670643152312829,8.345352617635799,-0.08025412100108496
-0.02670304152312829,8.349053429639563,-0.07648788171641797
-0.0266996515231283,8.345352617635797,-0.07648788171641797
-0.0266962615231283,8.345352617635797,-0.07272164243175099
-0.0266928715231283,8.345352617635797,-0.0651891638624153
-0.0266894815231283,8.345352617635797,-0.06142292457774318
-0.0266860915231283,8.345352617635797,-0.05389044600840578
-0.02668270152312829,8.345352617635797,-0.05389044600840235
-0.02667931152312829,8.345352617635797,-0.04635796743906838
-0.0266759215231283,8.341651805632031,-0.04259172815439968
-0.0266725315231283,8.341651805632031,-0.03882548886973269
-0.0266691415231283,8.341651805632031,-0.03882548886973098
-0.0266657515231283,8.341651805632031,-0.03882548886973098
-0.02666236152312829,8.341651805632031,-0.03505924958505885
-0.02665897152312829,8.341651805632033,-0.03129301030039358
-0.0266555815231283,8.345352617635797,-0.03129301030039358
-0.0266521915231283,8.341651805632031,-0.03129301030039358
-0.0266488015231283,8.341651805632031,-0.0275267710157266
-0.02664541152312829,8.341651805632031,-0.03129301030039358
-0.0266420215231283,8.341651805632031,-0.02376053173105618
-0.02663863152312829,8.341651805632031,-0.02752677101572488
-0.02663524152312829,8.341651805632031,-0.02752677101572488
-0.0266318515231283,8.341651805632031,-0.02752677101572488
-0.0266284615231283,8.345352617635795,-0.0237605317310579
-0.0266250715231283,8.337950993628267,-0.02376053173105618
-0.0266216815231283,8.341651805632031,-0.02376053173105618
-0.0266182915231283,8.341651805632031,-0.01622805316172221
-0.02661490152312829,8.337950993628263,-0.02376053173105618
-0.0266115115231283,8.337950993628263,-0.02376053173105618
-0.0266081215231283,8.337950993628263,-0.02376053173105618
-0.0266047315231283,8.337950993628263,-0.0199942924463892
-0.0266013415231283,8.334250181624499,-0.01999429244638748
-0.0265979515231283,8.334250181624496,-0.02376053173105618
-0.02659456152312829,8.337950993628265,-0.02376053173105276
-0.02659117152312829,8.341651805632029,-0.01622805316171878
-0.0265877815231283,8.337950993628263,-0.01622805316171878
-0.0265843915231283,8.334250181624498,-0.01999429244638577
-0.0265810015231283,8.337950993628262,-0.01999429244638748
-0.0265776115231283,8.337950993628263,-0.01999429244638748
-0.0265742215231283,8.337950993628263,-0.01622805316171878
-0.02657083152312829,8.334250181624496,-0.01999429244638748
-0.02656744152312829,8.334250181624498,-0.0199942924463892
-0.0265640515231283,8.337950993628263,-0.02376053173105618
-0.0265606615231283,8.334250181624498,-0.02376053173105618
-0.0265572715231283,8.334250181624496,-0.01999429244639091
-0.0265538815231283,8.337950993628263,-0.01999429244638748
-0.02655049152312829,8.33795099362826,-0.01622805316171878
-0.02654710152312829,8.334250181624494,-0.01622805316171878
-0.0265437115231283,8.33054936962073,-0.01622805316171878
-0.0265403215231283,8.326848557616962,-0.01622805316171878
-0.0265369315231283,8.330549369620728,-0.01622805316171878
-0.02653354152312829,8.334250181624496,-0.01622805316171878
-0.0265301515231283,8.337950993628263,-0.02376053173105618
-0.02652676152312829,8.337950993628262,-0.01999429244638748
-0.02652337152312829,8.334250181624494,-0.01999429244638748
-0.0265199815231283,8.33054936962073,-0.01999429244638748
-0.0265165915231283,8.33054936962073,-0.01999429244638748
-0.0265132015231283,8.334250181624494,-0.01999429244638748
-0.0265098115231283,8.334250181624496,-0.02376053173105618
-0.0265064215231283,8.334250181624496,-0.0199942924463892
-0.02650303152312829,8.33054936962073,-0.02376053173105618
-0.0264996415231283,8.33054936962073,-0.02376053173105618
-0.0264962515231283,8.33054936962073,-0.01999429244638748
-0.0264928615231283,8.326848557616964,0.05533049324695226
-0.0264894715231283,8.345352617635781,3.403517217314415
-0.0264860815231283,8.334250181624496,4.484427892017377
-0.02648269152312829,8.33054936962073,4.559752677710753
-0.02647930152312829,8.330549369620728,4.563518916995418
-0.0264759115231283,8.326848557616962,4.559752677710751
-0.0264725215231283,8.326848557616962,4.555986438426085
-0.0264691315231283,8.323147745613197,4.552220199141416
-0.0264657415231283,8.326848557616962,4.548453959856745
-0.0264623515231283,8.323147745613195,4.540921481287408
-0.02645896152312829,8.326848557616962,4.533389002718069
-0.02645557152312829,8.326848557616961,4.5296227634334
-0.0264521815231283,8.323147745613195,4.525856524148733
-0.0264487915231283,8.323147745613195,4.522090284864066
-0.0264454015231283,8.326848557616959,4.514557806294734
-0.0264420115231283,8.323147745613195,4.510791567010058
-0.02643862152312829,8.319446933609431,4.507025327725382
-0.02643523152312829,8.323147745613193,4.499492849156052
-0.0264318415231283,8.319446933609427,4.499492849156052
-0.0264284515231283,8.319446933609427,4.499492849156052
-0.0264250615231283,8.326848557616959,4.495726609871385
-0.02642167152312829,8.323147745613195,4.491960370586715
-0.0264182815231283,8.323147745613195,4.488194131302046
-0.02641489152312829,8.319446933609427,4.484427892017377
-0.02641150152312829,8.319446933609427,4.484427892017376
-0.0264081115231283,8.319446933609427,4.480661652732708
-0.0264047215231283,8.319446933609427,4.480661652732708
-0.0264013315231283,8.319446933609427,4.484427892017376
-0.0263979415231283,8.319446933609427,4.480661652732708
-0.0263945515231283,8.31574612160566,4.47689541344804
-0.02639116152312829,8.319446933609425,4.476895413448038
-0.02638777152312829,8.31574612160566,4.473129174163371
-0.0263843815231283,8.31574612160566,4.47689541344804
-0.0263809915231283,8.312045309601896,4.473129174163373
-0.0263776015231283,8.31944693360942,4.473129174163371
-0.0263742115231283,8.31574612160566,4.473129174163371
-0.02637082152312829,8.319446933609425,4.473129174163367
-0.02636743152312829,8.31574612160566,4.465596695594037
-0.0263640415231283,8.31574612160566,4.473129174163371
-0.0263606515231283,8.31574612160566,4.473129174163371
-0.0263572615231283,8.312045309601896,4.469362934878705
-0.0263538715231283,8.312045309601894,4.469362934878703
-0.0263504815231283,8.31574612160566,4.469362934878703
-0.02634709152312829,8.315746121605658,4.465596695594035
-0.02634370152312829,8.312045309601894,4.469362934878703
-0.0263403115231283,8.312045309601894,4.469362934878703
-0.0263369215231283,8.312045309601894,4.465596695594035
-0.0263335315231283,8.315746121605656,4.469362934878699
-0.0263301415231283,8.312045309601894,4.465596695594034
-0.02632675152312829,8.312045309601894,4.465596695594037
-0.02632336152312829,8.312045309601894,4.469362934878703
-0.0263199715231283,8.312045309601894,4.469362934878703
-0.0263165815231283,8.312045309601894,4.469362934878703
-0.0263131915231283,8.312045309601894,4.469362934878703
-0.02630980152312829,8.312045309601894,4.465596695594034
-0.0263064115231283,8.308344497598126,4.469362934878703
-0.02630302152312829,8.308344497598126,4.469362934878701
-0.02629963152312829,8.308344497598126,4.465596695594032
