Versuch03/Measurements/3_4_d_5000.csv

#Digilent WaveForms Oscilloscope Acquisition
#Device Name: Discovery2
#Serial Number: SN:210321AA2D13
#Date Time: 2023-12-23 15:02:04.463
#Sample rate: 294985Hz
#Samples: 8192
#Trigger: Source: Vdcout Type: Edge Condition: Rising Level: 0 V Hyst.: Auto HoldOff: 0 s
#Vdcout: Range: 1 V/div Offset: -10 V Attenuation: 1 X Sample Mode: Average
#Vp: Range: 1 V/div Offset: 0 V Attenuation: 1 X Sample Mode: Average
#Wavegen Channel 1: Running
#Mode: Simple
#Type: Square
#Frequency: 5 kHz
#Period: 200 us
#Amplitude: 2.5 V
#Offset: 2.49 V
#Symmetry: 50 %
#Phase: 0 °

Time (s),Vdcout (V),Vp (V)
-0.02744206152312829,12.67900347404715,4.5296227634334
-0.0274386715231283,12.67900347404715,4.525856524148733
-0.0274352815231283,12.67900347404715,4.514557806294732
-0.0274318915231283,12.67900347404715,4.514557806294727
-0.0274285015231283,12.67900347404715,4.510791567010058
-0.0274251115231283,12.67900347404715,4.50702532772539
-0.02742172152312829,12.67530266204339,4.503259088440715
-0.02741833152312829,12.67530266204339,4.491960370586718
-0.0274149415231283,12.67900347404715,4.499492849156052
-0.0274115515231283,12.67900347404715,4.495726609871385
-0.0274081615231283,12.67900347404715,4.491960370586718
-0.0274047715231283,12.67900347404715,4.488194131302046
-0.02740138152312829,12.67530266204338,4.488194131302042
-0.02739799152312829,12.67160185003962,4.484427892017376
-0.0273946015231283,12.67530266204339,4.480661652732708
-0.0273912115231283,12.67160185003962,4.480661652732708
-0.0273878215231283,12.67530266204338,4.480661652732708
-0.02738443152312829,12.67160185003962,4.47689541344804
-0.0273810415231283,12.67160185003962,4.2170249028059
-0.02737765152312829,12.75301971412248,0.7520847609103311
-0.02737426152312829,12.71601159408482,-0.05012420672376276
-0.0273708715231283,12.70120834606976,-0.1066177959937676
-0.0273674815231283,12.69750753406599,-0.1103840352784346
-0.0273640915231283,12.69750753406599,-0.1066177959937693
-0.0273607015231283,12.69750753406599,-0.1028515567090989
-0.0273573115231283,12.69750753406599,-0.09908531742443016
-0.02735392152312829,12.69010591005846,-0.09531907813975804
-0.02735053152312829,12.69750753406599,-0.08778659957042408
-0.0273471415231283,12.69750753406599,-0.08402036028575538
-0.0273437515231283,12.69380672206222,-0.08025412100108838
-0.0273403615231283,12.69380672206222,-0.0764878817164214
-0.0273369715231283,12.69010591005845,-0.07272164243174928
-0.02733358152312829,12.69380672206222,-0.06518916386240844
-0.02733019152312829,12.69010591005845,-0.05765668529307277
-0.0273268015231283,12.69010591005845,-0.05389044600840578
-0.0273234115231283,12.69380672206222,-0.05012420672373879
-0.0273200215231283,12.69380672206222,-0.04635796743907009
-0.0273166315231283,12.68640509805469,-0.04635796743906838
-0.0273132415231283,12.69010591005845,-0.03882548886973098
-0.02730985152312829,12.69010591005845,-0.04259172815439626
-0.02730646152312829,12.68640509805469,-0.03505924958506399
-0.0273030715231283,12.69010591005845,-0.03882548886973098
-0.0272996815231283,12.68640509805469,-0.03505924958506399
-0.0272962915231283,12.68640509805469,-0.0312930103003953
-0.0272929015231283,12.68270428605092,-0.02752677101572488
-0.02728951152312829,12.68640509805468,-0.03129301030039015
-0.02728612152312829,12.68270428605092,-0.02752677101572488
-0.0272827315231283,12.68270428605092,-0.02752677101572488
-0.0272793415231283,12.69750753406599,1.844294153464619
-0.0272759515231283,12.69010591005846,4.333778320629498
-0.02727256152312829,12.68640509805469,4.540921481287408
-0.0272691715231283,12.68640509805469,4.555986438426083
-0.02726578152312829,12.68640509805468,4.559752677710749
-0.02726239152312829,12.67900347404716,4.555986438426081
-0.0272590015231283,12.68270428605092,4.552220199141414
-0.0272556115231283,12.68270428605092,4.54468772057208
-0.0272522215231283,12.68270428605092,4.544687720572076
-0.0272488315231283,12.67900347404715,4.540921481287408
-0.0272454415231283,12.68640509805469,4.529622763433402
-0.02724205152312829,12.67900347404715,4.525856524148731
-0.02723866152312829,12.67530266204339,4.522090284864064
-0.0272352715231283,12.67900347404715,4.518324045579395
-0.0272318815231283,12.67900347404715,4.510791567010061
-0.0272284915231283,12.68270428605092,4.510791567010058
-0.0272251015231283,12.67900347404715,4.50325908844072
-0.02722171152312829,12.68270428605091,4.499492849156052
-0.02721832152312829,12.67530266204339,4.49949284915605
-0.0272149315231283,12.67900347404715,4.495726609871383
-0.0272115415231283,12.67530266204339,4.495726609871383
-0.0272081515231283,12.67530266204339,4.491960370586717
-0.0272047615231283,12.67530266204339,4.484427892017377
-0.0272013715231283,12.67530266204339,4.484427892017377
-0.02719798152312829,12.67530266204339,4.48066165273271
-0.02719459152312829,12.67530266204339,4.484427892017376
-0.0271912015231283,12.67530266204339,4.480661652732708
-0.0271878115231283,12.67530266204339,4.484427892017376
-0.0271844215231283,12.67530266204339,4.476895413448044
-0.0271810315231283,12.67160185003962,4.213258663521231
-0.02717764152312829,12.75301971412246,0.7407860430559705
-0.02717425152312829,12.71971240608858,-0.05012420672376106
-0.0271708615231283,12.70120834606976,-0.1028515567090989
-0.0271674715231283,12.69750753406599,-0.1066177959937676
-0.0271640815231283,12.69750753406599,-0.1028515567091006
-0.02716069152312829,12.69380672206222,-0.1028515567090989
-0.0271573015231283,12.69380672206222,-0.09908531742443016
-0.02715391152312829,12.69750753406599,-0.09155283885509277
-0.02715052152312829,12.69750753406599,-0.09155283885508934
-0.0271471315231283,12.69380672206222,-0.08402036028575538
-0.0271437415231283,12.69010591005845,-0.08025412100108838
-0.0271403515231283,12.69010591005845,-0.07272164243175271
-0.0271369615231283,12.69380672206222,-0.06895540314708057
-0.0271335715231283,12.69010591005845,-0.06142292457774318
-0.02713018152312829,12.69010591005845,-0.06142292457774146
-0.02712679152312829,12.69010591005845,-0.05765668529307448
-0.0271234015231283,12.69010591005845,-0.05012420672373707
-0.0271200115231283,12.68640509805469,-0.04635796743907009
-0.0271166215231283,12.69010591005845,-0.04259172815440311
-0.0271132315231283,12.69010591005845,-0.04259172815439968
-0.02710984152312829,12.68640509805469,-0.04259172815439626
-0.02710645152312829,12.69010591005845,-0.03882548886972927
-0.0271030615231283,12.69010591005845,-0.03505924958506228
-0.0270996715231283,12.68640509805469,-0.03505924958506228
-0.0270962815231283,12.69010591005845,-0.02752677101572831
-0.0270928915231283,12.69010591005845,-0.03129301030039358
-0.0270895015231283,12.68270428605092,-0.02752677101572488
-0.02708611152312829,12.68640509805469,-0.02752677101572317
-0.02708272152312829,12.68640509805469,-0.02376053173020326
-0.0270793315231283,12.70120834606976,1.851826632033956
-0.0270759415231283,12.69010591005846,4.337544559914168
-0.0270725515231283,12.68270428605092,4.544687720571982
-0.0270691615231283,12.68270428605092,4.559752677710751
-0.02706577152312829,12.68640509805468,4.555986438426083
-0.02706238152312829,12.68270428605092,4.555986438426081
-0.0270589915231283,12.68270428605092,4.552220199141414
-0.0270556015231283,12.68270428605092,4.548453959856745
-0.0270522115231283,12.68270428605092,4.544687720572078
-0.02704882152312829,12.68270428605092,4.533389002718073
-0.0270454315231283,12.68270428605092,4.537155242002739
-0.02704204152312829,12.67530266204339,4.5296227634334
-0.02703865152312829,12.67530266204339,4.525856524148729
-0.0270352615231283,12.67900347404715,4.518324045579395
-0.0270318715231283,12.67530266204339,4.514557806294729
-0.0270284815231283,12.67530266204339,4.51079156701006
-0.0270250915231283,12.67900347404715,4.50702532772539
-0.0270217015231283,12.67530266204339,4.50325908844072
-0.02701831152312829,12.67530266204339,4.49949284915605
-0.02701492152312829,12.67530266204339,4.495726609871383
-0.0270115315231283,12.67530266204339,4.491960370586715
-0.0270081415231283,12.67530266204339,4.491960370586715
-0.0270047515231283,12.67160185003962,4.488194131302049
-0.0270013615231283,12.67530266204339,4.488194131302046
-0.02699797152312829,12.67530266204338,4.484427892017381
-0.02699458152312829,12.67160185003962,4.488194131302042
-0.0269911915231283,12.67160185003962,4.480661652732708
-0.0269878015231283,12.67530266204338,4.476895413448042
-0.0269844115231283,12.67530266204339,4.47689541344804
-0.0269810215231283,12.67530266204339,4.205726184951893
-0.0269776315231283,12.75672052612626,0.7370198037720211
-0.02697424152312829,12.71231078208105,-0.05012420672376276
-0.02697085152312829,12.70120834606975,-0.1066177959937659
-0.0269674615231283,12.69750753406599,-0.1028515567090989
-0.0269640715231283,12.69750753406599,-0.1066177959937659
-0.0269606815231283,12.69750753406599,-0.09908531742443359
-0.0269572915231283,12.69750753406599,-0.09531907813976147
-0.02695390152312829,12.69380672206222,-0.09155283885509277
-0.02695051152312829,12.69380672206222,-0.09155283885508934
-0.0269471215231283,12.69380672206222,-0.08402036028575538
-0.0269437315231283,12.69380672206222,-0.08025412100108667
-0.0269403415231283,12.69010591005845,-0.07272164243175271
-0.02693695152312829,12.69380672206222,-0.06518916386241017
-0.0269335615231283,12.69750753406599,-0.06142292457774318
-0.02693017152312829,12.69380672206222,-0.05765668529307277
-0.02692678152312829,12.69380672206222,-0.05389044600840406
-0.0269233915231283,12.69380672206222,-0.05012420672373707
-0.0269200015231283,12.69010591005845,-0.04635796743907009
-0.0269166115231283,12.69010591005845,-0.04635796743906838
-0.0269132215231283,12.69010591005845,-0.04259172815439968
-0.0269098315231283,12.68640509805469,-0.03505924958506228
-0.02690644152312829,12.69010591005845,-0.03882548886972927
-0.02690305152312829,12.69010591005845,-0.03505924958506228
-0.0268996615231283,12.69010591005845,-0.03505924958506228
-0.0268962715231283,12.69010591005845,-0.0312930103003953
-0.0268928815231283,12.69010591005845,-0.02752677101572831
-0.0268894915231283,12.68640509805469,-0.02752677101572488
-0.02688610152312829,12.68640509805469,-0.03129301030038673
-0.02688271152312829,12.68640509805469,-0.0237605317301947
-0.0268793215231283,12.70120834606976,1.8706578284573
-0.0268759315231283,12.69380672206222,4.345077038484636
-0.0268725415231283,12.68640509805469,4.544687720571986
-0.02686915152312829,12.68270428605092,4.56351891699542
-0.0268657615231283,12.68270428605092,4.559752677710751
-0.02686237152312829,12.68640509805469,4.555986438426079
-0.02685898152312829,12.68640509805468,4.548453959856745
-0.0268555915231283,12.68270428605092,4.548453959856745
-0.0268522015231283,12.68640509805468,4.540921481287412
-0.0268488115231283,12.68270428605092,4.537155242002741
-0.0268454215231283,12.67530266204339,4.533389002718071
-0.0268420315231283,12.68270428605092,4.529622763433403
-0.02683864152312829,12.68270428605092,4.525856524148729
-0.0268352515231283,12.67900347404715,4.518324045579395
-0.0268318615231283,12.67900347404715,4.518324045579395
-0.0268284715231283,12.67900347404715,4.510791567010061
-0.02682508152312829,12.67900347404715,4.510791567010054
-0.0268216915231283,12.67900347404715,4.50325908844072
-0.02681830152312829,12.67900347404715,4.499492849156052
-0.02681491152312829,12.67900347404715,4.499492849156049
-0.0268115215231283,12.67160185003962,4.491960370586715
-0.0268081315231283,12.67530266204338,4.491960370586715
-0.0268047415231283,12.67530266204339,4.491960370586715
-0.0268013515231283,12.67530266204339,4.491960370586715
-0.0267979615231283,12.67530266204339,4.488194131302046
-0.02679457152312829,12.67530266204339,4.480661652732708
-0.02679118152312829,12.67530266204339,4.480661652732708
-0.0267877915231283,12.67530266204339,4.480661652732708
-0.0267844015231283,12.67530266204339,4.480661652732708
-0.0267810115231283,12.67530266204339,4.198193706382813
-0.0267776215231283,12.75672052612626,0.7294873252026837
-0.02677423152312829,12.71601159408481,-0.0538904460084503
-0.02677084152312829,12.70490915807352,-0.1028515567090989
-0.0267674515231283,12.70490915807352,-0.1028515567090989
-0.0267640615231283,12.69750753406599,-0.1066177959937676
-0.0267606715231283,12.70120834606975,-0.1028515567091006
-0.02675728152312829,12.69750753406599,-0.1028515567090989
-0.0267538915231283,12.69380672206222,-0.09155283885509277
-0.02675050152312829,12.69380672206222,-0.08778659957042408
-0.02674711152312829,12.69380672206222,-0.08778659957042237
-0.0267437215231283,12.69750753406599,-0.08402036028575538
-0.0267403315231283,12.69380672206222,-0.0764878817164214
-0.0267369415231283,12.69380672206222,-0.07272164243175099
-0.0267335515231283,12.69380672206222,-0.06142292457774318
-0.0267301615231283,12.69380672206222,-0.06142292457774318
-0.02672677152312829,12.69010591005845,-0.06142292457773975
-0.0267233815231283,12.69010591005845,-0.05389044600840578
-0.0267199915231283,12.69010591005845,-0.04635796743906838
-0.0267166015231283,12.69010591005845,-0.04635796743906838
-0.02671321152312829,12.69380672206222,-0.04259172815439626
-0.0267098215231283,12.69010591005845,-0.03505924958506228
-0.02670643152312829,12.69010591005845,-0.03505924958506228
-0.02670304152312829,12.69010591005845,-0.03505924958506056
-0.0266996515231283,12.68640509805469,-0.03129301030039358
-0.0266962615231283,12.68640509805469,-0.03505924958506056
-0.0266928715231283,12.68640509805469,-0.02752677101572831
-0.0266894815231283,12.68640509805469,-0.02752677101572488
-0.0266860915231283,12.68640509805469,-0.02752677101572488
-0.02668270152312829,12.68640509805469,-0.02376053173019299
-0.02667931152312829,12.69750753406599,1.874424067741968
-0.0266759215231283,12.69010591005845,4.345077038484636
-0.0266725315231283,12.69010591005845,4.544687720571986
-0.0266691415231283,12.68640509805469,4.563518916995403
-0.0266657515231283,12.68640509805469,4.559752677710751
-0.02666236152312829,12.68270428605092,4.555986438426079
-0.02665897152312829,12.67900347404716,4.552220199141412
-0.0266555815231283,12.68270428605092,4.548453959856745
-0.0266521915231283,12.68270428605092,4.544687720572076
-0.0266488015231283,12.67900347404716,4.54092148128741
-0.02664541152312829,12.68270428605092,4.529622763433402
-0.0266420215231283,12.67900347404715,4.525856524148733
-0.02663863152312829,12.67900347404715,4.525856524148731
-0.02663524152312829,12.67900347404716,4.522090284864063
-0.0266318515231283,12.68270428605092,4.518324045579395
-0.0266284615231283,12.68270428605092,4.510791567010061
-0.0266250715231283,12.67900347404716,4.507025327725391
-0.0266216815231283,12.67530266204339,4.50325908844072
-0.0266182915231283,12.67900347404715,4.50325908844072
-0.02661490152312829,12.67530266204339,4.495726609871381
-0.0266115115231283,12.67530266204339,4.491960370586715
-0.0266081215231283,12.67900347404715,4.491960370586715
-0.0266047315231283,12.67530266204339,4.484427892017381
-0.0266013415231283,12.67530266204339,4.484427892017377
-0.0265979515231283,12.67530266204339,4.488194131302046
-0.02659456152312829,12.67530266204338,4.480661652732707
-0.02659117152312829,12.67160185003962,4.476895413448042
-0.0265877815231283,12.67160185003962,4.480661652732708
-0.0265843915231283,12.66790103803585,4.480661652732708
-0.0265810015231283,12.67160185003962,4.198193706382685
-0.0265776115231283,12.76042133813003,0.7219548466333463
-0.0265742215231283,12.71971240608859,-0.05012420672373707
-0.02657083152312829,12.70120834606975,-0.1028515567091006
-0.02656744152312829,12.69750753406599,-0.1066177959937659
-0.0265640515231283,12.69750753406599,-0.1028515567090989
-0.0265606615231283,12.69380672206222,-0.1028515567090989
-0.0265572715231283,12.69750753406598,-0.09908531742443359
-0.0265538815231283,12.69750753406599,-0.09531907813976147
-0.02655049152312829,12.69380672206222,-0.09155283885508592
-0.02654710152312829,12.69750753406599,-0.08402036028575367
-0.0265437115231283,12.69380672206222,-0.08025412100108667
-0.0265403215231283,12.69380672206222,-0.07272164243174928
-0.0265369315231283,12.69750753406599,-0.07272164243174928
-0.02653354152312829,12.69380672206222,-0.05765668529307448
-0.0265301515231283,12.69380672206222,-0.05765668529307448
-0.02652676152312829,12.69010591005845,-0.05012420672373879
-0.02652337152312829,12.69010591005845,-0.05389044600840235
-0.0265199815231283,12.69380672206222,-0.04635796743906838
-0.0265165915231283,12.69010591005845,-0.04635796743906838
-0.0265132015231283,12.69010591005845,-0.0425917281544014
-0.0265098115231283,12.69380672206222,-0.03882548886973098
-0.0265064215231283,12.69010591005845,-0.03505924958506399
-0.02650303152312829,12.68640509805469,-0.03129301030039358
-0.0264996415231283,12.69380672206222,-0.03129301030039358
-0.0264962515231283,12.68640509805469,-0.03129301030039358
-0.0264928615231283,12.69010591005845,-0.0275267710157266
-0.0264894715231283,12.69010591005845,-0.02376053173105961
-0.0264860815231283,12.68640509805469,-0.02752677101572488
-0.02648269152312829,12.6864050980547,-0.02376053173018442
-0.02647930152312829,12.70490915807352,1.893255264166427
-0.0264759115231283,12.69380672206222,4.345077038484636
-0.0264725215231283,12.68640509805469,4.544687720571986
-0.0264691315231283,12.68270428605092,4.559752677710744
-0.0264657415231283,12.68640509805469,4.555986438426083
-0.0264623515231283,12.68270428605092,4.559752677710751
-0.02645896152312829,12.68640509805469,4.552220199141412
-0.02645557152312829,12.68640509805468,4.548453959856742
-0.0264521815231283,12.68270428605092,4.540921481287408
-0.0264487915231283,12.68270428605092,4.540921481287408
-0.0264454015231283,12.68270428605092,4.533389002718078
-0.0264420115231283,12.67900347404715,4.529622763433402
-0.02643862152312829,12.68270428605092,4.522090284864057
-0.02643523152312829,12.68270428605092,4.514557806294725
-0.0264318415231283,12.67900347404715,4.510791567010058
-0.0264284515231283,12.67900347404715,4.50702532772539
-0.0264250615231283,12.67900347404715,4.503259088440722
-0.02642167152312829,12.67530266204339,4.499492849156052
-0.0264182815231283,12.67530266204339,4.495726609871383
-0.02641489152312829,12.67900347404715,4.495726609871381
-0.02641150152312829,12.67900347404715,4.491960370586713
-0.0264081115231283,12.67530266204339,4.488194131302046
-0.0264047215231283,12.67530266204339,4.491960370586713
-0.0264013315231283,12.67530266204339,4.484427892017381
-0.0263979415231283,12.67900347404715,4.484427892017377
-0.0263945515231283,12.67530266204339,4.488194131302046
-0.02639116152312829,12.67160185003962,4.476895413448042
-0.02638777152312829,12.67160185003962,4.480661652732708
-0.0263843815231283,12.67160185003962,4.47689541344804
-0.0263809915231283,12.67160185003962,4.186894988528682
-0.0263776015231283,12.76042133812995,0.7144223680671673
-0.0263742115231283,12.71601159408482,-0.05012420672373707
-0.02637082152312829,12.70120834606976,-0.1028515567091006
-0.02636743152312829,12.70120834606975,-0.1066177959937659
-0.0263640415231283,12.69380672206222,-0.1028515567090989
-0.0263606515231283,12.70120834606975,-0.1028515567090989
-0.0263572615231283,12.69750753406599,-0.09908531742443187
-0.0263538715231283,12.69380672206222,-0.09531907813976147
-0.0263504815231283,12.69380672206222,-0.09155283885509277
-0.02634709152312829,12.69380672206222,-0.08402036028575367
-0.02634370152312829,12.69380672206222,-0.08025412100108496
-0.0263403115231283,12.69010591005845,-0.07648788171641797
-0.0263369215231283,12.69380672206222,-0.07272164243175099
-0.0263335315231283,12.69010591005846,-0.06518916386241873
-0.0263301415231283,12.69010591005845,-0.06142292457774318
-0.02632675152312829,12.69380672206222,-0.05765668529307105
-0.02632336152312829,12.69380672206222,-0.05389044600840406
-0.0263199715231283,12.69010591005845,-0.05012420672373707
-0.0263165815231283,12.69010591005845,-0.04635796743906838
-0.0263131915231283,12.69380672206222,-0.0425917281544014
-0.02630980152312829,12.69010591005845,-0.03882548886973098
-0.0263064115231283,12.69010591005845,-0.03882548886973098
