Versuch03/Measurements/3_4_d_100.csv

#Digilent WaveForms Oscilloscope Acquisition
#Device Name: Discovery2
#Serial Number: SN:210321AA2D13
#Date Time: 2023-12-23 15:00:00.267
#Sample rate: 79936.1Hz
#Samples: 8192
#Trigger: Source: Vdcout Type: Edge Condition: Rising Level: 0 V Hyst.: Auto HoldOff: 0 s
#Vdcout: Range: 1 V/div Offset: 0 V Attenuation: 1 X Sample Mode: Average
#Vp: Range: 1 V/div Offset: 0 V Attenuation: 1 X Sample Mode: Average
#Wavegen Channel 1: Running
#Mode: Simple
#Type: Square
#Frequency: 100 Hz
#Period: 10 ms
#Amplitude: 2.5 V
#Offset: 2.49 V
#Symmetry: 50 %
#Phase: 0 °

Time (s),Vdcout (V),Vp (V)
-0.1012434620016013,4.807113821328377,-0.01622805316171878
-0.1012309520016013,4.807113821328377,-0.01999429244638577
-0.1012184420016013,4.807113821328377,-0.01622805316171878
-0.1012059320016013,4.807113821328379,-0.0162280531617205
-0.1011934220016013,4.810814633332144,-0.01999429244638748
-0.1011809120016013,4.810814633332144,-0.01999429244638748
-0.1011684020016013,4.807113821328377,-0.01622805316171878
-0.1011558920016013,4.810814633332144,-0.01999429244638748
-0.1011433820016013,4.810814633332144,-0.01999429244638748
-0.1011308720016013,4.807113821328379,-0.01999429244638748
-0.1011183620016013,4.807113821328377,-0.01999429244638748
-0.1011058520016013,4.810814633332144,-0.01622805316171878
-0.1010933420016013,4.810814633332144,-0.01622805316171878
-0.1010808320016013,4.810814633332144,-0.01999429244638577
-0.1010683220016013,4.807113821328377,-0.01999429244638748
-0.1010558120016013,4.807113821328377,-0.01999429244638748
-0.1010433020016013,4.807113821328379,-0.01999429244638748
-0.1010307920016013,4.810814633332142,-0.01999429244638748
-0.1010182820016013,4.810814633332144,-0.02376053173105276
-0.1010057720016013,4.810814633332144,-0.01999429244638748
-0.1009932620016013,4.810814633332144,-0.01999429244638748
-0.1009807520016013,4.810814633332144,-0.01999429244638748
-0.1009682420016013,4.810814633332144,-0.01999429244638748
-0.1009557320016013,4.814515445335911,0.424421943144519
-0.1009432220016013,4.810814633332142,4.488194131302075
-0.1009307120016013,4.807113821328377,4.552220199141414
-0.1009182020016013,4.803413009324611,4.537155242002746
-0.1009056920016013,4.807113821328377,4.514557806294727
-0.1008931820016013,4.803413009324609,4.503259088440715
-0.1008806720016013,4.803413009324609,4.491960370586715
-0.1008681620016013,4.799712197320845,4.484427892017381
-0.1008556520016013,4.799712197320843,4.47689541344804
-0.1008431420016013,4.799712197320843,4.473129174163371
-0.1008306320016013,4.799712197320843,4.473129174163371
-0.1008181220016013,4.799712197320843,4.469362934878705
-0.1008056120016013,4.796011385317075,4.469362934878703
-0.1007931020016013,4.799712197320843,4.465596695594037
-0.1007805920016013,4.799712197320843,4.469362934878703
-0.1007680820016013,4.799712197320843,4.469362934878703
-0.1007555720016013,4.799712197320843,4.469362934878703
-0.1007430620016013,4.796011385317077,4.469362934878703
-0.1007305520016013,4.796011385317075,4.469362934878703
-0.1007180420016013,4.796011385317075,4.469362934878703
-0.1007055320016013,4.792310573313312,4.469362934878703
-0.1006930220016013,4.792310573313308,4.469362934878703
-0.1006805120016013,4.792310573313308,4.469362934878703
-0.1006680020016013,4.792310573313308,4.469362934878703
-0.1006554920016013,4.792310573313308,4.465596695594035
-0.1006429820016013,4.792310573313308,4.465596695594034
-0.1006304720016013,4.788609761309539,4.469362934878703
-0.1006179620016013,4.784908949305774,4.469362934878703
-0.1006054520016013,4.788609761309539,4.465596695594035
-0.1005929420016013,4.788609761309541,4.469362934878703
-0.1005804320016013,4.788609761309541,4.465596695594035
-0.1005679220016013,4.788609761309541,4.469362934878703
-0.1005554120016013,4.784908949305776,4.469362934878703
-0.1005429020016013,4.784908949305774,4.469362934878703
-0.1005303920016013,4.784908949305774,4.469362934878703
-0.1005178820016013,4.784908949305774,4.469362934878703
-0.1005053720016013,4.784908949305774,4.469362934878703
-0.1004928620016013,4.781208137302007,4.469362934878703
-0.1004803520016013,4.781208137302007,4.469362934878703
-0.1004678420016013,4.781208137302007,4.469362934878703
-0.1004553320016013,4.781208137302007,4.469362934878703
-0.1004428220016013,4.781208137302007,4.465596695594037
-0.1004303120016013,4.77750732529824,4.465596695594034
-0.1004178020016013,4.77750732529824,4.465596695594035
-0.1004052920016013,4.77750732529824,4.469362934878703
-0.1003927820016013,4.77750732529824,4.469362934878703
-0.1003802720016013,4.77750732529824,4.469362934878703
-0.1003677620016013,4.77750732529824,4.465596695594035
-0.1003552520016013,4.77750732529824,4.469362934878703
-0.1003427420016013,4.773806513294474,4.469362934878703
-0.1003302320016013,4.770105701290706,4.465596695594034
-0.1003177220016013,4.773806513294472,4.469362934878703
-0.1003052120016013,4.773806513294472,4.469362934878703
-0.1002927020016013,4.773806513294472,4.465596695594035
-0.1002801920016013,4.770105701290706,4.469362934878703
-0.1002676820016013,4.770105701290707,4.465596695594035
-0.1002551720016013,4.773806513294472,4.469362934878703
-0.1002426620016013,4.770105701290707,4.469362934878703
-0.1002301520016013,4.770105701290706,4.469362934878703
-0.1002176420016013,4.770105701290706,4.465596695594037
-0.1002051320016013,4.770105701290706,4.469362934878703
-0.1001926220016013,4.770105701290706,4.469362934878703
-0.1001801120016013,4.770105701290706,4.469362934878703
-0.1001676020016013,4.770105701290706,4.469362934878703
-0.1001550920016013,4.766404889286938,4.469362934878703
-0.1001425820016013,4.766404889286938,4.469362934878703
-0.1001300720016013,4.762704077283175,4.469362934878703
-0.1001175620016013,4.762704077283171,4.469362934878703
-0.1001050520016013,4.762704077283171,4.469362934878703
-0.1000925420016013,4.762704077283171,4.469362934878703
-0.1000800320016013,4.762704077283171,4.469362934878703
-0.1000675220016013,4.762704077283171,4.469362934878703
-0.1000550120016013,4.762704077283171,4.465596695594035
-0.1000425020016013,4.762704077283171,4.469362934878703
-0.1000299920016013,4.759003265279405,4.469362934878703
-0.1000174820016013,4.762704077283171,4.469362934878703
-0.1000049720016013,4.759003265279404,4.469362934878703
-0.09999246200160128,4.759003265279404,4.469362934878703
-0.09997995200160129,4.759003265279404,4.469362934878703
-0.09996744200160128,4.755302453275637,4.465596695594034
-0.09995493200160127,4.755302453275637,4.469362934878703
-0.09994242200160128,4.755302453275637,4.469362934878703
-0.09992991200160128,4.755302453275637,4.469362934878703
-0.09991740200160128,4.755302453275637,4.469362934878703
-0.09990489200160127,4.755302453275637,4.469362934878703
-0.09989238200160128,4.755302453275635,4.469362934878703
-0.09987987200160128,4.751601641271871,4.469362934878703
-0.09986736200160129,4.755302453275633,4.469362934878703
-0.09985485200160128,4.751601641271869,4.469362934878703
-0.09984234200160128,4.751601641271869,4.469362934878703
-0.09982983200160128,4.751601641271869,4.469362934878703
-0.09981732200160129,4.751601641271869,4.469362934878703
-0.09980481200160128,4.747900829268103,4.469362934878703
-0.09979230200160127,4.747900829268104,4.469362934878703
-0.09977979200160128,4.751601641271869,4.469362934878703
-0.09976728200160129,4.747900829268104,4.469362934878703
-0.09975477200160128,4.747900829268103,4.469362934878703
-0.09974226200160127,4.747900829268103,4.469362934878703
-0.09972975200160128,4.747900829268103,4.469362934878703
-0.09971724200160129,4.744200017264337,4.469362934878703
-0.09970473200160128,4.744200017264335,4.469362934878703
-0.09969222200160127,4.744200017264335,4.469362934878703
-0.09967971200160128,4.744200017264335,4.469362934878703
-0.09966720200160128,4.744200017264335,4.469362934878703
-0.09965469200160128,4.744200017264335,4.469362934878703
-0.09964218200160127,4.740499205260572,4.469362934878703
-0.09962967200160128,4.744200017264335,4.469362934878703
-0.09961716200160128,4.74049920526057,4.469362934878703
-0.09960465200160128,4.740499205260568,4.469362934878703
-0.09959214200160128,4.740499205260568,4.469362934878703
-0.09957963200160128,4.740499205260567,4.469362934878703
-0.09956712200160128,4.736798393256801,4.469362934878703
-0.09955461200160129,4.736798393256801,4.465596695594037
-0.09954210200160128,4.736798393256801,4.469362934878703
-0.09952959200160127,4.736798393256801,4.469362934878701
-0.09951708200160128,4.736798393256801,4.465596695594034
-0.09950457200160129,4.736798393256801,4.469362934878701
-0.09949206200160128,4.736798393256801,4.469362934878703
-0.09947955200160127,4.736798393256801,4.469362934878703
-0.09946704200160128,4.736798393256801,4.469362934878703
-0.09945453200160129,4.733097581253035,4.469362934878703
-0.09944202200160128,4.733097581253033,4.469362934878703
-0.09942951200160127,4.733097581253033,4.469362934878703
-0.09941700200160128,4.733097581253033,4.469362934878703
-0.09940449200160129,4.733097581253033,4.469362934878703
-0.09939198200160128,4.729396769249266,4.469362934878703
-0.09937947200160127,4.729396769249266,4.469362934878703
-0.09936696200160128,4.729396769249266,4.469362934878703
-0.09935445200160128,4.729396769249266,4.469362934878703
-0.09934194200160128,4.729396769249266,4.469362934878703
-0.09932943200160127,4.729396769249263,4.469362934878699
-0.09931692200160128,4.725695957245501,4.465596695594034
-0.09930441200160128,4.729396769249265,4.465596695594034
-0.09929190200160129,4.725695957245502,4.465596695594034
-0.09927939200160128,4.721995145241732,4.469362934878703
-0.09926688200160128,4.721995145241734,4.469362934878703
-0.09925437200160128,4.725695957245499,4.469362934878703
-0.09924186200160129,4.725695957245499,4.469362934878703
-0.09922935200160128,4.725695957245499,4.469362934878703
-0.09921684200160127,4.721995145241732,4.469362934878703
-0.09920433200160128,4.721995145241732,4.469362934878703
-0.09919182200160129,4.721995145241732,4.469362934878703
-0.09917931200160128,4.721995145241732,4.469362934878703
-0.09916680200160127,4.721995145241732,4.469362934878703
-0.09915429200160128,4.721995145241732,4.469362934878703
-0.09914178200160129,4.718294333237966,4.469362934878703
-0.09912927200160128,4.721995145241732,4.469362934878703
-0.09911676200160127,4.718294333237965,4.469362934878703
-0.09910425200160128,4.718294333237965,4.469362934878703
-0.09909174200160129,4.718294333237965,4.469362934878703
-0.09907923200160128,4.714593521234198,4.469362934878703
-0.09906672200160127,4.714593521234198,4.469362934878703
-0.09905421200160128,4.714593521234198,4.469362934878703
-0.09904170200160128,4.714593521234198,4.469362934878703
-0.09902919200160128,4.718294333237963,4.469362934878703
-0.09901668200160128,4.7145935212342,4.469362934878703
-0.09900417200160128,4.714593521234198,4.469362934878703
-0.09899166200160128,4.714593521234198,4.469362934878703
-0.09897915200160129,4.710892709230434,4.469362934878703
-0.09896664200160128,4.71089270923043,4.465596695594034
-0.09895413200160127,4.71089270923043,4.469362934878703
-0.09894162200160128,4.71089270923043,4.469362934878703
-0.09892911200160129,4.71089270923043,4.469362934878703
-0.09891660200160128,4.71089270923043,4.469362934878703
-0.09890409200160127,4.707191897226665,4.465596695594035
-0.09889158200160128,4.71089270923043,4.469362934878703
-0.09887907200160129,4.707191897226665,4.469362934878703
-0.09886656200160128,4.707191897226664,4.469362934878703
-0.09885405200160127,4.707191897226662,4.469362934878703
-0.09884154200160128,4.703491085222896,4.469362934878703
-0.09882903200160129,4.707191897226662,4.469362934878703
-0.09881652200160128,4.703491085222896,4.465596695594034
-0.09880401200160127,4.703491085222896,4.465596695594034
-0.09879150200160128,4.703491085222896,4.465596695594034
-0.09877899200160128,4.703491085222896,4.469362934878701
-0.09876648200160128,4.703491085222896,4.465596695594034
-0.09875397200160127,4.703491085222892,4.465596695594037
-0.09874146200160128,4.699790273219131,4.469362934878701
-0.09872895200160128,4.703491085222894,4.465596695594035
-0.09871644200160129,4.699790273219133,4.465596695594034
-0.09870393200160128,4.699790273219129,4.469362934878701
-0.09869142200160128,4.699790273219129,4.469362934878701
-0.09867891200160128,4.699790273219129,4.465596695594034
-0.09866640200160129,4.699790273219129,4.465596695594034
-0.09865389200160128,4.696089461215362,4.469362934878703
-0.09864138200160127,4.696089461215362,4.465596695594035
-0.09862887200160128,4.696089461215362,4.469362934878703
-0.09861636200160129,4.696089461215362,4.469362934878703
-0.09860385200160128,4.692388649211595,4.469362934878703
-0.09859134200160127,4.69608946121536,4.469362934878703
-0.09857883200160128,4.692388649211595,4.469362934878703
-0.09856632200160129,4.692388649211595,4.465596695594035
-0.09855381200160128,4.692388649211595,4.465596695594034
-0.09854130200160127,4.692388649211595,4.469362934878703
-0.09852879200160128,4.692388649211595,4.469362934878703
-0.09851628200160129,4.692388649211595,4.465596695594035
-0.09850377200160128,4.692388649211595,4.465596695594034
-0.09849126200160127,4.692388649211595,4.469362934878699
-0.09847875200160128,4.692388649211595,4.465596695594034
-0.09846624200160128,4.692388649211595,4.469362934878701
-0.09845373200160128,4.688687837207827,4.465596695594035
-0.09844122200160127,4.688687837207827,4.469362934878699
-0.09842871200160128,4.688687837207827,4.465596695594035
-0.09841620200160128,4.688687837207827,4.469362934878701
-0.09840369200160129,4.684987025204064,4.469362934878703
-0.09839118200160128,4.684987025204061,4.469362934878703
-0.09837867200160128,4.684987025204061,4.465596695594034
-0.09836616200160128,4.684987025204061,4.465596695594034
-0.09835365200160129,4.684987025204061,4.469362934878701
-0.09834114200160128,4.681286213200293,4.469362934878703
-0.09832863200160127,4.684987025204059,4.469362934878703
-0.09831612200160128,4.681286213200293,4.469362934878703
-0.09830361200160129,4.681286213200293,4.465596695594035
-0.09829110200160128,4.681286213200293,4.465596695594034
-0.09827859200160127,4.681286213200293,4.465596695594034
-0.09826608200160128,4.681286213200293,4.465596695594034
-0.09825357200160129,4.677585401196528,4.469362934878701
-0.09824106200160128,4.673884589192759,4.465596695594034
-0.09822855200160127,4.677585401196526,4.465596695594034
-0.09821604200160128,4.677585401196526,4.465596695594034
-0.09820353200160128,4.677585401196526,4.465596695594034
-0.09819102200160128,4.673884589192759,4.469362934878703
-0.09817851200160127,4.673884589192759,4.469362934878703
-0.09816600200160128,4.673884589192759,4.469362934878703
-0.09815349200160128,4.673884589192759,4.469362934878703
-0.09814098200160129,4.670183777188996,4.469362934878703
-0.09812847200160128,4.673884589192757,4.469362934878703
-0.09811596200160128,4.673884589192757,4.465596695594035
-0.09810345200160128,4.670183777188992,4.469362934878703
-0.09809094200160129,4.670183777188992,4.469362934878703
-0.09807843200160128,4.670183777188992,4.469362934878703
-0.09806592200160127,4.670183777188992,4.469362934878703
-0.09805341200160128,4.670183777188992,4.469362934878703
-0.09804090200160129,4.670183777188992,4.465596695594035
-0.09802839200160128,4.666482965185224,4.469362934878703
-0.09801588200160127,4.666482965185224,4.465596695594034
-0.09800337200160128,4.666482965185224,4.465596695594034
-0.09799086200160129,4.666482965185224,4.469362934878701
-0.09797835200160128,4.670183777188992,4.469362934878703
-0.09796584200160127,4.666482965185224,4.469362934878701
-0.09795333200160128,4.666482965185224,4.465596695594034
-0.09794082200160129,4.666482965185224,4.469362934878701
-0.09792831200160128,4.662782153181458,4.469362934878703
-0.09791580200160127,4.666482965185221,4.465596695594037
-0.09790329200160128,4.662782153181458,4.469362934878703
-0.09789078200160128,4.662782153181458,4.465596695594035
-0.09787827200160128,4.662782153181458,4.465596695594035
-0.09786576200160127,4.662782153181458,4.469362934878703
-0.09785325200160128,4.662782153181458,4.469362934878701
-0.09784074200160128,4.662782153181458,4.465596695594035
-0.09782823200160129,4.659081341177694,4.465596695594034
-0.09781572200160128,4.65908134117769,4.469362934878703
-0.09780321200160128,4.65908134117769,4.469362934878703
-0.09779070200160128,4.65908134117769,4.469362934878703
-0.09777819200160129,4.65908134117769,4.469362934878703
-0.09776568200160128,4.65908134117769,4.469362934878703
-0.09775317200160127,4.659081341177688,4.465596695594035
-0.09774066200160128,4.655380529173923,4.469362934878703
-0.09772815200160129,4.655380529173923,4.469362934878703
-0.09771564200160128,4.655380529173923,4.469362934878703
-0.09770313200160127,4.655380529173923,4.469362934878701
-0.09769062200160128,4.655380529173923,4.465596695594034
-0.09767811200160129,4.655380529173923,4.469362934878701
-0.09766560200160128,4.651679717170156,4.469362934878703
-0.09765309200160127,4.655380529173922,4.469362934878703
-0.09764058200160128,4.651679717170156,4.469362934878703
-0.09762807200160128,4.651679717170156,4.469362934878703
-0.09761556200160128,4.651679717170156,4.469362934878703
-0.09760305200160127,4.651679717170152,4.465596695594037
-0.09759054200160128,4.647978905166391,4.469362934878701
-0.09757803200160128,4.651679717170154,4.465596695594035
-0.09756552200160129,4.647978905166393,4.465596695594034
-0.09755301200160128,4.647978905166389,4.469362934878701
-0.09754050200160128,4.651679717170154,4.469362934878701
-0.09752799200160128,4.647978905166389,4.465596695594034
-0.09751548200160129,4.647978905166389,4.469362934878699
-0.09750297200160128,4.647978905166389,4.465596695594034
-0.09749046200160127,4.647978905166387,4.465596695594034
-0.09747795200160128,4.644278093162622,4.465596695594034
-0.09746544200160129,4.644278093162622,4.465596695594034
-0.09745293200160128,4.644278093162622,4.465596695594034
-0.09744042200160127,4.64427809316262,4.469362934878701
-0.09742791200160128,4.640577281158854,4.465596695594034
-0.09741540200160129,4.64427809316262,4.469362934878701
-0.09740289200160128,4.644278093162622,4.469362934878703
-0.09739038200160127,4.640577281158854,4.465596695594034
-0.09737787200160128,4.640577281158854,4.465596695594034
-0.09736536200160129,4.640577281158854,4.465596695594034
-0.09735285200160128,4.640577281158854,4.469362934878703
-0.09734034200160127,4.636876469155091,4.469362934878699
-0.09732783200160128,4.640577281158854,4.465596695594034
-0.09731532200160128,4.640577281158854,4.465596695594034
-0.09730281200160128,4.636876469155087,4.469362934878703
-0.09729030200160127,4.636876469155087,4.465596695594037
-0.09727779200160128,4.636876469155085,4.469362934878703
-0.09726528200160128,4.633175657151321,4.469362934878703
-0.09725277200160129,4.636876469155084,4.469362934878703
-0.09724026200160128,4.63317565715132,4.469362934878703
-0.09722775200160128,4.636876469155085,4.469362934878703
-0.09721524200160128,4.63317565715132,4.469362934878703
-0.09720273200160129,4.63317565715132,4.465596695594037
-0.09719022200160128,4.63317565715132,4.469362934878703
-0.09717771200160127,4.633175657151318,4.469362934878703
-0.09716520200160128,4.629474845147553,4.469362934878703
-0.09715269200160129,4.633175657151318,4.465596695594035
-0.09714018200160128,4.629474845147553,4.469362934878703
-0.09712767200160127,4.633175657151318,4.469362934878703
-0.09711516200160128,4.629474845147553,4.469362934878703
-0.09710265200160129,4.629474845147553,4.469362934878703
-0.09709014200160128,4.629474845147553,4.469362934878703
-0.09707763200160127,4.629474845147553,4.465596695594035
-0.09706512200160128,4.629474845147553,4.469362934878703
-0.09705261200160128,4.629474845147553,4.469362934878703
-0.09704010200160128,4.629474845147553,4.465596695594034
-0.09702759200160127,4.625774033143785,4.469362934878699
-0.09701508200160128,4.625774033143785,4.465596695594034
-0.09700257200160128,4.625774033143785,4.469362934878701
-0.09699006200160128,4.62207322114002,4.465596695594035
