Versuch03/Measurements/3_4_d_20000.csv

#Digilent WaveForms Oscilloscope Acquisition
#Device Name: Discovery2
#Serial Number: SN:210321AA2D13
#Date Time: 2023-12-23 15:02:48.169
#Sample rate: 1.5873e+06Hz
#Samples: 8192
#Trigger: Source: Vdcout Type: Edge Condition: Rising Level: 0 V Hyst.: Auto HoldOff: 0 s
#Vdcout: Range: 1 V/div Offset: -25 V Attenuation: 1 X Sample Mode: Average
#Vp: Range: 1 V/div Offset: 0 V Attenuation: 1 X Sample Mode: Average
#Wavegen Channel 1: Running
#Mode: Simple
#Type: Square
#Frequency: 20 kHz
#Period: 50 us
#Amplitude: 2.5 V
#Offset: 2.49 V
#Symmetry: 50 %
#Phase: 0 °

Time (s),Vdcout (V),Vp (V)
-0.005080795059861374,25.1037584457116,1.158838603654915
-0.005080165059861374,25.10005763370783,2.484554831857695
-0.005079535059861374,25.09635682170407,3.290530038777033
-0.005078905059861374,25.09635682170407,3.776374906499797
-0.005078275059861374,25.0926560097003,4.073907809988489
-0.005077645059861373,25.08895519769653,4.247154817083345
-0.005077015059861373,25.08525438569277,4.352609517054002
-0.005076385059861374,25.081553573689,4.41663558489334
-0.005075755059861374,25.07785276168523,4.454297977740011
-0.005075125059861374,25.07415194968147,4.480661652732684
-0.005074495059861374,25.07785276168523,4.499492849156052
-0.005073865059861373,25.07785276168523,4.510791567010065
-0.005073235059861373,25.07785276168523,4.518324045579392
-0.005072605059861374,25.07785276168523,4.510791567010058
-0.005071975059861374,25.07785276168523,4.510791567010058
-0.005071345059861374,25.07785276168523,4.518324045579388
-0.005070715059861374,25.07785276168523,4.522090284864064
-0.005070085059861374,25.081553573689,4.518324045579397
-0.005069455059861373,25.081553573689,4.522090284864066
-0.005068825059861374,25.081553573689,4.525856524148733
-0.005068195059861374,25.0704511376777,4.525856524148733
-0.005067565059861374,25.07415194968146,4.522090284864066
-0.005066935059861374,25.07415194968146,4.522090284864066
-0.005066305059861374,25.07415194968146,4.525856524148733
-0.005065675059861373,25.0704511376777,4.525856524148733
-0.005065045059861373,25.0704511376777,4.525856524148733
-0.005064415059861374,25.07415194968146,4.525856524148733
-0.005063785059861374,25.07415194968146,4.522090284864066
-0.005063155059861374,25.07415194968146,4.525856524148729
-0.005062525059861374,25.07415194968146,4.525856524148733
-0.005061895059861373,25.0704511376777,4.525856524148733
-0.005061265059861373,25.0704511376777,4.525856524148731
-0.005060635059861374,25.0704511376777,4.522090284864064
-0.005060005059861374,25.07415194968146,4.522090284864064
-0.005059375059861374,25.07415194968146,4.518324045579399
-0.005058745059861374,25.07415194968146,4.522090284864064
-0.005058115059861374,25.07415194968146,4.518324045579395
-0.005057485059861373,25.07785276168523,4.522090284864064
-0.005056855059861374,25.07785276168523,4.522090284863958
-0.005056225059861374,25.06304951367017,4.288583449214605
-0.005055595059861374,25.08155357368899,2.785853974632477
-0.005054965059861374,25.11856169372664,1.655982189232211
-0.005054335059861374,25.11856169372667,0.9742928787061491
-0.005053705059861373,25.10745925771536,0.5562403181077009
-0.005053075059861373,25.09635682170407,0.3114347646043896
-0.005052445059861374,25.09635682170407,0.1607851932177101
-0.005051815059861374,25.08895519769654,0.07039545038570241
-0.005051185059861374,25.08895519769654,0.01766810040034746
-0.005050555059861374,25.08895519769654,-0.01622805316171878
-0.005049925059861374,25.08525438569277,-0.0388254888697207
-0.005049295059861373,25.08525438569277,-0.05012420672373879
-0.005048665059861374,25.08525438569277,-0.05389044600840578
-0.005048035059861374,25.08525438569277,-0.06142292457773975
-0.005047405059861374,25.081553573689,-0.06518916386241017
-0.005046775059861374,25.081553573689,-0.06895540314708057
-0.005046145059861374,25.081553573689,-0.06895540314708057
-0.005045515059861373,25.08525438569276,-0.0651891638624153
-0.005044885059861373,25.081553573689,-0.06895540314708228
-0.005044255059861374,25.08895519769654,-0.07272164243174928
-0.005043625059861374,25.08895519769654,-0.06895540314708228
-0.005042995059861374,25.08895519769654,-0.07272164243174585
-0.005042365059861374,25.08525438569277,-0.07648788171641797
-0.005041735059861373,25.081553573689,-0.07648788171641455
-0.005041105059861373,25.08525438569277,-0.07272164243174757
-0.005040475059861374,25.08525438569277,-0.06895540314708057
-0.005039845059861374,25.081553573689,-0.06895540314708057
-0.005039215059861374,25.07785276168524,-0.06895540314708057
-0.005038585059861374,25.07785276168523,-0.07272164243174928
-0.005037955059861374,25.081553573689,-0.07272164243174928
-0.005037325059861373,25.07785276168524,-0.07648788171641112
-0.005036695059861374,25.081553573689,-0.06895540314708057
-0.005036065059861374,25.081553573689,-0.06895540314708057
-0.005035435059861374,25.081553573689,-0.06895540314708057
-0.005034805059861374,25.081553573689,-0.06895540314708057
-0.005034175059861374,25.081553573689,-0.06895540314708057
-0.005033545059861373,25.081553573689,-0.068955403147084
-0.005032915059861373,25.081553573689,-0.07272164243174585
-0.005032285059861374,25.07785276168523,-0.06518916386241187
-0.005031655059861374,25.081553573689,-0.06142292457774489
-0.005031025059861374,25.10005763370782,0.544941600253366
-0.005030395059861374,25.10005763370783,2.077800989114079
-0.005029765059861373,25.10375844571159,3.045724485274465
-0.005029135059861373,25.09635682170407,3.629491574397742
-0.005028505059861374,25.0926560097003,3.979751827871771
-0.005027875059861374,25.08895519769654,4.19442746709779
-0.005027245059861374,25.08525438569277,4.322479602776506
-0.005026615059861374,25.07785276168523,4.401570627754666
-0.005025985059861374,25.07415194968146,4.442999259886022
-0.005025355059861373,25.07785276168523,4.473129174163388
-0.005024725059861374,25.07785276168523,4.49196037058672
-0.005024095059861374,25.07785276168523,4.50325908844072
-0.005023465059861374,25.07785276168523,4.510791567010054
-0.005022835059861374,25.07415194968147,4.514557806294723
-0.005022205059861374,25.07785276168523,4.518324045579395
-0.005021575059861373,25.07785276168523,4.522090284864068
-0.005020945059861373,25.07415194968146,4.525856524148733
-0.005020315059861374,25.0704511376777,4.525856524148733
-0.005019685059861374,25.0704511376777,4.5296227634334
-0.005019055059861374,25.0704511376777,4.525856524148736
-0.005018425059861374,25.0704511376777,4.522090284864064
-0.005017795059861374,25.07415194968146,4.522090284864064
-0.005017165059861373,25.07785276168523,4.522090284864064
-0.005016535059861374,25.07785276168523,4.522090284864064
-0.005015905059861374,25.07785276168523,4.525856524148731
-0.005015275059861374,25.07415194968146,4.522090284864066
-0.005014645059861374,25.07415194968146,4.522090284864063
-0.005014015059861374,25.07415194968146,4.518324045579395
-0.005013385059861373,25.07415194968146,4.525856524148733
-0.005012755059861373,25.07415194968146,4.525856524148733
-0.005012125059861374,25.07415194968146,4.525856524148733
-0.005011495059861374,25.0704511376777,4.522090284864066
-0.005010865059861374,25.07415194968146,4.522090284864064
-0.005010235059861374,25.07415194968146,4.522090284864064
-0.005009605059861373,25.07415194968146,4.522090284864061
-0.005008975059861373,25.07415194968146,4.518324045579395
-0.005008345059861374,25.0704511376777,4.518324045579395
-0.005007715059861374,25.0704511376777,4.514557806294729
-0.005007085059861374,25.07415194968146,4.518324045579392
-0.005006455059861374,25.06675032567393,4.50702532772539
-0.005005825059861374,25.06304951367017,3.362088585186625
-0.005005195059861373,25.11116006971915,2.002476203419957
-0.005004565059861374,25.1259633177342,1.181436039362702
-0.005003935059861374,25.11116006971914,0.6842924537866593
-0.005003305059861374,25.10005763370784,0.3867595502979673
-0.005002675059861374,25.10005763370783,0.2172787824876909
-0.005002045059861374,25.0926560097003,0.1080578432323483
-0.005001415059861373,25.08895519769654,0.04026553610827061
-0.005000785059861373,25.08895519769654,-0.004929335307724674
-0.005000155059861374,25.08895519769654,-0.03129301030039358
-0.004999525059861374,25.0926560097003,-0.03882548886972755
-0.004998895059861374,25.0926560097003,-0.0501242067237268
-0.004998265059861374,25.08525438569277,-0.05389044600840578
-0.004997635059861373,25.081553573689,-0.06895540314708057
-0.004997005059861373,25.081553573689,-0.06895540314708057
-0.004996375059861374,25.08525438569277,-0.06895540314708057
-0.004995745059861374,25.07785276168524,-0.0614229245777466
-0.004995115059861374,25.07415194968147,-0.06518916386240844
-0.004994485059861374,25.081553573689,-0.06895540314707886
-0.004993855059861374,25.07785276168523,-0.06518916386241187
-0.004993225059861373,25.07785276168523,-0.06895540314708057
-0.004992595059861374,25.07785276168523,-0.06895540314708057
-0.004991965059861374,25.07785276168523,-0.06895540314708057
-0.004991335059861374,25.07415194968146,-0.07272164243174757
-0.004990705059861374,25.07785276168523,-0.068955403147084
-0.004990075059861374,25.081553573689,-0.07272164243174928
-0.004989445059861373,25.08155357368899,-0.06895540314708057
-0.004988815059861373,25.07415194968146,-0.06895540314708057
-0.004988185059861374,25.07785276168523,-0.06895540314708057
-0.004987555059861374,25.07785276168523,-0.06895540314708057
-0.004986925059861374,25.081553573689,-0.07648788171641112
-0.004986295059861374,25.081553573689,-0.07648788171641797
-0.004985665059861374,25.07785276168523,-0.07272164243175099
-0.004985035059861373,25.07785276168523,-0.07272164243174585
-0.004984405059861374,25.07785276168523,-0.06518916386241187
-0.004983775059861374,25.07415194968146,-0.06895540314708057
-0.004983145059861374,25.07785276168523,-0.07272164243174757
-0.004982515059861374,25.081553573689,-0.06895540314707886
-0.004981885059861374,25.081553573689,-0.06518916386241187
-0.004981255059861373,25.08895519769655,0.1193565610876903
-0.004980625059861373,25.10005763370783,1.588189882107676
-0.004979995059861374,25.10005763370783,2.751957821069776
-0.004979365059861374,25.10005763370783,3.452478328017835
-0.004978735059861374,25.10005763370783,3.878063367185329
-0.004978105059861374,25.0926560097003,4.13040139925852
-0.004977475059861373,25.08525438569277,4.281050970645357
-0.004976845059861373,25.08895519769653,4.378973192046679
-0.004976215059861374,25.07785276168523,4.435466781316684
-0.004975585059861374,25.07785276168523,4.469362934878688
-0.004974955059861374,25.081553573689,4.484427892017364
-0.004974325059861374,25.07785276168523,4.499492849156052
-0.004973695059861374,25.081553573689,4.507025327725386
-0.004973065059861373,25.07415194968146,4.518324045579399
-0.004972435059861374,25.07415194968146,4.522090284864066
-0.004971805059861374,25.07415194968146,4.525856524148733
-0.004971175059861374,25.07415194968146,4.522090284864066
-0.004970545059861374,25.07415194968146,4.522090284864064
-0.004969915059861374,25.07415194968146,4.525856524148733
-0.004969285059861373,25.07785276168523,4.529622763433402
-0.004968655059861373,25.07415194968146,4.529622763433402
-0.004968025059861374,25.07415194968146,4.529622763433402
-0.004967395059861374,25.07415194968146,4.533389002718069
-0.004966765059861374,25.07415194968146,4.52585652414874
-0.004966135059861374,25.07415194968146,4.525856524148733
-0.004965505059861373,25.07785276168523,4.525856524148736
-0.004964875059861373,25.07415194968146,4.5296227634334
-0.004964245059861374,25.0704511376777,4.525856524148733
-0.004963615059861374,25.07415194968146,4.525856524148733
-0.004962985059861374,25.0704511376777,4.522090284864068
-0.004962355059861374,25.0704511376777,4.522090284864066
-0.004961725059861374,25.0704511376777,4.525856524148733
-0.004961095059861373,25.07415194968146,4.522090284864064
-0.004960465059861374,25.07415194968146,4.522090284864063
-0.004959835059861374,25.07785276168523,4.518324045579395
-0.004959205059861374,25.07415194968146,4.518324045579395
-0.004958575059861374,25.07415194968146,4.518324045579395
-0.004957945059861374,25.07785276168523,4.518324045579395
-0.004957315059861373,25.07785276168523,4.518324045579395
-0.004956685059861373,25.07415194968146,4.518324045579144
-0.004956055059861374,25.0593487016664,3.964686870733097
-0.004955425059861374,25.09635682170405,2.424295003304299
-0.004954795059861374,25.12226250573041,1.433774071436631
-0.004954165059861374,25.1148608817229,0.8349420251734073
-0.004953535059861374,25.10375844571161,0.4771492931300436
-0.004952905059861373,25.09635682170407,0.262473653903705
-0.004952275059861374,25.0926560097003,0.1306552789403605
-0.004951645059861374,25.0926560097003,0.05533049324698651
-0.004951015059861374,25.08895519769654,0.01013562183098267
-0.004950385059861374,25.08525438569277,-0.01999429244639605
-0.004949755059861374,25.081553573689,-0.03882548886973098
-0.004949125059861373,25.08525438569276,-0.05012420672374392
-0.004948495059861373,25.081553573689,-0.05765668529307791
-0.004947865059861374,25.08525438569277,-0.06518916386241187
-0.004947235059861374,25.081553573689,-0.06895540314707886
-0.004946605059861374,25.081553573689,-0.06895540314708057
-0.004945975059861374,25.081553573689,-0.06895540314708057
-0.004945345059861373,25.081553573689,-0.07272164243174585
-0.004944715059861373,25.08525438569277,-0.06895540314708228
-0.004944085059861374,25.081553573689,-0.07272164243174928
-0.004943455059861374,25.081553573689,-0.07648788171641627
-0.004942825059861374,25.081553573689,-0.07648788171641797
-0.004942195059861374,25.081553573689,-0.07648788171641797
-0.004941565059861374,25.081553573689,-0.07648788171641797
-0.004940935059861373,25.081553573689,-0.07648788171641455
-0.004940305059861374,25.07785276168523,-0.07272164243174757
-0.004939675059861374,25.07785276168523,-0.06895540314708057
-0.004939045059861374,25.081553573689,-0.07272164243174757
-0.004938415059861374,25.081553573689,-0.07272164243174928
-0.004937785059861374,25.081553573689,-0.06895540314708057
-0.004937155059861373,25.081553573689,-0.06895540314708057
-0.004936525059861373,25.08525438569276,-0.06895540314708057
-0.004935895059861374,25.07785276168523,-0.06895540314708057
-0.004935265059861374,25.07785276168523,-0.07272164243174757
-0.004934635059861374,25.081553573689,-0.07272164243174928
-0.004934005059861374,25.07785276168523,-0.07648788171641797
-0.004933375059861373,25.07785276168523,-0.06895540314708057
-0.004932745059861373,25.07785276168523,-0.06895540314708057
-0.004932115059861374,25.07785276168523,-0.06895540314708057
-0.004931485059861374,25.081553573689,-0.06518916386241358
-0.004930855059861374,25.10375844571158,0.9931240751285301
-0.004930225059861374,25.10005763370783,2.394165089026632
-0.004929595059861374,25.08895519769654,3.237802688792038
-0.004928965059861373,25.08525438569277,3.742478752937927
-0.004928335059861374,25.08895519769654,4.055076613565229
-0.004927705059861374,25.08895519769654,4.235856099229243
-0.004927075059861374,25.08895519769654,4.348843277769253
-0.004926445059861374,25.08525438569277,4.412869345608613
-0.004925815059861374,25.08895519769654,4.450531738455359
-0.004925185059861373,25.081553573689,4.473129174163384
-0.004924555059861373,25.081553573689,4.488194131302051
-0.004923925059861374,25.07785276168523,4.499492849156052
-0.004923295059861374,25.081553573689,4.507025327725386
-0.004922665059861374,25.081553573689,4.51455780629472
-0.004922035059861374,25.081553573689,4.518324045579395
-0.004921405059861374,25.07785276168523,4.518324045579395
-0.004920775059861373,25.07415194968146,4.522090284864064
-0.004920145059861374,25.07785276168523,4.522090284864064
-0.004919515059861374,25.07785276168523,4.525856524148733
-0.004918885059861374,25.07785276168523,4.525856524148733
-0.004918255059861374,25.07785276168523,4.529622763433402
-0.004917625059861374,25.0704511376777,4.529622763433402
-0.004916995059861373,25.0704511376777,4.529622763433398
-0.004916365059861373,25.07415194968146,4.525856524148731
-0.004915735059861374,25.0704511376777,4.522090284864064
-0.004915105059861374,25.0704511376777,4.529622763433398
-0.004914475059861374,25.07415194968146,4.525856524148736
-0.004913845059861374,25.07415194968146,4.522090284864064
-0.004913215059861373,25.0704511376777,4.518324045579395
-0.004912585059861373,25.07415194968146,4.518324045579397
-0.004911955059861374,25.07785276168523,4.522090284864064
-0.004911325059861374,25.07415194968146,4.529622763433398
-0.004910695059861374,25.0704511376777,4.522090284864071
-0.004910065059861374,25.0704511376777,4.522090284864064
-0.004909435059861374,25.0704511376777,4.525856524148731
-0.004908805059861373,25.07415194968146,4.525856524148736
-0.004908175059861374,25.07415194968146,4.529622763433402
-0.004907545059861374,25.07415194968146,4.529622763433402
-0.004906915059861374,25.07785276168523,4.529622763433402
-0.004906285059861374,25.07045113767771,4.375206952762126
-0.004905655059861374,25.08525438569277,2.925204828164535
-0.004905025059861373,25.12226250573044,1.738839453493244
-0.004904395059861373,25.12226250573043,1.023253989406645
-0.004903765059861374,25.10745925771537,0.5901364716699419
-0.004903135059861374,25.09635682170407,0.3302659610279198
-0.004902505059861374,25.09265600970031,0.1758501503565253
-0.004901875059861374,25.0926560097003,0.08169416823966741
-0.004901245059861374,25.08895519769654,0.02143433968499561
-0.004900615059861373,25.08895519769654,-0.01246181387706036
-0.004899985059861374,25.08895519769654,-0.03505924958506228
-0.004899355059861374,25.08895519769654,-0.04635796743906324
-0.004898725059861374,25.08525438569277,-0.05389044600839893
-0.004898095059861374,25.0926560097003,-0.05765668529307791
-0.004897465059861374,25.08525438569277,-0.06518916386241187
-0.004896835059861373,25.08525438569276,-0.06895540314708057
-0.004896205059861373,25.081553573689,-0.06895540314707886
-0.004895575059861374,25.081553573689,-0.06518916386241187
-0.004894945059861374,25.081553573689,-0.06895540314707886
-0.004894315059861374,25.08525438569276,-0.07648788171641112
-0.004893685059861374,25.081553573689,-0.07272164243174928
-0.004893055059861373,25.081553573689,-0.07648788171641797
-0.004892425059861373,25.081553573689,-0.07648788171641627
-0.004891795059861374,25.07785276168523,-0.07272164243174928
-0.004891165059861374,25.07785276168523,-0.06895540314708228
-0.004890535059861374,25.07785276168523,-0.07648788171641112
-0.004889905059861374,25.07785276168523,-0.07648788171641797
-0.004889275059861374,25.081553573689,-0.07272164243175099
-0.004888645059861373,25.08525438569277,-0.07272164243174928
-0.004888015059861374,25.08525438569277,-0.07272164243174928
-0.004887385059861374,25.081553573689,-0.07272164243174928
-0.004886755059861374,25.081553573689,-0.06895540314708228
-0.004886125059861374,25.07785276168523,-0.07272164243174928
-0.004885495059861374,25.07785276168523,-0.07272164243174928
-0.004884865059861373,25.07785276168523,-0.068955403147084
-0.004884235059861373,25.07785276168523,-0.07272164243174928
-0.004883605059861374,25.07785276168523,-0.07272164243174928
-0.004882975059861374,25.07785276168523,-0.06895540314708228
-0.004882345059861374,25.081553573689,-0.06895540314708057
-0.004881715059861374,25.07415194968146,-0.06895540314708057
-0.004881085059861373,25.08525438569278,0.4093569860072521
-0.004880455059861373,25.09635682170407,1.957281332005141
-0.004879825059861374,25.09635682170407,2.97039969958056
-0.004879195059861374,25.0926560097003,3.584296702981278
-0.004878565059861374,25.08895519769654,3.953388152878754
-0.004877935059861374,25.08525438569277,4.171830031389876
-0.004877305059861374,25.08525438569277,4.311180884922554
-0.004876675059861373,25.081553573689,4.401570627754706
-0.004876045059861374,25.081553573689,4.446765499170704
-0.004875415059861374,25.0704511376777,4.47689541344804
-0.004874785059861374,25.07415194968146,4.495726609871374
-0.004874155059861374,25.07785276168523,4.499492849156049
-0.004873525059861374,25.081553573689,4.50702532772539
-0.004872895059861373,25.081553573689,4.51455780629473
