Versuch02/Csv_Files/2_2_l_300.csv

#Digilent WaveForms Oscilloscope Acquisition
#Device Name: Discovery2
#Serial Number: SN:210321AA2D13
#Date Time: 2023-11-30 12:46:01.846
#Sample rate: 84459.5Hz
#Samples: 8192
#Trigger: Source: Channel 2 Type: Edge Condition: Rising Level: 0 V Hyst.: Auto HoldOff: 0 s
#Channel 1: Range: 500 mV/div Offset: 0 V Attenuation: 1 X Sample Mode: Average
#Channel 2: Range: 1 V/div Offset: 0 V Attenuation: 1 X Sample Mode: Average
#Wavegen Channel 1: Running
#Mode: Simple
#Type: DC
#Offset: 300 mV

Time (s),Channel 1 (V),Channel 2 (V)
-0.09695802362992695,-0.00042336465505004,0.2172787824877389
-0.09694618362992695,-0.00042336465505004,0.2135125432030719
-0.09693434362992695,-0.00042336465505004,0.2172787824877406
-0.09692250362992695,-0.00042336465505004,0.2172787824877406
-0.09691066362992695,-8.678080697922238e-05,0.2172787824877406
-0.09689882362992695,-8.678080697922238e-05,0.2172787824877406
-0.09688698362992695,-0.00042336465505004,0.2172787824877406
-0.09687514362992695,-8.678080697937542e-05,0.2172787824877406
-0.09686330362992696,-0.000423364655049887,0.2172787824877406
-0.09685146362992694,-0.0004233646550497339,0.2172787824877406
-0.09683962362992696,-8.678080697937542e-05,0.2172787824877406
-0.09682778362992694,-0.00042336465505004,0.2172787824877406
-0.09681594362992696,-0.00042336465505004,0.2172787824877406
-0.09680410362992695,-0.000423364655049887,0.2172787824877406
-0.09679226362992696,-8.678080697952851e-05,0.2172787824877406
-0.09678042362992695,-0.000423364655049887,0.2135125432030736
-0.09676858362992695,-8.678080697922238e-05,0.2172787824877406
-0.09675674362992695,-0.00042336465505004,0.2172787824877406
-0.09674490362992695,-0.00042336465505004,0.2135125432030719
-0.09673306362992695,-0.00042336465505004,0.2172787824877406
-0.09672122362992695,-0.00042336465505004,0.2172787824877406
-0.09670938362992695,-0.00042336465505004,0.2172787824877406
-0.09669754362992695,-0.00042336465505004,0.2210450217724076
-0.09668570362992696,-8.678080697937542e-05,0.2172787824877423
-0.09667386362992694,-0.00042336465505004,0.2172787824877406
-0.09666202362992696,-0.00042336465505004,0.2172787824877406
-0.09665018362992694,-0.00042336465505004,0.2172787824877406
-0.09663834362992696,-0.00042336465505004,0.2172787824877406
-0.09662650362992695,-0.000423364655049887,0.2210450217724076
-0.09661466362992696,-8.678080697952851e-05,0.217278782487744
-0.09660282362992695,-0.00042336465505004,0.2172787824877406
-0.09659098362992695,-0.00042336465505004,0.2172787824877406
-0.09657914362992695,-0.00042336465505004,0.2135125432030719
-0.09656730362992695,-0.00042336465505004,0.2172787824877406
-0.09655546362992695,-8.678080697922238e-05,0.2172787824877406
-0.09654362362992695,-0.00042336465505004,0.2172787824877406
-0.09653178362992695,-0.00042336465505004,0.2172787824877406
-0.09651994362992695,-8.678080697937542e-05,0.2172787824877406
-0.09650810362992696,-8.678080697922238e-05,0.2135125432030736
-0.09649626362992694,-8.678080697952851e-05,0.2172787824877406
-0.09648442362992696,-0.000423364655049887,0.2172787824877406
-0.09647258362992694,-0.00042336465505004,0.2135125432030736
-0.09646074362992696,-0.00042336465505004,0.2172787824877389
-0.09644890362992695,-8.678080697937545e-05,0.2172787824877372
-0.09643706362992696,-0.0004233646550497339,0.20974630391841
-0.09642522362992695,-0.00042336465505004,0.2172787824877406
-0.09641338362992695,-0.00042336465505004,0.2172787824877406
-0.09640154362992695,-0.00042336465505004,0.2135125432030719
-0.09638970362992695,-0.00042336465505004,0.2172787824877406
-0.09637786362992695,-0.00042336465505004,0.2172787824877406
-0.09636602362992695,-0.00042336465505004,0.2135125432030719
-0.09635418362992695,-8.678080697922238e-05,0.2172787824877406
-0.09634234362992695,-0.000423364655049887,0.2172787824877406
-0.09633050362992696,-0.00042336465505004,0.2172787824877406
-0.09631866362992694,-0.00042336465505004,0.2172787824877406
-0.09630682362992696,-0.00042336465505004,0.2172787824877406
-0.09629498362992694,-0.000423364655049887,0.2135125432030736
-0.09628314362992696,-8.678080697937542e-05,0.2172787824877389
-0.09627130362992695,-0.00042336465505004,0.2172787824877406
-0.09625946362992696,-0.00042336465505004,0.2172787824877406
-0.09624762362992695,-8.678080697937545e-05,0.2172787824877406
-0.09623578362992695,-0.00042336465505004,0.2172787824877406
-0.09622394362992695,-0.00042336465505004,0.2135125432030719
-0.09621210362992695,-8.678080697922238e-05,0.2172787824877406
-0.09620026362992695,-8.678080697922238e-05,0.2172787824877406
-0.09618842362992695,-8.678080697922238e-05,0.2172787824877406
-0.09617658362992695,-8.678080697922238e-05,0.2172787824877406
-0.09616474362992695,-0.000423364655049887,0.2210450217724076
-0.09615290362992696,-0.00042336465505004,0.2172787824877423
-0.09614106362992694,-8.678080697922238e-05,0.2172787824877406
-0.09612922362992696,-8.678080697922238e-05,0.2172787824877406
-0.09611738362992694,-8.678080697937545e-05,0.2172787824877389
-0.09610554362992696,-0.000423364655049887,0.2135125432030736
-0.09609370362992695,-8.678080697922238e-05,0.2210450217724076
-0.09608186362992696,-8.678080697922238e-05,0.217278782487744
-0.09607002362992695,-0.000423364655049887,0.2210450217724093
-0.09605818362992695,-8.678080697922238e-05,0.2210450217724093
-0.09604634362992695,-0.00042336465505004,0.2210450217724093
-0.09603450362992695,-0.00042336465505004,0.2210450217724093
-0.09602266362992695,-8.678080697922238e-05,0.2172787824877406
-0.09601082362992695,-8.678080697922238e-05,0.2172787824877406
-0.09599898362992695,-8.678080697922238e-05,0.2210450217724093
-0.09598714362992695,-0.000423364655049887,0.2172787824877423
-0.09597530362992696,-0.00042336465505004,0.2210450217724076
-0.09596346362992694,-0.00042336465505004,0.2172787824877406
-0.09595162362992696,-0.00042336465505004,0.2172787824877406
-0.09593978362992694,-8.678080697922238e-05,0.2172787824877406
-0.09592794362992696,-8.678080697922238e-05,0.2172787824877406
-0.09591610362992695,-0.00042336465505004,0.2210450217724076
-0.09590426362992696,-0.00042336465505004,0.217278782487744
-0.09589242362992695,-0.000423364655049887,0.2172787824877389
-0.09588058362992695,-8.678080697922238e-05,0.2135125432030719
-0.09586874362992695,-8.678080697922238e-05,0.2135125432030719
-0.09585690362992695,-0.00042336465505004,0.2172787824877406
-0.09584506362992695,-8.678080697922238e-05,0.2135125432030719
-0.09583322362992695,-0.00042336465505004,0.2210450217724093
-0.09582138362992695,-0.00042336465505004,0.2172787824877406
-0.09580954362992695,-0.00042336465505004,0.2135125432030736
-0.09579770362992696,-8.678080697937542e-05,0.2135125432030719
-0.09578586362992694,-8.678080697952851e-05,0.2172787824877406
-0.09577402362992696,-0.000423364655049887,0.2172787824877406
-0.09576218362992694,-0.00042336465505004,0.2172787824877423
-0.09575034362992696,-0.00042336465505004,0.2210450217724076
-0.09573850362992695,-8.678080697937545e-05,0.2135125432030736
-0.09572666362992696,-0.0004233646550497339,0.2172787824877372
-0.09571482362992695,-8.678080697937545e-05,0.2172787824877406
-0.09570298362992695,-0.00042336465505004,0.2172787824877406
-0.09569114362992695,-0.00042336465505004,0.2172787824877406
-0.09567930362992695,-0.00042336465505004,0.2135125432030719
-0.09566746362992695,-0.00042336465505004,0.2172787824877406
-0.09565562362992695,-0.00042336465505004,0.2172787824877406
-0.09564378362992695,-0.00042336465505004,0.2172787824877406
-0.09563194362992694,-0.00042336465505004,0.217278782487744
-0.09562010362992696,-0.00042336465505004,0.2210450217724076
-0.09560826362992694,-8.678080697922238e-05,0.2135125432030753
-0.09559642362992696,-8.678080697922238e-05,0.2172787824877389
-0.09558458362992694,-8.678080697922238e-05,0.2135125432030719
-0.09557274362992696,-8.678080697922238e-05,0.2135125432030719
-0.09556090362992695,-8.678080697937545e-05,0.2172787824877406
-0.09554906362992696,-0.0004233646550497339,0.2172787824877406
-0.09553722362992695,-0.000423364655049887,0.2172787824877423
-0.09552538362992695,-8.678080697922238e-05,0.2210450217724093
-0.09551354362992695,-8.678080697922238e-05,0.2172787824877406
-0.09550170362992695,-0.00042336465505004,0.2172787824877406
-0.09548986362992695,-0.00042336465505004,0.2172787824877406
-0.09547802362992695,-8.678080697922238e-05,0.2172787824877406
-0.09546618362992695,-0.00042336465505004,0.2172787824877406
-0.09545434362992694,-8.678080697952851e-05,0.2210450217724059
-0.09544250362992696,-0.000423364655049887,0.2172787824877423
-0.09543066362992694,-0.0004233646550497339,0.2172787824877372
-0.09541882362992696,-8.678080697937542e-05,0.2135125432030736
-0.09540698362992694,-0.00042336465505004,0.2210450217724076
-0.09539514362992696,-0.00042336465505004,0.217278782487744
-0.09538330362992695,-8.678080697922238e-05,0.2172787824877423
-0.09537146362992696,-8.678080697922238e-05,0.2210450217724059
-0.09535962362992695,-8.678080697922238e-05,0.2172787824877406
-0.09534778362992695,-8.678080697922238e-05,0.2172787824877406
-0.09533594362992695,-0.00042336465505004,0.2210450217724093
-0.09532410362992695,-0.00042336465505004,0.2172787824877406
-0.09531226362992695,-8.678080697922238e-05,0.2172787824877406
-0.09530042362992695,-0.00042336465505004,0.2172787824877406
-0.09528858362992695,-0.00042336465505004,0.2172787824877406
-0.09527674362992694,-0.00042336465505004,0.217278782487744
-0.09526490362992696,-0.00042336465505004,0.2210450217724076
-0.09525306362992694,-0.00042336465505004,0.2172787824877406
-0.09524122362992696,-0.00042336465505004,0.2172787824877406
-0.09522938362992694,-0.00042336465505004,0.2172787824877389
-0.09521754362992696,-0.00042336465505004,0.2135125432030753
-0.09520570362992695,-0.000423364655049887,0.2172787824877406
-0.09519386362992696,-8.678080697952851e-05,0.2172787824877406
-0.09518202362992695,-8.678080697922238e-05,0.2172787824877406
-0.09517018362992695,-8.678080697922238e-05,0.2172787824877406
-0.09515834362992695,-0.00042336465505004,0.2172787824877406
-0.09514650362992695,-0.00042336465505004,0.2172787824877406
-0.09513466362992695,-8.678080697922238e-05,0.2172787824877406
-0.09512282362992695,-8.678080697922238e-05,0.2135125432030719
-0.09511098362992695,-0.00042336465505004,0.2210450217724093
-0.09509914362992694,-8.678080697952851e-05,0.2210450217724024
-0.09508730362992696,-0.000423364655049887,0.2135125432030753
-0.09507546362992694,-0.00042336465505004,0.2210450217724059
-0.09506362362992696,-0.00042336465505004,0.2172787824877423
-0.09505178362992694,-8.678080697922238e-05,0.2172787824877406
-0.09503994362992696,-8.678080697922238e-05,0.2172787824877406
-0.09502810362992695,-8.678080697922238e-05,0.2172787824877423
-0.09501626362992696,-8.678080697922238e-05,0.2210450217724059
-0.09500442362992695,-8.678080697937545e-05,0.2210450217724076
-0.09499258362992695,-0.00042336465505004,0.2172787824877406
-0.09498074362992695,-0.00042336465505004,0.2172787824877406
-0.09496890362992695,-0.00042336465505004,0.2172787824877406
-0.09495706362992695,-8.678080697922238e-05,0.2172787824877406
-0.09494522362992695,-8.678080697922238e-05,0.2210450217724093
-0.09493338362992695,-0.00042336465505004,0.2172787824877406
-0.09492154362992694,-0.0004233646550497339,0.2210450217724059
-0.09490970362992696,-8.678080697937542e-05,0.2172787824877423
-0.09489786362992694,-8.678080697922238e-05,0.2210450217724093
-0.09488602362992696,-8.678080697922238e-05,0.2210450217724093
-0.09487418362992694,-8.678080697922238e-05,0.2172787824877406
-0.09486234362992696,-8.678080697922238e-05,0.2172787824877406
-0.09485050362992695,-0.00042336465505004,0.2210450217724076
-0.09483866362992696,-0.00042336465505004,0.217278782487744
-0.09482682362992695,-0.000423364655049887,0.2172787824877406
-0.09481498362992695,-8.678080697922238e-05,0.2172787824877406
-0.09480314362992695,-0.00042336465505004,0.2135125432030719
-0.09479130362992695,-8.678080697922238e-05,0.2172787824877406
-0.09477946362992695,-0.00042336465505004,0.2172787824877406
-0.09476762362992695,-8.678080697922238e-05,0.2172787824877406
-0.09475578362992695,-0.000423364655049887,0.2172787824877406
-0.09474394362992694,-0.00042336465505004,0.2172787824877372
-0.09473210362992696,-0.00042336465505004,0.2135125432030736
-0.09472026362992694,-0.00042336465505004,0.2172787824877372
-0.09470842362992696,-0.00042336465505004,0.2135125432030736
-0.09469658362992694,-0.00042336465505004,0.2172787824877406
-0.09468474362992696,-0.00042336465505004,0.2172787824877406
-0.09467290362992695,-8.678080697937545e-05,0.2172787824877389
-0.09466106362992696,-0.0004233646550497339,0.2135125432030753
-0.09464922362992695,-0.00042336465505004,0.2172787824877389
-0.09463738362992695,-0.00042336465505004,0.2135125432030719
-0.09462554362992695,-8.678080697922238e-05,0.224811261057078
-0.09461370362992695,-8.678080697922238e-05,0.2135125432030719
-0.09460186362992695,-0.00042336465505004,0.2172787824877406
-0.09459002362992695,-0.00042336465505004,0.2172787824877406
-0.09457818362992695,-0.00042336465505004,0.2172787824877406
-0.09456634362992694,-8.678080697952851e-05,0.2210450217724059
-0.09455450362992696,-0.000423364655049887,0.2172787824877423
-0.09454266362992694,-0.00042336465505004,0.2172787824877406
-0.09453082362992696,-0.00042336465505004,0.2172787824877406
-0.09451898362992694,-0.000423364655049887,0.2210450217724093
-0.09450714362992696,-8.678080697952851e-05,0.2210450217724093
-0.09449530362992695,-0.00042336465505004,0.2135125432030736
-0.09448346362992696,-0.00042336465505004,0.2172787824877372
-0.09447162362992695,-0.00042336465505004,0.2172787824877406
-0.09445978362992695,-0.00042336465505004,0.2172787824877406
-0.09444794362992695,-0.00042336465505004,0.2135125432030719
-0.09443610362992695,-8.678080697922238e-05,0.2172787824877406
-0.09442426362992695,-8.678080697922238e-05,0.2172787824877406
-0.09441242362992695,-8.678080697922238e-05,0.2172787824877406
-0.09440058362992695,-0.000423364655049887,0.2172787824877406
-0.09438874362992694,-0.00042336465505004,0.217278782487744
-0.09437690362992696,-0.00042336465505004,0.2210450217724076
-0.09436506362992694,-0.00042336465505004,0.2172787824877406
-0.09435322362992696,-0.00042336465505004,0.2172787824877406
-0.09434138362992694,-8.678080697937545e-05,0.2172787824877423
-0.09432954362992696,-0.0004233646550497339,0.2210450217724059
-0.09431770362992695,-0.00042336465505004,0.2135125432030753
-0.09430586362992696,-0.00042336465505004,0.2210450217724024
-0.09429402362992695,-0.000423364655049887,0.2172787824877389
-0.09428218362992695,-8.678080697922238e-05,0.2135125432030719
-0.09427034362992695,-8.678080697922238e-05,0.2172787824877406
-0.09425850362992695,-0.00042336465505004,0.2210450217724093
-0.09424666362992695,-8.678080697922238e-05,0.2172787824877406
-0.09423482362992695,-8.678080697922238e-05,0.2172787824877406
-0.09422298362992695,-8.678080697922238e-05,0.2172787824877406
-0.09421114362992694,-8.678080697922238e-05,0.2135125432030753
-0.09419930362992696,-8.678080697922238e-05,0.2172787824877389
-0.09418746362992694,-0.00042336465505004,0.2172787824877406
-0.09417562362992696,-0.00042336465505004,0.2172787824877406
-0.09416378362992694,-0.00042336465505004,0.2135125432030736
-0.09415194362992696,-0.00042336465505004,0.2172787824877372
-0.09414010362992695,-0.00042336465505004,0.2172787824877406
-0.09412826362992696,-0.00042336465505004,0.2172787824877406
-0.09411642362992695,-0.00042336465505004,0.2172787824877406
-0.09410458362992695,-0.00042336465505004,0.2172787824877406
-0.09409274362992695,-0.00042336465505004,0.2172787824877406
-0.09408090362992695,-0.00042336465505004,0.2172787824877406
-0.09406906362992695,-0.0007599485031208576,0.2135125432030719
-0.09405722362992695,-8.678080697922238e-05,0.2172787824877406
-0.09404538362992695,-0.000423364655049887,0.2172787824877406
-0.09403354362992694,-0.00042336465505004,0.2210450217724024
-0.09402170362992696,-0.00042336465505004,0.2135125432030753
-0.09400986362992694,-0.00042336465505004,0.2135125432030719
-0.09399802362992696,-0.00042336465505004,0.2135125432030719
-0.09398618362992694,-0.00042336465505004,0.2172787824877406
-0.09397434362992696,-0.00042336465505004,0.2172787824877406
-0.09396250362992695,-0.00042336465505004,0.2172787824877406
-0.09395066362992696,-0.00042336465505004,0.2172787824877406
-0.09393882362992695,-0.00042336465505004,0.2135125432030719
-0.09392698362992695,-0.00042336465505004,0.2172787824877406
-0.09391514362992695,-0.00042336465505004,0.2210450217724093
-0.09390330362992695,-0.00042336465505004,0.2135125432030719
-0.09389146362992695,-0.00042336465505004,0.2172787824877406
-0.09387962362992695,-0.00042336465505004,0.2172787824877406
-0.09386778362992695,-0.00042336465505004,0.2172787824877406
-0.09385594362992694,-0.00042336465505004,0.2135125432030753
-0.09384410362992696,-0.00042336465505004,0.2172787824877389
-0.09383226362992694,-0.00042336465505004,0.2135125432030753
-0.09382042362992696,-0.00042336465505004,0.2172787824877389
-0.09380858362992694,-0.00042336465505004,0.2172787824877406
-0.09379674362992696,-0.00042336465505004,0.2172787824877406
-0.09378490362992695,-8.678080697937545e-05,0.2172787824877406
-0.09377306362992696,-0.0004233646550497339,0.2172787824877406
-0.09376122362992695,-8.678080697922238e-05,0.2135125432030719
-0.09374938362992695,-0.00042336465505004,0.2210450217724093
-0.09373754362992695,-0.00042336465505004,0.2172787824877406
-0.09372570362992695,-0.00042336465505004,0.2135125432030719
-0.09371386362992695,-0.00042336465505004,0.2172787824877406
-0.09370202362992695,-0.00042336465505004,0.2172787824877406
-0.09369018362992695,-0.00042336465505004,0.2172787824877406
-0.09367834362992694,-0.00042336465505004,0.2172787824877406
-0.09366650362992696,-0.00042336465505004,0.2172787824877406
-0.09365466362992694,-0.00042336465505004,0.2172787824877406
-0.09364282362992696,-0.00042336465505004,0.2172787824877406
-0.09363098362992694,-0.00042336465505004,0.2172787824877406
-0.09361914362992696,-0.00042336465505004,0.2172787824877406
-0.09360730362992695,-0.00042336465505004,0.2172787824877389
-0.09359546362992696,-0.00042336465505004,0.2135125432030753
-0.09358362362992695,-8.678080697922238e-05,0.2172787824877406
-0.09357178362992695,-0.00042336465505004,0.2172787824877406
-0.09355994362992695,-0.00042336465505004,0.2172787824877406
-0.09354810362992695,-0.00042336465505004,0.2135125432030719
-0.09353626362992695,-0.00042336465505004,0.2210450217724093
-0.09352442362992695,-0.00042336465505004,0.2135125432030719
-0.09351258362992695,-0.00042336465505004,0.2172787824877389
-0.09350074362992694,-0.0004233646550497339,0.2172787824877406
-0.09348890362992696,-8.678080697937542e-05,0.2172787824877406
-0.09347706362992694,-8.678080697922238e-05,0.2172787824877406
-0.09346522362992696,-8.678080697922238e-05,0.2172787824877406
-0.09345338362992694,-0.00042336465505004,0.2172787824877406
-0.09344154362992696,-0.00042336465505004,0.2172787824877406
-0.09342970362992695,-0.00042336465505004,0.2172787824877406
-0.09341786362992696,-0.00042336465505004,0.2172787824877406
-0.09340602362992695,-8.678080697922238e-05,0.2172787824877406
-0.09339418362992695,-0.00042336465505004,0.2210450217724093
-0.09338234362992695,-8.678080697922238e-05,0.2172787824877406
-0.09337050362992695,-8.678080697922238e-05,0.2172787824877406
-0.09335866362992695,-0.00042336465505004,0.2172787824877406
-0.09334682362992695,-0.00042336465505004,0.2172787824877406
-0.09333498362992695,-0.00042336465505004,0.2172787824877406
-0.09332314362992694,-8.678080697952851e-05,0.2172787824877406
-0.09331130362992696,-0.000423364655049887,0.2172787824877406
-0.09329946362992694,-0.00042336465505004,0.2172787824877406
-0.09328762362992696,-0.00042336465505004,0.2172787824877406
-0.09327578362992694,-0.00042336465505004,0.2210450217724076
-0.09326394362992696,-0.00042336465505004,0.217278782487744
-0.09325210362992695,-8.678080697922238e-05,0.2172787824877423
-0.09324026362992696,-8.678080697922238e-05,0.2210450217724059
