Versuch02/Csv_Files/2_2_k.csv

#Digilent WaveForms Oscilloscope Acquisition
#Device Name: Discovery2
#Serial Number: SN:210321AA2D13
#Date Time: 2023-11-30 12:23:23.540
#Sample rate: 63979.5Hz
#Samples: 8192
#Trigger: Source: Channel 2 Type: Edge Condition: Rising Level: 0 V Hyst.: Auto HoldOff: 0 s
#Channel 2: Range: 5 V/div Offset: 0 V Attenuation: 1 X Sample Mode: Average
#Wavegen Channel 1: Running
#Mode: Simple
#Type: Triangle
#Frequency: 50 Hz
#Period: 20 ms
#Amplitude: 5 V
#Offset: 0 V
#Symmetry: 50 %
#Phase: 0 °

Time (s),Channel 2 (V)
-0.08220132589674406,-4.611039980457549
-0.08218569589674404,-4.592208784034197
-0.08217006589674405,-4.588442544749523
-0.08215443589674404,-4.569611348326176
-0.08213880589674405,-4.56584510904151
-0.08212317589674403,-4.547013912618162
-0.08210754589674404,-4.543247673333497
-0.08209191589674406,-4.528182716194833
-0.08207628589674404,-4.516883998340814
-0.08206065589674405,-4.509351519771484
-0.08204502589674403,-4.498052801917465
-0.08202939589674405,-4.48675408406347
-0.08201376589674406,-4.475455366209469
-0.08199813589674404,-4.467922887640121
-0.08198250589674405,-4.449091691216795
-0.08196687589674403,-4.4453254519321
-0.08195124589674405,-4.426494255508774
-0.08193561589674406,-4.418961776939438
-0.08191998589674404,-4.407663059085422
-0.08190435589674405,-4.396364341231426
-0.08188872589674404,-4.385065623377403
-0.08187309589674405,-4.370000666238743
-0.08185746589674406,-4.366234426954072
-0.08184183589674404,-4.351169469815392
-0.08182620589674405,-4.33610451267673
-0.08181057589674404,-4.32480579482271
-0.08179494589674405,-4.31350707696871
-0.08177931589674406,-4.302208359114713
-0.08176368589674404,-4.287143401976024
-0.08174805589674405,-4.279610923406693
-0.08173242589674404,-4.268312205552681
-0.08171679589674405,-4.257013487698679
-0.08170116589674403,-4.245714769844665
-0.08168553589674404,-4.238182291275334
-0.08166990589674405,-4.219351094852004
-0.08165427589674404,-4.215584855567318
-0.08163864589674405,-4.196753659143984
-0.08162301589674403,-4.189221180574634
-0.08160738589674404,-4.181688702005304
-0.08159175589674406,-4.159091266297309
-0.08157612589674404,-4.162857505581957
-0.08156049589674405,-4.140260069873965
-0.08154486589674403,-4.136493830589268
-0.08152923589674405,-4.121428873450608
-0.08151360589674406,-4.11389639488127
-0.08149797589674404,-4.09506519845792
-0.08148234589674405,-4.091298959173255
-0.08146671589674404,-4.072467762749905
-0.08145108589674405,-4.064935284180574
-0.08143545589674406,-4.057402805611244
-0.08141982589674404,-4.03857160918789
-0.08140419589674405,-4.042337848472554
-0.08138856589674404,-4.019740412764546
-0.08137293589674405,-4.012207934195212
-0.08135730589674406,-3.997142977056554
-0.08134167589674404,-3.993376737771865
-0.08132604589674405,-3.970779302063874
-0.08131041589674404,-3.967013062779184
-0.08129478589674405,-3.94818186635585
-0.08127915589674406,-3.944415627071177
-0.08126352589674404,-3.933116909217172
-0.08124789589674405,-3.918051952078506
-0.08123226589674404,-3.914285712793823
-0.08121663589674405,-3.895454516370487
-0.08120100589674403,-3.891688277085802
-0.08118537589674404,-3.872857080662475
-0.08116974589674406,-3.865324602093136
-0.08115411589674404,-3.850259644954455
-0.08113848589674405,-3.84649340566979
-0.08112285589674403,-3.827662209246436
-0.08110722589674405,-3.812597252107774
-0.08109159589674406,-3.808831012823102
-0.08107596589674404,-3.793766055684424
-0.08106033589674405,-3.786233577115093
-0.08104470589674403,-3.771168619976407
-0.08102907589674405,-3.759869902122412
-0.08101344589674406,-3.748571184268415
-0.08099781589674404,-3.737272466414394
-0.08098218589674405,-3.725973748560398
-0.08096655589674404,-3.714675030706377
-0.08095092589674405,-3.703376312852381
-0.08093529589674406,-3.692077594998385
-0.08091966589674404,-3.680778877144363
-0.08090403589674405,-3.669480159290367
-0.08088840589674404,-3.66194768072102
-0.08087277589674405,-3.646882723582352
-0.08085714589674406,-3.639350245013018
-0.08084151589674404,-3.620519048589665
-0.08082588589674405,-3.609220330735668
-0.08081025589674404,-3.605454091450989
-0.08079462589674405,-3.582856655742987
-0.08077899589674403,-3.586622895027634
-0.08076336589674404,-3.560259220034977
-0.08074773589674406,-3.560259220034965
-0.08073210589674404,-3.54519426289629
-0.08071647589674405,-3.541428023611624
-0.08070084589674403,-3.522596827188273
-0.08068521589674404,-3.511298109334277
-0.08066958589674406,-3.499999391480271
-0.08065395589674404,-3.488700673626256
-0.08063832589674405,-3.481168195056926
-0.08062269589674405,-3.462336998633579
-0.08060706589674405,-3.45857075934891
-0.08059143589674404,-3.443505802210235
-0.08057580589674404,-3.439739562925553
-0.08056017589674405,-3.40960964864823
-0.08054454589674405,-3.405843409363548
-0.08052891589674405,-3.379479734370867
-0.08051328589674404,-3.360648537947524
-0.08049765589674404,-3.326752384385488
-0.08048202589674405,-3.289089991538836
-0.08046639589674404,-3.255193837976776
-0.08045076589674405,-3.202466487991439
-0.08043513589674404,-3.14220665943674
-0.08041950589674404,-3.066881873743333
-0.08040387589674405,-2.995323327334692
-0.08038824589674404,-2.90869982378724
-0.08037261589674405,-2.8220763202399
-0.08035698589674405,-2.727920338123182
-0.08034135589674404,-2.61869939886779
-0.08032572589674405,-2.532075895320449
-0.08031009589674404,-2.407789998926298
-0.08029446589674405,-2.309867777524957
-0.08027883589674405,-2.18558188113089
-0.08026320589674404,-2.083893420444835
-0.08024757589674406,-1.959607524050824
-0.08023194589674404,-1.842854106225985
-0.08021631589674405,-1.726100688401361
-0.08020068589674405,-1.601814792007241
-0.08018505589674405,-1.48882761346718
-0.08016942589674406,-1.357009238503836
-0.08015379589674404,-1.251554538532987
-0.08013816589674405,-1.108437445715707
-0.08012253589674405,-0.9954502671755806
-0.08010690589674405,-0.8636318922121762
-0.08009127589674404,-0.7393459958181091
-0.08007564589674404,-0.615060099423982
-0.08006001589674405,-0.4832417244606975
-0.08004438589674405,-0.3627220673512391
-0.08002875589674405,-0.2233712138184973
-0.08001312589674404,-0.1103840352784363
-0.07999749589674404,0.03273305753902569
-0.07998186589674405,0.1457202360789839
-0.07996623589674404,0.2888373288964989
-0.07995060589674405,0.4055907467211756
-0.07993497589674405,0.5411753609692487
-0.07991934589674404,0.6616950180786472
-0.07990371589674405,0.7972796323266587
-0.07988808589674404,0.9290980072901813
-0.07987245589674405,1.053383903684192
-0.07985682589674405,1.196500996501602
-0.07984119589674404,1.313254414326332
-0.07982556589674406,1.460137746428344
-0.07980993589674404,1.576891164253208
-0.07979430589674405,1.723774496355154
-0.07977867589674405,1.851826632033956
-0.07976304589674404,1.983645006997361
-0.07974741589674406,2.115463381960705
-0.07973178589674404,2.23598303907023
-0.07971615589674405,2.382866371172176
-0.07970052589674405,2.499619788996973
-0.07968489589674405,2.650269360383721
-0.07966926589674404,2.759490299639113
-0.07965363589674404,2.913906110310584
-0.07963800589674405,3.034425767419873
-0.07962237589674405,3.170010381668001
-0.07960674589674405,3.298062517346737
-0.07959111589674404,3.43364713159481
-0.07957548589674404,3.569231745842939
-0.07955985589674405,3.693517642236893
-0.07954422589674404,3.840400974339084
-0.07952859589674405,3.960920631448428
-0.07951296589674405,4.111570202835176
-0.07949733589674404,4.21702490280597
-0.07948170589674405,4.371440713477246
-0.07946607589674404,4.488194131302112
-0.07945044589674405,4.635077463404126
-0.07943481589674405,4.770662077652198
-0.07941918589674404,4.898714213330934
-0.07940355589674405,5.038065066863613
-0.07938792589674404,5.154818484688476
-0.07937229589674405,5.309234295359823
-0.07935666589674405,5.418455234615215
-0.07934103589674404,5.569104806001962
-0.07932540589674406,5.689624463111306
-0.07930977589674404,5.836507795213499
-0.07929414589674405,5.964559930892118
-0.07927851589674405,6.10014454514025
-0.07926288589674405,6.235729159388322
-0.07924725589674406,6.367547534351667
-0.07923162589674404,6.506898387884524
-0.07921599589674405,6.627418044993812
-0.07920036589674405,6.778067616380615
-0.07918473589674405,6.891054794920676
-0.07916910589674404,7.037938127022755
-0.07915347589674404,7.162224023416889
-0.07913784589674405,7.309107355518835
-0.07912221589674405,7.4296270126283
-0.07910658589674405,7.565211626876374
-0.07909095589674404,7.715861198263122
-0.07907532589674404,7.832614616087922
-0.07905969589674405,7.987030426759198
-0.07904406589674404,8.100017605299399
-0.07902843589674405,8.254433415970745
-0.07901280589674405,8.371186833795475
-0.07899717589674404,8.510537687328217
-0.07898154589674405,8.638589823006894
-0.07896591589674404,8.777940676539757
-0.07895028589674405,8.913525290787767
-0.07893465589674405,9.037811187181834
-0.07891902589674404,9.184694519283914
-0.07890339589674406,9.305214176393257
-0.07888776589674404,9.452097508495445
-0.07887213589674405,9.568850926320069
-0.07885650589674405,9.71950049770687
-0.07884087589674404,9.8362539155316
-0.07882524589674406,9.983137247633611
-0.07880961589674404,10.10742314402781
-0.07879398589674405,10.25054023684509
-0.07877835589674405,10.37859237252389
-0.07876272589674405,10.5104107474873
-0.07874709589674404,10.62716416531203
-0.07873146589674404,10.63093040459669
-0.07871583589674405,10.62716416531203
-0.07870020589674405,10.62339792602736
-0.07868457589674405,10.61963168674269
-0.07866894589674404,10.61586544745802
-0.07865331589674404,10.61209920817335
-0.07863768589674405,10.61209920817335
-0.07862205589674404,10.60833296888868
-0.07860642589674405,10.60456672960401
-0.07859079589674405,10.60080049031935
-0.07857516589674404,10.59703425103467
-0.07855953589674405,10.59326801175001
-0.07854390589674404,10.58950177246534
-0.07852827589674405,10.58573553318067
-0.07851264589674405,10.57820305461133
-0.07849701589674404,10.57820305461133
-0.07848138589674405,10.570670576042
-0.07846575589674404,10.56690433675733
-0.07845012589674405,10.56690433675733
-0.07843449589674405,10.56313809747266
-0.07841886589674404,10.55937185818799
-0.07840323589674406,10.55560561890332
-0.07838760589674404,10.55183937961865
-0.07837197589674405,10.54807314033398
-0.07835634589674405,10.54430690104931
-0.07834071589674405,10.54430690104931
-0.07832508589674406,10.54054066176465
-0.07830945589674404,10.53677442247998
-0.07829382589674405,10.53677442247998
-0.07827819589674405,10.53300818319531
-0.07826256589674405,10.52924194391064
-0.07824693589674404,10.52547570462597
-0.07823130589674404,10.52547570462597
-0.07821567589674405,10.5217094653413
-0.07820004589674404,10.5217094653413
-0.07818441589674405,10.51417698677196
-0.07816878589674404,10.51417698677196
-0.07815315589674404,10.51417698677196
-0.07813752589674405,10.50664450820263
-0.07812189589674404,10.50287826891796
-0.07810626589674405,10.50287826891796
-0.07809063589674405,10.49911202963329
-0.07807500589674404,10.49157955106395
-0.07805937589674405,10.49157955106395
-0.07804374589674404,10.48404707249461
-0.07802811589674405,10.48028083320995
-0.07801248589674405,10.48028083320995
-0.07799685589674404,10.47651459392528
-0.07798122589674406,10.47274835464061
-0.07796559589674404,10.46898211535594
-0.07794996589674405,10.46521587607127
-0.07793433589674405,10.46521587607127
-0.07791870589674404,10.4614496367866
-0.07790307589674406,10.45768339750194
-0.07788744589674404,10.45768339750193
-0.07787181589674405,10.4501509189326
-0.07785618589674405,10.4501509189326
-0.07784055589674405,10.44638467964793
-0.07782492589674404,10.44638467964793
-0.07780929589674404,10.44261844036326
-0.07779366589674405,10.43885220107859
-0.07777803589674405,10.43508596179392
-0.07776240589674405,10.43131972250925
-0.07774677589674404,10.42755348322459
-0.07773114589674404,10.42378724393992
-0.07771551589674405,10.42755348322458
-0.07769988589674404,10.42002100465525
-0.07768425589674405,10.42002100465525
-0.07766862589674405,10.42002100465525
-0.07765299589674404,10.41248852608591
-0.07763736589674405,10.41248852608591
-0.07762173589674404,10.40872228680124
-0.07760610589674405,10.40495604751657
-0.07759047589674405,10.4011898082319
-0.07757484589674404,10.4011898082319
-0.07755921589674405,10.39742356894724
-0.07754358589674404,10.39742356894723
-0.07752795589674405,10.39365732966257
-0.07751232589674405,10.39365732966257
-0.07749669589674404,10.39365732966257
-0.07748106589674406,10.3898910903779
-0.07746543589674404,10.3898910903779
-0.07744980589674405,10.38612485109323
-0.07743417589674405,10.38612485109323
-0.07741854589674405,10.38612485109323
-0.07740291589674406,10.3785923725239
-0.07738728589674404,10.37859237252389
-0.07737165589674405,10.37859237252389
-0.07735602589674405,10.37482613323922
-0.07734039589674405,10.37482613323922
-0.07732476589674404,10.37105989395455
-0.07730913589674404,10.37105989395455
-0.07729350589674405,10.36729365466989
-0.07727787589674404,10.36352741538522
-0.07726224589674405,10.36352741538522
-0.07724661589674404,10.36352741538522
-0.07723098589674404,10.35599493681588
-0.07721535589674405,10.35599493681588
-0.07719972589674404,10.35599493681588
-0.07718409589674405,10.35222869753121
-0.07716846589674405,10.35222869753121
-0.07715283589674404,10.34846245824654
-0.07713720589674405,10.34469621896188
-0.07712157589674404,10.34469621896187
-0.07710594589674405,10.3409299796772
-0.07709031589674405,10.3409299796772
-0.07707468589674404,10.33716374039254
-0.07705905589674406,10.33716374039254
-0.07704342589674404,10.33339750110787
-0.07702779589674405,10.33339750110787
-0.07701216589674405,10.3296312618232
-0.07699653589674404,10.32586502253853
-0.07698090589674406,10.32586502253853
-0.07696527589674404,10.32209878325386
-0.07694964589674405,10.32209878325386
-0.07693401589674405,10.31833254396919
-0.07691838589674405,10.31833254396919
-0.07690275589674404,10.31833254396919
-0.07688712589674404,10.31456630468452
-0.07687149589674405,10.31080006539986
-0.07685586589674405,10.31080006539985
-0.07684023589674405,10.30703382611519
-0.07682460589674404,10.30703382611519
-0.07680897589674404,10.30703382611518
-0.07679334589674405,10.30326758683052
-0.07677771589674404,10.29950134754585
-0.07676208589674405,10.29573510826118
-0.07674645589674405,10.29573510826118
-0.07673082589674404,10.29196886897651
-0.07671519589674405,10.29196886897651
-0.07669956589674404,10.29196886897651
-0.07668393589674405,10.28820262969184
-0.07666830589674405,10.28443639040717
-0.07665267589674404,10.28067015112251
-0.07663704589674405,10.28067015112251
-0.07662141589674404,10.27690391183783
-0.07660578589674405,10.27313767255317
-0.07659015589674405,10.27313767255317
-0.07657452589674404,10.27313767255317
-0.07655889589674406,10.2693714332685
-0.07654326589674404,10.26560519398383
-0.07652763589674405,10.2693714332685
-0.07651200589674405,10.26560519398383
-0.07649637589674405,10.26183895469916
-0.07648074589674406,10.26183895469916
-0.07646511589674404,10.25807271541449
-0.07644948589674405,10.25807271541449
-0.07643385589674405,10.25807271541449
-0.07641822589674405,10.25430647612983
-0.07640259589674404,10.25430647612983
-0.07638696589674404,10.25054023684515
-0.07637133589674405,10.24677399756049
-0.07635570589674404,10.24677399756049
-0.07634007589674405,10.24300775827582
-0.07632444589674404,10.24300775827582
-0.07630881589674404,10.23924151899115
-0.07629318589674405,10.23924151899115
-0.07627755589674404,10.23924151899115
-0.07626192589674405,10.23547527970648
-0.07624629589674405,10.23170904042181
-0.07623066589674404,10.23170904042181
-0.07621503589674405,10.23170904042181
-0.07619940589674404,10.22794280113714
-0.07618377589674405,10.22794280113714
-0.07616814589674405,10.22794280113714
-0.07615251589674404,10.22417656185248
-0.07613688589674406,10.22041032256781
-0.07612125589674404,10.22041032256781
-0.07610562589674405,10.22041032256781
-0.07608999589674405,10.21664408328314
-0.07607436589674405,10.21664408328314
-0.07605873589674406,10.21287784399847
-0.07604310589674404,10.21287784399847
-0.07602747589674405,10.2091116047138
-0.07601184589674405,10.2091116047138
-0.07599621589674405,10.20534536542913
-0.07598058589674404,10.20534536542913
-0.07596495589674404,10.20157912614446
-0.07594932589674405,10.20157912614446
-0.07593369589674405,10.19781288685979
-0.07591806589674405,10.19404664757513
-0.07590243589674404,10.19781288685979
-0.07588680589674404,10.19404664757512
-0.07587117589674405,10.19028040829046
-0.07585554589674404,10.19028040829046
-0.07583991589674405,10.18651416900579
-0.07582428589674405,10.18651416900579
-0.07580865589674404,10.18274792972112
-0.07579302589674405,10.18274792972112
-0.07577739589674404,10.17898169043645
-0.07576176589674405,10.17521545115178
-0.07574613589674405,10.17898169043645
-0.07573050589674404,10.17521545115178
-0.07571487589674405,10.17144921186711
-0.07569924589674404,10.16768297258244
-0.07568361589674405,10.16768297258244
-0.07566798589674405,10.16768297258244
-0.07565235589674404,10.16391673329778
-0.07563672589674406,10.16391673329778
-0.07562109589674404,10.15638425472844
-0.07560546589674405,10.16015049401311
-0.07558983589674405,10.16015049401311
-0.07557420589674405,10.15638425472844
-0.07555857589674406,10.15638425472844
-0.07554294589674404,10.15261801544377
-0.07552731589674405,10.15261801544377
-0.07551168589674405,10.1488517761591
-0.07549605589674405,10.1488517761591
-0.07548042589674404,10.14508553687443
-0.07546479589674404,10.14508553687443
-0.07544916589674405,10.14131929758977
-0.07543353589674404,10.13755305830509
-0.07541790589674405,10.13755305830509
-0.07540227589674404,10.13755305830509
-0.07538664589674404,10.13755305830509
-0.07537101589674405,10.13378681902043
-0.07535538589674404,10.13002057973576
-0.07533975589674405,10.13002057973576
-0.07532412589674405,10.13002057973576
-0.07530849589674404,10.13002057973576
-0.07529286589674405,10.13002057973576
-0.07527723589674404,10.12625434045109
-0.07526160589674405,10.12248810116642
-0.07524597589674405,10.12248810116642
-0.07523034589674404,10.12248810116642
-0.07521471589674406,10.11872186188175
-0.07519908589674404,10.11872186188175
-0.07518345589674405,10.11495562259709
-0.07516782589674405,10.11495562259708
-0.07515219589674405,10.11495562259708
-0.07513656589674406,10.11495562259708
-0.07512093589674404,10.11495562259708
-0.07510530589674405,10.11118938331242
-0.07508967589674405,10.10742314402775
-0.07507404589674405,10.10742314402775
-0.07505841589674404,10.10365690474308
-0.07504278589674404,10.10365690474308
-0.07502715589674405,10.10365690474308
-0.07501152589674405,10.09989066545841
-0.07499589589674405,10.09989066545841
-0.07498026589674404,10.09989066545841
-0.07496463589674404,10.09612442617374
-0.07494900589674405,10.09989066545841
-0.07493337589674404,10.09612442617374
-0.07491774589674405,10.09235818688907
-0.07490211589674405,10.09235818688907
-0.07488648589674404,10.09235818688907
-0.07487085589674405,10.0885919476044
-0.07485522589674404,10.0885919476044
-0.07483959589674405,10.08482570831973
-0.07482396589674405,10.08105946903506
-0.07480833589674404,10.08105946903506
-0.07479270589674406,10.08105946903506
-0.07477707589674404,10.0772932297504
-0.07476144589674405,10.08105946903506
-0.07474581589674405,10.0772932297504
-0.07473018589674404,10.0772932297504
-0.07471455589674406,10.07352699046573
-0.07469892589674404,10.07352699046573
-0.07468329589674405,10.07352699046573
-0.07466766589674405,10.06976075118106
-0.07465203589674405,10.07352699046573
-0.07463640589674404,10.06976075118106
-0.07462077589674404,10.06976075118106
-0.07460514589674405,10.06976075118106
-0.07458951589674405,10.06976075118106
-0.07457388589674405,10.06599451189639
-0.07455825589674404,10.06599451189639
-0.07454262589674404,10.06976075118106
-0.07452699589674405,10.06976075118106
-0.07451136589674404,10.06599451189639
-0.07449573589674405,10.06599451189639
-0.07448010589674404,10.06222827261172
-0.07446447589674404,10.06599451189639
-0.07444884589674405,10.06599451189639
