Versuch02/Csv_Files/2_2_m_2_no_amplification.csv

#Digilent WaveForms Oscilloscope Acquisition
#Device Name: Discovery2
#Serial Number: SN:210321AA2D13
#Date Time: 2023-11-30 13:17:48.555
#Sample rate: 29256.9Hz
#Samples: 8192
#Trigger: Source: Channel 1 Type: Edge Condition: Rising Level: 0 V Hyst.: Auto HoldOff: 0 s
#Channel 1: Range: 500 mV/div Offset: 0 V Attenuation: 1 X Sample Mode: Average
#Channel 2: Range: 2 V/div Offset: 0 V Attenuation: 1 X Sample Mode: Average
#Wavegen Channel 1: Running
#Mode: Simple
#Type: Triangle
#Frequency: 40 Hz
#Period: 25 ms
#Amplitude: 5 V
#Offset: 0 V
#Symmetry: 50 %
#Phase: 0 °

Time (s),Channel 1 (V),Channel 2 (V)
-0.1435559848569573,-8.678080697922238e-05,-0.5886964244313611
-0.1435218048569573,-8.678080697922238e-05,-0.5736314672926863
-0.1434876248569573,-8.678080697922238e-05,-0.5623327494386853
-0.1434534448569573,0.0002498030410915952,-0.5435015530153281
-0.1434192648569573,0.0002498030410915952,-0.5246703565919932
-0.1433850848569573,0.0002498030410915952,-0.5058391601686497
-0.1433509048569573,0.0002498030410915952,-0.4832417244606375
-0.1433167248569573,0.0002498030410915952,-0.4644105280373025
-0.1432825448569573,0.0002498030410915952,-0.4418130923292716
-0.1432483648569573,0.0002498030410915952,-0.4192156566212611
-0.1432141848569573,0.0002498030410915952,-0.4003844601979261
-0.1431800048569573,0.0002498030410915952,-0.3777870244899139
-0.1431458248569573,0.0002498030410915952,-0.3589558280665704
-0.1431116448569573,0.0005863868891622598,-0.3363583923585685
-0.1430774648569573,0.0002498030410917483,-0.3099947173658671
-0.1430432848569573,0.0005863868891624129,-0.2873972816578652
-0.1430091048569573,0.0002498030410915952,-0.264799845949853
-0.1429749248569573,0.0005863868891624129,-0.2459686495265095
-0.1429407448569573,0.0005863868891624129,-0.2196049745338405
-0.1429065648569573,0.0005863868891624129,-0.2007737781104748
-0.1428723848569573,0.0005863868891624129,-0.1781763424024728
-0.1428382048569573,0.0005863868891624129,-0.1555789066944607
-0.1428040248569573,0.0005863868891624129,-0.1329814709864485
-0.1427698448569573,0.0005863868891624129,-0.1103840352784465
-0.1427356648569573,0.0005863868891624129,-0.08778659957041381
-0.1427014848569573,0.0005863868891624129,-0.06518916386241187
-0.1426673048569573,0.0009229707372332305,-0.03882548886973098
-0.1426331248569573,0.0009229707372332305,-0.01622805316171878
-0.1425989448569573,0.000586386889162566,0.01013562183095012
-0.1425647648569573,0.0005863868891624129,0.03273305753896403
-0.1425305848569573,0.000586386889162566,0.0553304932469985
-0.1424964048569573,0.0009229707372332305,0.08169416823966741
-0.1424622248569573,0.0009229707372332305,0.1042916039476796
-0.1424280448569573,0.0009229707372332305,0.1231228003710231
-0.1423938648569573,0.0009229707372332305,0.145720236079025
-0.1423596848569573,0.0009229707372330774,0.1683176717870595
-0.1423255048569573,0.0005863868891624129,0.1946813467797284
-0.1422913248569573,0.0005863868891624129,0.2172787824877406
-0.1422571448569573,0.0005863868891624129,0.2398762181957528
-0.1422229648569573,0.0005863868891624129,0.2662398931884217
-0.1421887848569573,0.0005863868891624129,0.2888373288964561
-0.1421546048569573,0.0005863868891624129,0.3114347646044581
-0.1421204248569573,0.0005863868891624129,0.3340322003124703
-0.1420862448569573,0.0005863868891624129,0.3566296360204825
-0.1420520648569573,0.0005863868891624129,0.3792270717284844
-0.1420178848569573,0.0009229707372330775,0.4018245074364966
-0.1419837048569573,0.0009229707372330774,0.428188182429198
-0.1419495248569573,0.0005863868891624129,0.4507856181372
-0.1419153448569573,0.0009229707372332305,0.4771492931298809
-0.1418811648569573,0.0009229707372332305,0.4959804895532243
-0.1418469848569573,0.0009229707372332305,0.5223441645458933
-0.1418128048569573,0.0009229707372330774,0.5449416002539278
-0.1417786248569573,0.0005863868891624129,0.5675390359619297
-0.1417444448569573,0.0009229707372332305,0.5901364716699419
-0.1417102648569573,0.0005863868891624129,0.612733907377954
-0.1416760848569573,0.0009229707372330775,0.6353313430859558
-0.1416419048569573,0.0009229707372332305,0.6616950180786592
-0.1416077248569573,0.0009229707372332305,0.6880586930713281
-0.1415735448569573,0.0009229707372332305,0.7068898894946715
-0.1415393648569573,0.0009229707372332305,0.7332535644873523
-0.1415051848569573,0.0009229707372332305,0.7596172394800214
-0.1414710048569573,0.0009229707372332305,0.7822146751880558
-0.1414368248569573,0.0009229707372332305,0.8048121108960662
-0.1414026448569573,0.0009229707372332305,0.8236433073194012
-0.1413684648569573,0.0009229707372332305,0.8462407430274134
-0.1413342848569573,0.0009229707372332305,0.8688381787354256
-0.1413001048569573,0.0009229707372332305,0.8914356144434274
-0.1412659248569573,0.0009229707372332305,0.917799289436129
-0.1412317448569573,0.0009229707372332305,0.9403967251441309
-0.1411975648569573,0.0009229707372332305,0.9629941608521431
-0.1411633848569573,0.0009229707372332305,0.989357835844824
-0.1411292048569573,0.0009229707372332305,1.011955271552826
-0.1410950248569573,0.0009229707372332305,1.038318946545527
-0.1410608448569573,0.0009229707372332305,1.060916382253529
-0.1410266648569573,0.0009229707372332305,1.083513817961541
-0.1409924848569573,0.0009229707372332305,1.106111253669554
-0.1409583048569573,0.0009229707372332305,1.128708689377556
-0.1409241248569573,0.0009229707372332305,1.155072364370257
-0.1408899448569573,0.0009229707372332305,1.177669800078269
-0.1408557648569573,0.0009229707372332305,1.200267235786271
-0.1408215848569573,0.0009229707372332305,1.222864671494283
-0.1407874048569573,0.0009229707372332305,1.245462107202285
-0.1407532248569573,0.0009229707372332305,1.268059542910297
-0.1407190448569573,0.0009229707372332305,1.290656978618332
-0.1406848648569573,0.0009229707372332305,1.317020653611001
-0.1406506848569573,0.0009229707372332305,1.339618089319013
-0.1406165048569573,0.0009229707372332305,1.358449285742356
-0.1405823248569573,0.0009229707372332305,1.384812960735025
-0.1405481448569573,0.0009229707372332305,1.411176635727728
-0.1405139648569573,0.0009229707372332305,1.433774071435731
-0.1404797848569573,0.0009229707372332305,1.460137746428411
-0.1404456048569573,0.0009229707372332305,1.482735182136424
-0.1404114248569573,0.001259554585303895,1.505332617844426
-0.1403772448569573,0.0009229707372332305,1.52793005355246
-0.1403430648569573,0.0009229707372332305,1.554293728545129
-0.1403088848569573,0.001259554585304048,1.576891164253141
-0.1402747048569573,0.0009229707372332305,1.595722360676485
-0.1402405248569573,0.0009229707372332305,1.622086035669154
-0.1402063448569573,0.0009229707372332305,1.648449710661834
-0.1401721648569573,0.001259554585303895,1.6672809070852
-0.1401379848569573,0.0009229707372332305,1.689878342793202
-0.1401038048569573,0.0009229707372332305,1.712475778501214
-0.1400696248569573,0.0009229707372332305,1.735073214209226
-0.1400354448569573,0.0009229707372332305,1.761436889201895
-0.1400012648569573,0.0009229707372332305,1.784034324909928
-0.1399670848569573,0.0009229707372332305,1.802865521333263
-0.1399329048569573,0.0009229707372332305,1.825462957041275
-0.1398987248569573,0.0009229707372332305,1.848060392749287
-0.1398645448569573,0.0009229707372332305,1.874424067741956
-0.1398303648569573,0.001259554585303895,1.897021503449992
-0.1397961848569573,0.0009229707372332305,1.923385178442661
-0.1397620048569573,0.0009229707372332305,1.945982614150674
-0.1397278248569573,0.0009229707372332305,1.968580049858686
-0.1396936448569573,0.0009229707372332305,1.991177485566688
-0.1396594648569573,0.001259554585304048,2.017541160559389
-0.1396252848569573,0.001259554585304048,2.040138596267399
-0.1395911048569573,0.001259554585304048,2.058969792690735
-0.1395569248569573,0.001259554585304048,2.085333467683416
-0.1395227448569573,0.001259554585304048,2.107930903391428
-0.1394885648569573,0.001259554585304048,2.134294578384096
-0.1394543848569573,0.001259554585303895,2.153125774807462
-0.1394202048569573,0.0009229707372332305,2.175723210515464
-0.1393860248569573,0.001259554585304048,2.198320646223476
-0.1393518448569573,0.0009229707372332305,2.220918081931488
-0.1393176648569573,0.0009229707372332305,2.24351551763949
-0.1392834848569573,0.001259554585304048,2.269879192632192
-0.1392493048569573,0.001259554585304048,2.292476628340194
-0.1392151248569573,0.001259554585304048,2.311307824763538
-0.1391809448569573,0.001259554585304048,2.337671499756218
-0.1391467648569573,0.0009229707372333835,2.36026893546422
-0.1391125848569573,0.001259554585304048,2.386632610456922
-0.1390784048569573,0.001259554585304048,2.409230046164934
-0.1390442248569573,0.001259554585304048,2.431827481872936
-0.1390100448569573,0.001259554585304048,2.458191156865617
-0.1389758648569573,0.001259554585304048,2.477022353288961
-0.1389416848569573,0.001259554585304048,2.499619788996962
-0.1389075048569573,0.001259554585304048,2.522217224704995
-0.1388733248569573,0.001259554585304048,2.544814660412997
-0.1388391448569573,0.0009229707372332305,2.571178335405678
-0.1388049648569573,0.0009229707372332305,2.59377577111369
-0.1387707848569573,0.0009229707372332305,2.616373206821692
-0.1387366048569573,0.0009229707372333836,2.642736881814393
-0.1387024248569573,0.001259554585304048,2.665334317522396
-0.1386682448569573,0.001259554585304048,2.687931753230408
-0.1386340648569573,0.001259554585304048,2.706762949653751
-0.1385998848569573,0.001259554585304048,2.729360385361753
-0.1385657048569573,0.001259554585304048,2.751957821069786
-0.1385315248569573,0.001259554585304048,2.774555256777788
-0.1384973448569573,0.001259554585304048,2.7971526924858
-0.1384631648569573,0.001259554585304048,2.82351636747848
-0.1384289848569573,0.001259554585304048,2.846113803186483
-0.1383948048569573,0.001259554585304048,2.868711238894495
-0.1383606248569573,0.001259554585304048,2.891308674602528
-0.1383264448569573,0.001259554585304048,2.913906110310529
-0.1382922648569573,0.001259554585304048,2.940269785303211
-0.1382580848569573,0.001259554585304048,2.959100981726554
-0.1382239048569573,0.001259554585304048,2.981698417434556
-0.1381897248569573,0.001259554585303742,2.992997135288562
-0.1381555448569573,0.0005863868891624129,2.97039969958056
-0.1381213648569573,0.0002498030410915952,2.944036024587879
-0.1380871848569573,-8.678080697922238e-05,2.917672349595198
-0.1380530048569573,-8.678080697922238e-05,2.891308674602529
-0.1380188248569573,-8.678080697937545e-05,2.868711238894493
-0.1379846448569573,-0.00042336465505004,2.842347563901824
-0.1379504648569573,-0.00042336465505004,2.815983888909143
-0.1379162848569573,-0.00042336465505004,2.789620213916463
-0.1378821048569573,-0.00042336465505004,2.763256538923793
-0.1378479248569573,-0.00042336465505004,2.744425342500446
-0.1378137448569573,-0.00042336465505004,2.718061667507745
-0.1377795648569573,-0.00042336465505004,2.691697992515076
-0.1377453848569573,-0.00042336465505004,2.669100556807064
-0.1377112048569573,-0.0007599485031208576,2.646503121099052
-0.1376770248569573,-0.000423364655050193,2.620139446106382
-0.1376428448569573,-0.00042336465505004,2.593775771113678
-0.1376086648569573,-0.00042336465505004,2.567412096121009
-0.1375744848569573,-0.0007599485031208576,2.544814660412997
-0.1375403048569573,-0.0007599485031208576,2.518450985420316
-0.1375061248569573,-0.000423364655050193,2.495853549712314
-0.1374719448569573,-0.000423364655050193,2.469489874719611
-0.1374377648569573,-0.0007599485031208576,2.443126199726942
-0.1374035848569573,-0.00042336465505004,2.42052876401893
-0.1373694048569573,-0.0007599485031208576,2.394165089026249
-0.1373352248569573,-0.000423364655050193,2.371567653318247
-0.1373010448569573,-0.0007599485031208576,2.341437739040875
-0.1372668648569573,-0.0007599485031208576,2.315074064048196
-0.1372326848569573,-0.0007599485031208576,2.292476628340194
-0.1371985048569573,-0.0007599485031208576,2.266112953347514
-0.1371643248569573,-0.0007599485031208576,2.243515517639501
-0.1371301448569573,-0.0007599485031208576,2.217151842646832
-0.1370959648569573,-0.0007599485031208576,2.194554406938798
-0.1370617848569573,-0.0007599485031208576,2.171956971230796
-0.1370276048569573,-0.00042336465505004,2.145593296238115
-0.1369934248569573,-0.0007599485031208576,2.122995860530103
-0.1369592448569573,-0.0007599485031208576,2.096632185537433
-0.1369250648569573,-0.0007599485031208576,2.07026851054473
-0.1368908848569573,-0.0007599485031208576,2.047671074836728
-0.1368567048569573,-0.0007599485031208576,2.025073639128716
-0.1368225248569573,-0.0007599485031208576,1.998709964136035
-0.1367883448569573,-0.0007599485031208576,1.972346289143367
-0.1367541648569573,-0.0007599485031208576,1.945982614150665
-0.1367199848569573,-0.0007599485031208576,1.927151417727318
-0.1366858048569573,-0.0007599485031208576,1.900787742734649
-0.1366516248569573,-0.0007599485031208576,1.874424067741968
-0.1366174448569573,-0.0007599485031208576,1.848060392749287
-0.1365832648569573,-0.0007599485031208576,1.821696717756619
-0.1365490848569573,-0.0007599485031208576,1.799099282048584
-0.1365149048569573,-0.0007599485031208576,1.776501846340582
-0.1364807248569573,-0.0007599485031208576,1.75390441063257
-0.1364465448569573,-0.0007599485031208576,1.727540735639889
-0.1364123648569573,-0.0007599485031208576,1.70117706064722
-0.1363781848569573,-0.0007599485031210107,1.678579624939186
-0.1363440048569573,-0.001096532351191675,1.655982189231184
-0.1363098248569573,-0.0007599485031208576,1.629618514238503
-0.1362756448569573,-0.0007599485031208576,1.607021078530491
-0.1362414648569573,-0.001096532351191522,1.580657403537822
-0.1362072848569573,-0.0007599485031210107,1.558059967829787
-0.1361731048569573,-0.001096532351191675,1.535462532121785
-0.1361389248569573,-0.0007599485031208576,1.509098857129104
-0.1361047448569573,-0.001096532351191675,1.482735182136424
-0.1360705648569573,-0.0007599485031210107,1.460137746428422
-0.1360363848569573,-0.0007599485031208576,1.433774071435743
-0.1360022048569573,-0.0007599485031210107,1.411176635727704
-0.1359680248569573,-0.001096532351191675,1.381046721450369
-0.1359338448569573,-0.001096532351191675,1.354683046457688
-0.1358996648569573,-0.001096532351191675,1.332085610749676
-0.1358654848569573,-0.0007599485031210107,1.313254414326341
-0.1358313048569573,-0.001096532351191522,1.286890739333641
-0.1357971248569573,-0.0007599485031208576,1.264293303625639
-0.1357629448569573,-0.001096532351191675,1.237929628632958
-0.1357287648569573,-0.0007599485031208576,1.215332192924946
-0.1356945848569573,-0.001096532351191522,1.192734757216944
-0.1356604048569573,-0.001096532351191675,1.166371082224243
-0.1356262248569573,-0.001096532351191675,1.143773646516241
-0.1355920448569573,-0.001096532351191675,1.11740997152356
-0.1355578648569573,-0.001096532351191675,1.091046296530879
-0.1355236848569573,-0.001096532351191675,1.068448860822877
-0.1354895048569573,-0.001096532351191675,1.045851425114865
-0.1354553248569573,-0.001096532351191675,1.019487750122163
-0.1354211448569573,-0.001096532351191675,0.9968903144141613
-0.1353869648569573,-0.001096532351191675,0.9742928787061491
-0.1353527848569573,-0.001096532351191675,0.9479292037134682
-0.1353186048569573,-0.001096532351191675,0.9215655287207993
-0.1352844248569573,-0.001096532351191675,0.8989680930127631
-0.1352502448569573,-0.001096532351191675,0.8726044180200943
-0.1352160648569573,-0.001096532351191675,0.850006982312082
-0.1351818848569573,-0.001096532351191675,0.8274095466040698
-0.1351477048569573,-0.001096532351191675,0.804812110896068
-0.1351135248569573,-0.001096532351191675,0.7822146751880351
-0.1350793448569573,-0.001096532351191675,0.7596172394800333
-0.1350451648569573,-0.001096532351191675,0.7332535644873523
-0.1350109848569573,-0.001096532351191675,0.7068898894946715
-0.1349768048569573,-0.001096532351191675,0.6842924537866696
-0.1349426248569573,-0.001096532351191675,0.657928778793968
-0.1349084448569573,-0.001096532351191675,0.6353313430859558
-0.1348742648569573,-0.001096532351191675,0.612733907377954
-0.1348400848569573,-0.001096532351191675,0.5901364716699419
-0.1348059048569573,-0.001096532351191675,0.5675390359619297
-0.1347717248569573,-0.001096532351191675,0.5449416002539278
-0.1347375448569573,-0.001096532351191675,0.5185779252612246
-0.1347033648569573,-0.001096532351191675,0.4922142502685556
-0.1346691848569573,-0.001096532351191675,0.4696168145605434
-0.1346350048569573,-0.001096532351191675,0.4432531395678626
-0.1346008248569573,-0.001096532351191675,0.4206557038598606
-0.1345666448569573,-0.001096532351191675,0.3980582681518279
-0.1345324648569573,-0.001096532351191675,0.3754608324438259
-0.1344982848569573,-0.001096532351191675,0.3528633967358137
-0.1344641048569573,-0.001096532351191675,0.3302659610278016
-0.1344299248569573,-0.001096532351191675,0.3076685253197997
-0.1343957448569573,-0.001096532351191675,0.2813048503270982
-0.1343615648569573,-0.001096532351191675,0.2587074146190843
-0.1343273848569573,-0.001096532351191675,0.2323437396264154
-0.1342932048569573,-0.001096532351191675,0.2097463039184032
-0.1342590248569573,-0.00143311619926234,0.1871488682104012
-0.1342248448569573,-0.001096532351191828,0.1607851932177221
-0.1341906648569573,-0.001433116199262493,0.1344215182250206
-0.1341564848569573,-0.001433116199262493,0.1155903218016857
-0.1341223048569573,-0.001433116199262493,0.0929928860936735
-0.1340881248569573,-0.001433116199262493,0.07039545038566131
-0.1340539448569573,-0.001096532351191828,0.0440317753929924
-0.1340197648569573,-0.001096532351191675,0.01766810040029095
-0.1339855848569573,-0.001096532351191675,-0.001163096023043986
-0.1339514048569573,-0.001096532351191675,-0.02752677101572488
-0.1339172248569573,-0.001433116199262493,-0.05012420672373707
-0.1338830448569573,-0.001096532351191828,-0.07648788171640598
-0.1338488648569573,-0.001096532351191828,-0.09908531742443873
-0.1338146848569573,-0.001433116199262493,-0.1179165138477737
-0.1337805048569573,-0.001433116199262493,-0.1405139495557859
-0.1337463248569573,-0.001433116199262493,-0.1631113852637981
-0.1337121448569573,-0.001433116199262493,-0.189475060256467
-0.1336779648569573,-0.001096532351191828,-0.2120724959644809
-0.1336437848569573,-0.00143311619926234,-0.2309036923878449
-0.1336096048569573,-0.001096532351191675,-0.2535011280958469
-0.1335754248569573,-0.001433116199262493,-0.2798648030885277
-0.1335412448569573,-0.001433116199262493,-0.3024622387965399
-0.1335070648569573,-0.001433116199262493,-0.3288259137892088
-0.1334728848569573,-0.001096532351191675,-0.3476571102125729
-0.1334387048569573,-0.001096532351191675,-0.3664883066359078
-0.1334045248569573,-0.001433116199262493,-0.38908574234392
-0.1333703448569573,-0.001096532351191675,-0.4154494173366009
-0.1333361648569573,-0.00143311619926234,-0.4380468530446028
-0.1333019848569573,-0.001433116199262493,-0.4568780494679669
-0.1332678048569573,-0.001433116199262493,-0.4794754851759688
-0.1332336248569573,-0.001433116199262493,-0.502072920883981
-0.1331994448569573,-0.001096532351191675,-0.5246703565919932
-0.1331652648569573,-0.00143311619926234,-0.5472677922999951
-0.1331310848569573,-0.001433116199262493,-0.5698652280080262
-0.1330969048569573,-0.001433116199262493,-0.5886964244313696
-0.1330627248569573,-0.001433116199262493,-0.6075276208547046
-0.1330285448569573,-0.001433116199262493,-0.6263588172780481
-0.1329943648569573,-0.001433116199262493,-0.6451900137013916
-0.1329601848569573,-0.001096532351191828,-0.6640212101247266
-0.1329260048569573,-0.001096532351191675,-0.6790861672634168
-0.1328918248569573,-0.001096532351191675,-0.6941511244020847
-0.1328576448569573,-0.001096532351191675,-0.7092160815407594
-0.1328234648569573,-0.001096532351191675,-0.7205147993947656
-0.1327892848569573,-0.0007599485031210107,-0.7280472779640995
-0.1327551048569573,-0.0007599485031208576,-0.7393459958181108
-0.1327209248569573,-0.0007599485031208576,-0.7431122351027778
-0.1326867448569573,-0.0007599485031208576,-0.7468784743874465
