Versuch02/Csv_Files/2_2_t_0500.csv

#Digilent WaveForms Oscilloscope Acquisition
#Device Name: Discovery2
#Serial Number: SN:210321AA2D13
#Date Time: 2023-11-30 13:55:46.349
#Sample rate: 19550.3Hz
#Samples: 8192
#Trigger: Source: Channel 1 Type: Edge Condition: Rising Level: 0 V Hyst.: Auto HoldOff: 0 s
#Channel 1: Range: 2 V/div Offset: 0 V Attenuation: 1 X Sample Mode: Average
#Channel 2: Range: 2 V/div Offset: 0 V Attenuation: 1 X Sample Mode: Average
#Wavegen Channel 1: Running
#Mode: Simple
#Type: Triangle
#Frequency: 50 Hz
#Period: 20 ms
#Amplitude: 5 V
#Offset: 0 V
#Symmetry: 50 %
#Phase: 0 °
#Wavegen Channel 2: Running
#Mode: Simple
#Type: DC
#Offset: 500 mV

Time (s),Channel 1 (V),Channel 2 (V)
0.02257553325319694,4.529552921045839,-0.4380468530446131
0.02262668325319694,4.614671597132484,-0.4380468530446131
0.02267783325319694,4.703491085222896,-0.4380468530446131
0.02272898325319694,4.792310573313308,-0.4380468530446131
0.02278013325319694,4.88113006140372,-0.4342806137599444
0.02283128325319694,4.969949549494133,-0.4380468530446131
0.02288243325319694,5.062469849588312,-0.4342806137599444
0.02293358325319694,5.147588525674957,-0.4380468530446131
0.02298473325319694,5.236408013765368,-0.4380468530446131
0.02303588325319694,5.325227501855781,-0.4380468530446131
0.02308703325319694,5.414046989946192,-0.4380468530446131
0.02313818325319694,5.502866478036605,-0.4380468530446131
0.02318933325319694,5.591685966127017,-0.4380468530446131
0.02324048325319694,5.680505454217428,-0.4380468530446131
0.02329163325319694,5.765624130304073,-0.4380468530446131
0.02334278325319694,5.854443618394486,-0.4380468530446131
0.02339393325319694,5.943263106484897,-0.4380468530446131
0.02344508325319694,6.03208259457531,-0.4380468530446131
0.02349623325319694,6.120902082665721,-0.4380468530446131
0.02354738325319694,6.209721570756134,-0.4380468530446131
0.02359853325319694,6.298541058846546,-0.4380468530446131
0.02364968325319694,6.38365973493319,-0.4418130923292818
0.02370083325319694,6.472479223023603,-0.4380468530446131
0.02375198325319694,6.557597899110248,-0.4418130923292818
0.02380313325319694,6.64641738720066,-0.4418130923292818
0.02385428325319694,6.735236875291072,-0.4418130923292818
0.02390543325319694,6.824056363381484,-0.4418130923292818
0.02395658325319694,6.912875851471895,-0.4418130923292818
0.02400773325319694,6.99799452755854,-0.4380468530446131
0.02405888325319694,7.083113203645185,-0.4418130923292818
0.02411003325319694,7.175633503739364,-0.4418130923292818
0.02416118325319694,7.257051367822243,-0.4418130923292818
0.02421233325319694,7.345870855912654,-0.4418130923292818
0.02426348325319694,7.434690344003067,-0.4418130923292818
0.02431463325319694,7.519809020089712,-0.4418130923292818
0.02436578325319694,7.608628508180123,-0.4418130923292818
0.02441693325319694,7.697447996270536,-0.4418130923292818
0.02446808325319694,7.782566672357181,-0.4418130923292818
0.02451923325319694,7.871386160447592,-0.4418130923292818
0.02457038325319694,7.960205648538005,-0.4418130923292818
0.02462153325319694,8.04532432462465,-0.4418130923292818
0.02467268325319694,8.134143812715061,-0.4418130923292818
0.02472383325319694,8.219262488801705,-0.4418130923292818
0.02477498325319694,8.304381164888351,-0.4418130923292818
0.02482613325319694,8.393200652978763,-0.4418130923292818
0.02487728325319694,8.478319329065409,-0.4418130923292818
0.02492843325319694,8.56713881715582,-0.4418130923292818
0.02497958325319694,8.655958305246232,-0.4418130923292818
0.02503073325319694,8.741076981332878,-0.4418130923292818
0.02508188325319693,8.829896469423289,-0.4418130923292818
0.02513303325319693,8.822494845415754,-0.4418130923292818
0.02518418325319693,8.722572921314041,-0.4418130923292818
0.02523533325319693,8.626351809216095,-0.4380468530446131
0.02528648325319693,8.530130697118192,-0.4418130923292801
0.02533763325319693,8.437610397024011,-0.4380468530446148
0.02538878325319693,8.337688472922302,-0.4380468530446131
0.02543993325319693,8.245168172828119,-0.4380468530446131
0.02549108325319693,8.148947060730174,-0.4380468530446131
0.02554223325319693,8.052725948632228,-0.4380468530446131
0.02559338325319693,7.956504836534281,-0.4342806137599461
0.02564453325319693,7.8639845364401,-0.4342806137599444
0.02569568325319693,7.76406261233839,-0.4342806137599444
0.02574683325319693,7.671542312244207,-0.4342806137599444
0.02579798325319693,7.575321200146262,-0.4342806137599444
0.02584913325319693,7.479100088048316,-0.4342806137599444
0.02590028325319696,7.38657978795405,-0.4305143744752757
0.02595143325319696,7.290358675856103,-0.4305143744752757
0.02600258325319696,7.194137563758157,-0.4305143744752757
0.02605373325319696,7.097916451660212,-0.4305143744752757
0.02610488325319696,7.005396151566031,-0.430514374475274
0.02615603325319696,6.909175039468087,-0.4267481351906087
0.02620718325319696,6.816654739373906,-0.430514374475274
0.02625833325319696,6.720433627275959,-0.426748135190607
0.02630948325319696,6.624212515178013,-0.426748135190607
0.02636063325319696,6.527991403080068,-0.426748135190607
0.02641178325319696,6.435471102985887,-0.4267481351906053
0.02646293325319696,6.339249990887943,-0.4229818959059383
0.02651408325319696,6.246729690793805,-0.4229818959059383
0.02656523325319696,6.150508578695859,-0.4229818959059383
0.02661638325319696,6.057988278601679,-0.4229818959059383
0.02666753325319696,5.961767166503734,-0.4229818959059383
0.02671868325319696,5.869246866409554,-0.4192156566212696
0.02676983325319696,5.773025754311607,-0.4229818959059383
0.02682098325319696,5.676804642213662,-0.4192156566212696
0.02687213325319696,5.587985154123249,-0.4192156566212696
0.02692328325319696,5.495464854029071,-0.4192156566212696
0.02697443325319696,5.399243741931124,-0.4154494173366009
0.02702558325319696,5.303022629833177,-0.4154494173366009
0.02707673325319696,5.206801517735231,-0.4192156566212696
0.02712788325319695,5.11798202964482,-0.4154494173366009
0.02717903325319695,5.02546172955064,-0.4154494173366009
0.02723018325319695,4.929240617452693,-0.4116831780519322
0.02728133325319695,4.833019505354748,-0.4116831780519322
0.02733248325319695,4.740499205260568,-0.4116831780519322
0.02738363325319695,4.647978905166389,-0.4116831780519322
0.02743478325319695,4.551757793068442,-0.4116831780519322
0.02748593325319695,4.459237492974263,-0.4116831780519322
0.02753708325319695,4.363016380876317,-0.4116831780519322
0.02758823325319695,4.270496080782138,-0.4116831780519322
0.02763938325319695,4.177975780687959,-0.4116831780519322
0.02769053325319695,4.085455480593779,-0.4079169387672635
0.02774168325319695,3.989234368495832,-0.4079169387672635
0.02779283325319695,3.896714068401653,-0.4079169387672635
0.02784398325319695,3.804193768307474,-0.4079169387672635
0.02789513325319695,3.711673468213295,-0.4079169387672635
0.02794628325319695,3.619153168119115,-0.4041506994825948
0.02799743325319695,3.526632868024936,-0.4041506994825948
0.02804858325319695,3.43041175592699,-0.4041506994825948
0.02809973325319695,3.337891455832811,-0.4041506994825948
0.02815088325319695,3.245371155738631,-0.4041506994825948
0.02820203325319695,3.152850855644452,-0.4041506994825948
0.02825318325319695,3.060330555550273,-0.4041506994825948
0.02830433325319695,2.967810255456094,-0.4003844601979261
0.02835548325319695,2.875289955361914,-0.4003844601979261
0.02840663325319695,2.779068843263968,-0.4003844601979261
0.02845778325319695,2.690249355173556,-0.4003844601979261
0.02850893325319695,2.597729055079377,-0.4003844601979261
0.02856008325319695,2.50150794298143,-0.3966182209132574
0.02861123325319695,2.412688454891018,-0.4003844601979261
0.02866238325319695,2.320168154796839,-0.3966182209132574
0.02871353325319695,2.22764785470266,-0.3966182209132574
0.02876468325319695,2.131426742604714,-0.3966182209132574
0.02881583325319695,2.038906442510535,-0.3966182209132574
0.02886698325319695,1.950086954420123,-0.3966182209132574
0.02891813325319695,1.857566654325943,-0.3928519816285887
0.02896928325319695,1.765046354231764,-0.3966182209132574
0.02902043325319695,1.668825242133818,-0.3966182209132574
0.02907158325319695,1.576304942039639,-0.3928519816285887
0.02912273325319695,1.487485453949227,-0.3928519816285887
0.02917388325319695,1.39126434185128,-0.3928519816285887
0.02922503325319695,1.302444853760868,-0.3928519816285887
0.02927618325319695,1.209924553666689,-0.38908574234392
0.02932733325319695,1.11740425357251,-0.38908574234392
0.02937848325319695,1.024883953478331,-0.38908574234392
0.02942963325319695,0.9360644653879185,-0.38908574234392
0.02948078325319695,0.8435441652937393,-0.38908574234392
0.02953193325319695,0.7510238651995601,-0.38908574234392
0.02958308325319695,0.6585035651053809,-0.3853195030592513
0.02963423325319695,0.5659832650112017,-0.38908574234392
0.02968538325319695,0.4734629649170224,-0.3853195030592513
0.02973653325319695,0.3846434768266104,-0.38908574234392
0.02978768325319694,0.2921231767324312,-0.3853195030592513
0.02983883325319694,0.199602876638252,-0.3853195030592513
0.02988998325319694,0.1070825765440728,-0.3853195030592513
0.02994113325319694,0.01826308845366073,-0.3853195030592513
0.02999228325319694,-0.07425721164051848,-0.3815532637745827
0.03004343325319694,-0.1630766997309305,-0.3815532637745827
0.03009458325319694,-0.2481953758175754,-0.3815532637745827
0.03014573325319694,-0.3407156759117546,-0.3740207852052452
0.03019688325319694,-0.4332359760059338,-0.3702545459205765
0.03024803325319694,-0.525756276100113,-0.3627220673512391
0.03029918325319694,-0.6108749521867579,-0.3551895887819017
0.03035033325319694,-0.7033952522809371,-0.3476571102125643
0.03040148325319694,-0.7959155523751164,-0.3401246316432269
0.03045263325319694,-0.8847350404655283,-0.3288259137892208
0.03050378325319694,-0.9772553405597075,-0.3212934352198835
0.03055493325319694,-1.06607482865012,-0.3099947173658774
0.03060608325319694,-1.154894316740532,-0.3024622387965399
0.03065723325319694,-1.243713804830944,-0.2911635209425338
0.03070838325319694,-1.332533292921356,-0.2798648030885277
0.03075953325319694,-1.421352781011768,-0.2685660852345216
0.03081068325319694,-1.513873081105947,-0.2572673673805155
0.03086183325319694,-1.602692569196359,-0.2497348888111781
0.03091298325319694,-1.695212869290538,-0.238436170957172
0.03096413325319694,-1.78403235738095,-0.227137453103166
0.03101528325319694,-1.872851845471363,-0.2196049745338285
0.03106643325319694,-1.961671333561774,-0.2083062566798224
0.03111758325319694,-2.04679000964842,-0.1970075388258163
0.03116873325319694,-2.139310309742599,-0.1819425816871416
0.03121988325319694,-2.228129797833011,-0.1744101031178042
0.03127103325319694,-2.316949285923422,-0.1593451459791294
0.03132218325319694,-2.405768774013834,-0.1442801888404546
0.03137333325319694,-2.490887450100479,-0.1329814709864485
0.03142448325319694,-2.583407750194659,-0.1216827531324424
0.03147563325319694,-2.672227238285071,-0.1103840352784363
0.03152678325319694,-2.761046726375483,-0.09908531742443016
0.03157793325319694,-2.849866214465895,-0.08402036028575538
0.03162908325319694,-2.938685702556307,-0.06895540314708057
0.03168023325319694,-3.023804378642952,-0.05389044600840578
0.03173138325319694,-3.116324678737131,-0.04259172815439968
0.03178253325319694,-3.201443354823776,-0.02752677101572488
0.03183368325319694,-3.290262842914188,-0.01246181387705008
0.03188483325319694,-3.3790823310046,0.002603143261624714
0.03193598325319694,-3.464201007091245,0.01766810040029951
0.03198713325319694,-3.556721307185424,0.03273305753897431
0.03203828325319694,-3.641839983272069,0.0477980146776491
0.03208943325319694,-3.730659471362481,0.05909673253165521
0.03214058325319694,-3.819478959452893,0.0779279289549987
0.03219173325319694,-3.908298447543305,0.0929928860936735
0.03224288325319694,-3.989716311626183,0.1080578432323483
0.03229403325319694,-4.082236611720361,0.1231228003710231
0.03234518325319694,-4.167355287807006,0.1381877575096979
0.03239633325319694,-4.252473963893651,0.1570189539330414
0.03244748325319693,-4.341293451984063,0.1720839110717162
0.03249863325319693,-4.426412128070708,0.1909151074950597
0.03254978325319693,-4.518932428164887,0.2059800646337345
0.03260093325319693,-4.6077519162553,0.224811261057078
0.03265208325319693,-4.692870592341944,0.2436424574804215
0.03270323325319693,-4.781690080432356,0.2587074146190963
0.03275438325319693,-4.863107944515234,0.2775386110424398
0.03280553325319693,-4.951927432605606,0.2963698074657747
0.03285668325319693,-5.037046108692252,0.3152010038891182
0.03290783325319693,-5.125865596782663,0.3340322003124617
0.03295898325319693,-5.210984272869309,0.3490971574511382
0.03301013325319693,-5.29980376095972,0.36792835387448
0.03306128325319693,-5.384922437046366,0.3867595502978235
0.03311243325319693,-5.473741925136776,0.409356986005834
0.03316358325319693,-5.558860601223422,0.4319544217138462
0.03321473325319693,-5.643979277310067,0.4507856181371914
0.03326588325319693,-5.732798765400479,0.4771492931298689
0.03331703325319693,-5.817917441487125,0.4997467288378828
0.03336818325319696,-5.903036117573848,0.5223441645459173
0.03341933325319696,-5.988154793660493,0.5487078395385965
0.03347048325319696,-6.073273469747138,0.5713052752466087
0.03352163325319696,-6.158392145833782,0.5939027109546225
0.03357278325319696,-6.247211633924192,0.6202663859473034
0.03362393325319696,-6.328629498007071,0.646630060939986
0.03367508325319696,-6.413748174093716,0.6767599752173339
0.03372623325319696,-6.498866850180361,0.7031236502100182
0.03377738325319696,-6.583985526267006,0.7370198037720348
0.03382853325319696,-6.669104202353651,0.7671497180493861
0.03387968325319696,-6.754222878440294,0.8010458716114026
0.03393083325319696,-6.835640742523174,0.8311757858887541
0.03398198325319696,-6.92075941860978,0.8650719394507569
0.03403313325319696,-7.005878094696424,0.9027343322974439
0.03408428325319696,-7.087295958779302,0.9441629644287995
0.03413543325319696,-7.172414634865947,0.9855915965601553
0.03418658325319696,-7.253832498948825,1.03078646797618
0.03423773325319696,-7.338951175035469,1.072215100107535
0.03428888325319696,-7.420369039118348,1.121176210808228
0.03434003325319696,-7.501786903201225,1.177669800078259
0.03439118325319696,-7.583204767284103,1.230397150063621
0.03444233325319696,-7.668323443370747,1.29065697861832
0.03449348325319695,-7.742339683446091,1.354683046457688
0.03454463325319695,-7.823757547528968,1.426241592866393
0.03459578325319695,-7.905175411611847,1.501566378559767
0.03464693325319695,-7.982892463690957,1.584423642822478
0.03469808325319695,-8.060609515770068,1.674813385654527
0.03474923325319695,-8.134625755845411,1.772735607055913
0.03480038325319695,-8.208641995920754,1.881956546311306
0.03485153325319695,-8.286359047999865,2.006242442705373
0.03490268325319695,-8.356674476071442,2.134294578384108
0.03495383325319695,-8.430690716146785,2.288710389055526
0.03500498325319695,-8.497305332214593,2.461957396150286
0.03505613325319695,-8.563919948282402,2.661568078237726
0.03510728325319695,-8.608329692327608,2.827282606763149
0.03515843325319695,-8.552817512271101,2.665334317522396
0.03520958325319695,-8.478801272195758,2.461957396150286
0.03526073325319695,-8.401084220116648,2.284944149770856
0.03531188325319695,-8.319666356033769,2.13052833909944
0.03536303325319695,-8.234547679947124,1.994943724851367
0.03541418325319695,-8.153129815864247,1.866891589172631
0.03546533325319695,-8.071711951781369,1.757670649917239
0.03551648325319695,-7.986593275694724,1.655982189231184
0.03556763325319695,-7.901474599608079,1.565592446399135
0.03561878325319695,-7.812655111517667,1.482735182136424
0.03566993325319695,-7.727536435431023,1.403644157158381
0.03572108325319695,-7.63871694734061,1.328319371465007
0.03577223325319695,-7.549897459250198,1.26052706434097
0.03582338325319695,-7.461077971159786,1.200267235786271
0.03587453325319695,-7.372258483069374,1.147539885800909
0.03592568325319695,-7.279738182975195,1.091046296530879
0.03597683325319695,-7.19461950688855,1.042085185830186
0.03602798325319695,-7.102099206794371,0.9931240751294926
0.03607913325319695,-7.009578906700192,0.9479292037134682
0.03613028325319695,-6.92075941860978,0.9065005715821126
0.03618143325319695,-6.828239118515601,0.8650719394507569
0.03623258325319695,-6.735718818421422,0.8311757858887386
0.03628373325319695,-6.646899330331009,0.7972796323267203
0.03633488325319695,-6.55437903023683,0.7596172394800333
0.03638603325319695,-6.465559542146418,0.725721085918015
0.03643718325319695,-6.373039242052239,0.6918249323559967
0.03648833325319695,-6.28051894195806,0.6616950180786472
0.03653948325319695,-6.191699453867647,0.6315651038012975
0.03659063325319695,-6.099179153773468,0.6014351895239479
0.03664178325319695,-6.006658853679289,0.575071514531267
0.03669293325319695,-5.91413855358511,0.5487078395385862
0.03674408325319695,-5.825319065494698,0.5223441645459053
0.03679523325319695,-5.732798765400519,0.4959804895532243
0.03684638325319695,-5.64027846530634,0.4733830538452121
0.03689753325319695,-5.54775816521216,0.4470193788525312
0.03694868325319695,-5.458938677121748,0.424421943144519
0.03699983325319695,-5.362717565023802,0.4018245074365068
0.03705098325319695,-5.273898076933389,0.3792270717284947
0.03710213325319694,-5.177676964835443,0.3603958753051512
0.03715328325319694,-5.088857476745031,0.3415646788818076
0.03720443325319694,-4.996337176650852,0.3227334824584642
0.03725558325319694,-4.903816876556673,0.3039022860351207
0.03730673325319694,-4.811296576462493,0.2813048503271084
0.03735788325319694,-4.722477088372082,0.2587074146190963
0.03740903325319694,-4.629956788277902,0.2398762181957528
0.03746018325319694,-4.537436488183723,0.2210450217724093
0.03751133325319694,-4.444916188089544,0.2059800646337345
0.03756248325319694,-4.352395887995365,0.187148868210391
0.03761363325319694,-4.263576399904952,0.1683176717870475
0.03766478325319694,-4.171056099810774,0.149486475363704
0.03771593325319694,-4.078535799716595,0.1344215182250292
0.03776708325319694,-3.982314687618648,0.1155903218016857
0.03781823325319694,-3.893495199528236,0.1005253646630109
0.03786938325319694,-3.804675711437824,0.0854604075243361
0.03792053325319694,-3.712155411343645,0.0666292111009926
0.03797168325319694,-3.619635111249466,0.05156425396231781
0.03802283325319694,-3.530815623159054,0.03649929682364301
0.03807398325319694,-3.434594511061107,0.02143433968496821
0.03812513325319694,-3.345775022970695,0.006369382546293413
0.03817628325319694,-3.253254722876516,-0.008695574592381385
0.03822743325319694,-3.160734422782337,-0.02376053173105618
0.03827858325319694,-3.071914934691925,-0.03882548886973098
0.03832973325319694,-2.979394634597746,-0.05389044600840578
0.03838088325319694,-2.890575146507334,-0.06895540314708057
0.03843203325319694,-2.798054846413155,-0.08402036028575538
0.03848318325319694,-2.705534546318975,-0.09908531742443016
0.03853433325319694,-2.613014246224796,-0.1103840352784363
0.03858548325319694,-2.524194758134384,-0.125448992417111
0.03863663325319694,-2.431674458040205,-0.1367477102711172
0.03868778325319694,-2.342854969949793,-0.151812667409792
0.03873893325319694,-2.250334669855614,-0.1631113852637981
0.03879008325319694,-2.157814369761434,-0.1744101031178042
0.03884123325319694,-2.065294069667255,-0.1894750602564789
0.03889238325319694,-1.976474581576843,-0.2007737781104851
0.03894353325319694,-1.880253469478897,-0.2120724959644912
0.03899468325319694,-1.795134793392252,-0.2233712138184973
0.03904583325319694,-1.702614493298073,-0.2346699316725034
0.03909698325319694,-1.613795005207661,-0.2459686495265095
0.03914813325319694,-1.521274705113481,-0.2572673673805155
0.03919928325319694,-1.428754405019302,-0.2685660852345216
0.03925043325319694,-1.336234104925123,-0.2798648030885277
0.03930158325319694,-1.247414616834711,-0.2911635209425338
0.03935273325319694,-1.154894316740532,-0.3024622387965399
0.03940388325319694,-1.06607482865012,-0.313760956650546
0.03945503325319694,-0.9735545285559404,-0.3212934352198835
0.03950618325319694,-0.8810342284617612,-0.3325921530738896
0.03955733325319694,-0.7922147403713491,-0.3438908709278956
