Versuch02/Csv_Files/2_2_f.csv

#Digilent WaveForms Oscilloscope Acquisition
#Device Name: Discovery2
#Serial Number: SN:210321AA2D13
#Date Time: 2023-11-30 11:53:47.807
#Sample rate: 63979.5Hz
#Samples: 8192
#Trigger: Source: Channel 2 Type: Edge Condition: Rising Level: 0 V Hyst.: Auto HoldOff: 0 s
#Channel 2: Range: 2 V/div Offset: 0 V Attenuation: 1 X Sample Mode: Average
#Wavegen Channel 1: Running
#Mode: Simple
#Type: Triangle
#Frequency: 50 Hz
#Period: 20 ms
#Amplitude: 5 V
#Offset: 0 V
#Symmetry: 50 %
#Phase: 0 °

Time (s),Channel 2 (V)
-0.08219803537042826,-1.669607099131278
-0.08218240537042826,-1.658308381277277
-0.08216677537042825,-1.643243424138597
-0.08215114537042825,-1.631944706284591
-0.08213551537042825,-1.62064598843058
-0.08211988537042825,-1.609347270576573
-0.08210425537042826,-1.598048552722578
-0.08208862537042826,-1.586749834868566
-0.08207299537042825,-1.57545111701456
-0.08205736537042825,-1.560386159875885
-0.08204173537042825,-1.552853681306541
-0.08202610537042826,-1.53778872416788
-0.08201047537042826,-1.530256245598536
-0.08199484537042825,-1.515191288459861
-0.08197921537042825,-1.503892570605855
-0.08196358537042825,-1.492593852751844
-0.08194795537042826,-1.481295134897848
-0.08193232537042826,-1.466230177759175
-0.08191669537042826,-1.454931459905162
-0.08190106537042825,-1.443632742051156
-0.08188543537042825,-1.428567784912476
-0.08186980537042825,-1.41726906705847
-0.08185417537042826,-1.405970349204474
-0.08183854537042826,-1.398437870635131
-0.08182291537042825,-1.383372913496457
-0.08180728537042825,-1.37207419564245
-0.08179165537042825,-1.357009238503771
-0.08177602537042826,-1.345710520649775
-0.08176039537042826,-1.334411802795764
-0.08174476537042825,-1.323113084941757
-0.08172913537042825,-1.311814367087751
-0.08171350537042825,-1.300515649233738
-0.08169787537042825,-1.285450692095065
-0.08168224537042826,-1.274151974241069
-0.08166661537042826,-1.262853256387058
-0.08165098537042825,-1.251554538533052
-0.08163535537042825,-1.240255820679046
-0.08161972537042825,-1.228957102825033
-0.08160409537042826,-1.213892145686372
-0.08158846537042826,-1.202593427832359
-0.08157283537042825,-1.191294709978353
-0.08155720537042825,-1.179995992124347
-0.08154157537042825,-1.168697274270334
-0.08152594537042826,-1.153632317131673
-0.08151031537042826,-1.142333599277665
-0.08149468537042825,-1.134801120708323
-0.08147905537042825,-1.123502402854316
-0.08146342537042825,-1.108437445715637
-0.08144779537042825,-1.09713872786163
-0.08143216537042826,-1.085840010007634
-0.08141653537042826,-1.074541292153623
-0.08140090537042825,-1.063242574299617
-0.08138527537042825,-1.051943856445611
-0.08136964537042825,-1.0406451385916
-0.08135401537042826,-1.029346420737604
-0.08133838537042826,-1.014281463598924
-0.08132275537042825,-1.002982745744918
-0.08130712537042825,-0.9954502671755806
-0.08129149537042825,-0.976619070752232
-0.08127586537042826,-0.9653203528982361
-0.08126023537042826,-0.9540216350442301
-0.08124460537042826,-0.9427229171902188
-0.08122897537042825,-0.9314241993362128
-0.08121334537042825,-0.9201254814822015
-0.08119771537042825,-0.9088267636281937
-0.08118208537042826,-0.8937618064895326
-0.08116645537042826,-0.8824630886355197
-0.08115082537042825,-0.8711643707815135
-0.08113519537042825,-0.8598656529275075
-0.08111956537042825,-0.8485669350734962
-0.08110393537042826,-0.8372682172195004
-0.08108830537042826,-0.8259694993654891
-0.08107267537042825,-0.8146707815114831
-0.08105704537042825,-0.8033720636574769
-0.08104141537042825,-0.7883071065187971
-0.08102578537042826,-0.7770083886648012
-0.08101015537042826,-0.7619434315261282
-0.08099452537042826,-0.7506447136721152
-0.08097889537042825,-0.7393459958181091
-0.08096326537042825,-0.7242810386794308
-0.08094763537042825,-0.71674856011009
-0.08093200537042826,-0.701683602971429
-0.08091637537042826,-0.690384885117416
-0.08090074537042825,-0.6828524065480785
-0.08088511537042825,-0.6715536886940725
-0.08086948537042825,-0.6602549708400595
-0.08085385537042826,-0.6451900137013985
-0.08083822537042826,-0.6338912958473855
-0.08082259537042825,-0.6225925779933794
-0.08080696537042825,-0.6112938601393733
-0.08079133537042825,-0.5999951422853621
-0.08077570537042825,-0.5886964244313559
-0.08076007537042826,-0.5773977065773601
-0.08074444537042826,-0.5660989887233489
-0.08072881537042825,-0.5548002708693428
-0.08071318537042825,-0.5435015530153366
-0.08069755537042825,-0.5284365958766568
-0.08068192537042826,-0.5171378780226609
-0.08066629537042826,-0.5058391601686497
-0.08065066537042825,-0.4907742030299749
-0.08063503537042825,-0.4794754851759688
-0.08061940537042826,-0.4681767673219679
-0.08060377537042826,-0.4568780494679618
-0.08058814537042826,-0.4455793316139557
-0.08057251537042825,-0.4342806137599444
-0.08055688537042825,-0.4229818959059383
-0.08054125537042826,-0.4079169387672704
-0.08052562537042826,-0.3966182209132626
-0.08050999537042826,-0.3815532637745895
-0.08049436537042826,-0.3740207852052452
-0.08047873537042825,-0.3627220673512391
-0.08046310537042825,-0.351423349497233
-0.08044747537042826,-0.3438908709278991
-0.08043184537042826,-0.3288259137892277
-0.08041621537042826,-0.3175271959352147
-0.08040058537042825,-0.3062284780812086
-0.08038495537042825,-0.2911635209425338
-0.08036932537042826,-0.2798648030885329
-0.08035369537042826,-0.2685660852345268
-0.08033806537042826,-0.2535011280958537
-0.08032243537042826,-0.2422024102418407
-0.08030680537042825,-0.2309036923878346
-0.08029117537042826,-0.2196049745338337
-0.08027554537042826,-0.2120724959644946
-0.08025991537042826,-0.2007737781104902
-0.08024428537042826,-0.1894750602564789
-0.08022865537042825,-0.1744101031178042
-0.08021302537042825,-0.1631113852637981
-0.08019739537042826,-0.1518126674097971
-0.08018176537042826,-0.140513949555791
-0.08016613537042826,-0.125448992417111
-0.08015050537042825,-0.114150274563105
-0.08013487537042825,-0.1028515567090989
-0.08011924537042826,-0.09155283885509791
-0.08010361537042826,-0.08402036028575881
-0.08008798537042826,-0.06895540314708742
-0.08007235537042826,-0.05765668529307448
-0.08005672537042825,-0.04635796743906838
-0.08004109537042826,-0.03505924958506741
-0.08002546537042826,-0.01999429244639434
-0.08000983537042826,-0.008695574592386523
-0.07999420537042826,0.002603143261624714
-0.07997857537042825,0.01390186111563081
-0.07996294537042825,0.02896681825430561
-0.07994731537042826,0.04026553610830658
-0.07993168537042826,0.05156425396231266
-0.07991605537042826,0.0628629718163239
-0.07990042537042825,0.0779279289549987
-0.07988479537042825,0.0854604075243361
-0.07986916537042826,0.09675912537833706
-0.07985353537042826,0.1080578432323432
-0.07983790537042826,0.1193565610863493
-0.07982227537042826,0.1306552789403605
-0.07980664537042825,0.1419539967943666
-0.07979101537042825,0.1532527146483727
-0.07977538537042826,0.1645514325023737
-0.07975975537042826,0.1758501503563797
-0.07974412537042826,0.1909151074950597
-0.07972849537042825,0.2022138253490658
-0.07971286537042825,0.2135125432030719
-0.07969723537042826,0.2285775003417398
-0.07968160537042826,0.2361099789110807
-0.07966597537042826,0.2511749360497521
-0.07965034537042825,0.2587074146190963
-0.07963471537042825,0.2737723717577711
-0.07961908537042826,0.285071089611772
-0.07960345537042826,0.3001360467504451
-0.07958782537042826,0.3152010038891199
-0.07957219537042826,0.3227334824584642
-0.07955656537042825,0.3340322003124703
-0.07954093537042825,0.3415646788818076
-0.07952530537042826,0.3528633967358086
-0.07950967537042826,0.3641621145898147
-0.07949404537042826,0.3716945931591573
-0.07947841537042825,0.386759550297832
-0.07946278537042825,0.3980582681518381
-0.07944715537042826,0.4093569860058391
-0.07943152537042826,0.4206557038598452
-0.07941589537042826,0.4319544217138513
-0.07940026537042826,0.4432531395678626
-0.07938463537042825,0.4583180967065373
-0.07936900537042826,0.4696168145605383
-0.07935337537042826,0.4771492931298774
-0.07933774537042826,0.4922142502685488
-0.07932211537042826,0.5035129681225617
-0.07930648537042825,0.5148116859765678
-0.07929085537042825,0.5298766431152426
-0.07927522537042826,0.5411753609692436
-0.07925959537042826,0.5524740788232497
-0.07924396537042826,0.5637727966772609
-0.07922833537042825,0.575071514531267
-0.07921270537042825,0.5863702323852731
-0.07919707537042826,0.5976689502392741
-0.07918144537042826,0.6089676680932802
-0.07916581537042826,0.6202663859472863
-0.07915018537042826,0.6315651038012975
-0.07913455537042825,0.6428638216553036
-0.07911892537042826,0.6541625395093046
-0.07910329537042826,0.6654612573633107
-0.07908766537042826,0.6805262145019837
-0.07907203537042826,0.6955911716406654
-0.07905640537042825,0.7068898894946715
-0.07904077537042825,0.7144223680640089
-0.07902514537042826,0.7294873252026768
-0.07900951537042826,0.7407860430566847
-0.07899388537042826,0.7520847609106908
-0.07897825537042825,0.763383478764702
-0.07896262537042825,0.7784484359033768
-0.07894699537042826,0.7859809144727108
-0.07893136537042826,0.7972796323267152
-0.07891573537042826,0.8085783501807213
-0.07890010537042826,0.8198770680347325
-0.07888447537042825,0.8311757858887386
-0.07886884537042825,0.8424745037427447
-0.07885321537042826,0.8500069823120786
-0.07883758537042826,0.8613057001660831
-0.07882195537042826,0.8726044180200943
-0.07880632537042825,0.8876693751587691
-0.07879069537042825,0.8989680930127751
-0.07877506537042826,0.9102668108667762
-0.07875943537042826,0.9215655287207822
-0.07874380537042826,0.9328642465747884
-0.07872817537042825,0.9441629644287995
-0.07871254537042825,0.9554616822828057
-0.07869691537042826,0.9705266394214735
-0.07868128537042826,0.9780591179908145
-0.07866565537042826,0.9931240751294858
-0.07865002537042826,1.00065655369883
-0.07863439537042825,1.015721510837505
-0.07861876537042825,1.027020228691511
-0.07860313537042826,1.038318946545512
-0.07858750537042826,1.049617664399518
-0.07857187537042826,1.064682621538198
-0.07855624537042825,1.072215100107535
-0.07854061537042825,1.083513817961541
-0.07852498537042826,1.094812535815542
-0.07850935537042826,1.106111253669549
-0.07849372537042826,1.117409971523555
-0.07847809537042826,1.128708689377566
-0.07846246537042825,1.143773646516241
-0.07844683537042826,1.151306125085575
-0.07843120537042826,1.162604842939579
-0.07841557537042826,1.173903560793585
-0.07839994537042826,1.181436039362928
-0.07838431537042825,1.196500996501602
-0.07836868537042825,1.200267235786271
-0.07835305537042826,1.207799714355605
-0.07833742537042826,1.215332192924943
-0.07832179537042826,1.219098432209615
-0.07830616537042825,1.226630910778952
-0.07829053537042825,1.230397150063621
-0.07827490537042826,1.230397150063621
-0.07825927537042826,1.234163389348288
-0.07824364537042826,1.237929628632956
-0.07822801537042826,1.241695867917627
-0.07821238537042825,1.245462107202296
-0.07819675537042825,1.245462107202296
-0.07818112537042826,1.249228346486962
-0.07816549537042826,1.249228346486964
-0.07814986537042826,1.252994585771633
-0.07813423537042825,1.256760825056302
-0.07811860537042825,1.256760825056302
-0.07810297537042826,1.256760825056302
-0.07808734537042826,1.260527064340969
-0.07807171537042826,1.26052706434097
-0.07805608537042825,1.264293303625639
-0.07804045537042825,1.264293303625639
-0.07802482537042826,1.264293303625639
-0.07800919537042826,1.264293303625639
-0.07799356537042826,1.268059542910306
-0.07797793537042826,1.268059542910308
-0.07796230537042825,1.271825782194976
-0.07794667537042825,1.268059542910308
-0.07793104537042826,1.271825782194975
-0.07791541537042826,1.271825782194976
-0.07789978537042826,1.271825782194976
-0.07788415537042825,1.271825782194976
-0.07786852537042825,1.275592021479645
-0.07785289537042826,1.275592021479645
-0.07783726537042826,1.275592021479645
-0.07782163537042826,1.275592021479645
-0.07780600537042826,1.275592021479645
-0.07779037537042825,1.275592021479645
-0.07777474537042826,1.275592021479645
-0.07775911537042826,1.275592021479645
-0.07774348537042826,1.275592021479645
-0.07772785537042826,1.283124500048983
-0.07771222537042825,1.279358260764314
-0.07769659537042825,1.283124500048983
-0.07768096537042826,1.279358260764316
-0.07766533537042826,1.283124500048981
-0.07764970537042826,1.283124500048983
-0.07763407537042825,1.283124500048983
-0.07761844537042825,1.283124500048983
-0.07760281537042826,1.283124500048983
-0.07758718537042826,1.28689073933365
-0.07757155537042826,1.283124500048984
-0.07755592537042826,1.283124500048983
-0.07754029537042825,1.283124500048983
-0.07752466537042826,1.28689073933365
-0.07750903537042826,1.286890739333651
-0.07749340537042826,1.286890739333651
-0.07747777537042826,1.286890739333651
-0.07746214537042825,1.286890739333651
-0.07744651537042825,1.286890739333651
-0.07743088537042826,1.286890739333651
-0.07741525537042826,1.286890739333651
-0.07739962537042826,1.286890739333651
-0.07738399537042825,1.286890739333651
-0.07736836537042825,1.286890739333651
-0.07735273537042826,1.286890739333651
-0.07733710537042826,1.286890739333651
-0.07732147537042826,1.286890739333651
-0.07730584537042826,1.29065697861832
-0.07729021537042825,1.286890739333651
-0.07727458537042825,1.286890739333651
-0.07725895537042826,1.290656978618318
-0.07724332537042826,1.29065697861832
-0.07722769537042826,1.286890739333651
-0.07721206537042825,1.286890739333651
-0.07719643537042825,1.29065697861832
-0.07718080537042826,1.286890739333653
-0.07716517537042826,1.286890739333651
-0.07714954537042826,1.290656978618318
-0.07713391537042825,1.286890739333651
-0.07711828537042825,1.29065697861832
-0.07710265537042826,1.29065697861832
-0.07708702537042826,1.29065697861832
-0.07707139537042826,1.29065697861832
-0.07705576537042826,1.29065697861832
-0.07704013537042825,1.29065697861832
-0.07702450537042825,1.29065697861832
-0.07700887537042826,1.29065697861832
-0.07699324537042826,1.29065697861832
-0.07697761537042826,1.29065697861832
-0.07696198537042825,1.29065697861832
-0.07694635537042825,1.294423217902989
-0.07693072537042826,1.290656978618322
-0.07691509537042826,1.29065697861832
-0.07689946537042826,1.294423217902987
-0.07688383537042826,1.29065697861832
-0.07686820537042825,1.294423217902989
-0.07685257537042826,1.290656978618322
-0.07683694537042826,1.29065697861832
-0.07682131537042826,1.29065697861832
-0.07680568537042826,1.29065697861832
-0.07679005537042825,1.29065697861832
-0.07677442537042825,1.29065697861832
-0.07675879537042826,1.29065697861832
-0.07674316537042826,1.29065697861832
-0.07672753537042826,1.294423217902989
-0.07671190537042825,1.29065697861832
-0.07669627537042825,1.294423217902989
-0.07668064537042826,1.294423217902989
-0.07666501537042826,1.294423217902989
-0.07664938537042826,1.294423217902989
-0.07663375537042826,1.294423217902989
-0.07661812537042825,1.294423217902989
-0.07660249537042826,1.294423217902989
-0.07658686537042826,1.290656978618322
-0.07657123537042826,1.294423217902987
-0.07655560537042826,1.294423217902989
-0.07653997537042825,1.294423217902989
-0.07652434537042825,1.29065697861832
-0.07650871537042826,1.29065697861832
-0.07649308537042826,1.294423217902987
-0.07647745537042826,1.294423217902989
-0.07646182537042825,1.294423217902989
-0.07644619537042825,1.29065697861832
-0.07643056537042826,1.29065697861832
-0.07641493537042826,1.294423217902987
-0.07639930537042826,1.294423217902989
-0.07638367537042826,1.294423217902989
-0.07636804537042825,1.29065697861832
-0.07635241537042825,1.294423217902989
-0.07633678537042826,1.294423217902989
-0.07632115537042826,1.294423217902989
-0.07630552537042826,1.294423217902989
-0.07628989537042825,1.294423217902989
-0.07627426537042825,1.29065697861832
-0.07625863537042826,1.294423217902987
-0.07624300537042826,1.298189457187656
-0.07622737537042826,1.29442321790299
-0.07621174537042825,1.294423217902989
-0.07619611537042825,1.294423217902989
-0.07618048537042826,1.294423217902989
-0.07616485537042826,1.298189457187656
-0.07614922537042826,1.29442321790299
-0.07613359537042826,1.294423217902989
-0.07611796537042825,1.294423217902989
-0.07610233537042825,1.294423217902989
-0.07608670537042826,1.294423217902989
-0.07607107537042826,1.294423217902989
-0.07605544537042826,1.294423217902989
-0.07603981537042825,1.294423217902989
-0.07602418537042825,1.294423217902989
-0.07600855537042826,1.294423217902989
-0.07599292537042826,1.294423217902989
-0.07597729537042826,1.294423217902989
-0.07596166537042826,1.294423217902989
-0.07594603537042825,1.294423217902989
-0.07593040537042826,1.294423217902989
-0.07591477537042826,1.294423217902989
-0.07589914537042826,1.294423217902989
-0.07588351537042826,1.294423217902989
-0.07586788537042825,1.294423217902989
-0.07585225537042825,1.294423217902989
-0.07583662537042826,1.294423217902989
-0.07582099537042826,1.290656978618322
-0.07580536537042826,1.29065697861832
-0.07578973537042825,1.294423217902989
-0.07577410537042825,1.294423217902989
-0.07575847537042826,1.294423217902989
-0.07574284537042826,1.294423217902989
-0.07572721537042826,1.290656978618322
-0.07571158537042826,1.294423217902989
-0.07569595537042825,1.294423217902989
-0.07568032537042826,1.294423217902989
-0.07566469537042826,1.294423217902989
-0.07564906537042826,1.290656978618322
-0.07563343537042826,1.294423217902989
-0.07561780537042825,1.294423217902989
-0.07560217537042825,1.29065697861832
-0.07558654537042826,1.294423217902987
-0.07557091537042826,1.290656978618322
-0.07555528537042826,1.29065697861832
-0.07553965537042825,1.29065697861832
-0.07552402537042825,1.29065697861832
-0.07550839537042826,1.294423217902987
-0.07549276537042826,1.294423217902989
-0.07547713537042826,1.290656978618322
-0.07546150537042826,1.294423217902989
-0.07544587537042825,1.294423217902989
-0.07543024537042825,1.29065697861832
-0.07541461537042826,1.29065697861832
-0.07539898537042826,1.29065697861832
-0.07538335537042826,1.29065697861832
-0.07536772537042825,1.294423217902989
-0.07535209537042825,1.294423217902989
-0.07533646537042826,1.294423217902989
-0.07532083537042826,1.294423217902989
-0.07530520537042826,1.290656978618322
-0.07528957537042825,1.29065697861832
-0.07527394537042825,1.29065697861832
-0.07525831537042826,1.29065697861832
-0.07524268537042826,1.29065697861832
-0.07522705537042826,1.29065697861832
-0.07521142537042826,1.286890739333651
-0.07519579537042825,1.286890739333651
-0.07518016537042825,1.29065697861832
-0.07516453537042826,1.29065697861832
-0.07514890537042826,1.29065697861832
-0.07513327537042826,1.29065697861832
-0.07511764537042825,1.29065697861832
-0.07510201537042825,1.29065697861832
-0.07508638537042826,1.29065697861832
-0.07507075537042826,1.294423217902987
-0.07505512537042826,1.286890739333655
-0.07503949537042826,1.29065697861832
-0.07502386537042825,1.29065697861832
-0.07500823537042826,1.29065697861832
-0.07499260537042826,1.29065697861832
-0.07497697537042826,1.29065697861832
-0.07496134537042826,1.29065697861832
-0.07494571537042825,1.29065697861832
-0.07493008537042825,1.29065697861832
-0.07491445537042826,1.29065697861832
-0.07489882537042826,1.29065697861832
-0.07488319537042826,1.29065697861832
-0.07486756537042825,1.286890739333651
-0.07485193537042825,1.29065697861832
-0.07483630537042826,1.29065697861832
-0.07482067537042826,1.286890739333653
-0.07480504537042826,1.290656978618318
-0.07478941537042826,1.286890739333651
-0.07477378537042825,1.286890739333651
-0.07475815537042826,1.290656978618318
-0.07474252537042826,1.29065697861832
-0.07472689537042826,1.29065697861832
-0.07471126537042826,1.29065697861832
-0.07469563537042825,1.29065697861832
-0.07468000537042825,1.286890739333651
-0.07466437537042826,1.286890739333651
-0.07464874537042826,1.286890739333651
-0.07463311537042826,1.286890739333651
-0.07461748537042825,1.29065697861832
-0.07460185537042825,1.286890739333651
-0.07458622537042826,1.286890739333651
-0.07457059537042826,1.286890739333651
-0.07455496537042826,1.286890739333651
-0.07453933537042826,1.286890739333651
-0.07452370537042825,1.286890739333651
-0.07450807537042825,1.286890739333651
