Versuch02/Csv_Files/2_2_t_2000.csv

#Digilent WaveForms Oscilloscope Acquisition
#Device Name: Discovery2
#Serial Number: SN:210321AA2D13
#Date Time: 2023-11-30 13:54:48.502
#Sample rate: 19550.3Hz
#Samples: 8192
#Trigger: Source: Channel 1 Type: Edge Condition: Rising Level: 0 V Hyst.: Auto HoldOff: 0 s
#Channel 1: Range: 2 V/div Offset: 0 V Attenuation: 1 X Sample Mode: Average
#Channel 2: Range: 2 V/div Offset: 0 V Attenuation: 1 X Sample Mode: Average
#Wavegen Channel 1: Running
#Mode: Simple
#Type: Triangle
#Frequency: 50 Hz
#Period: 20 ms
#Amplitude: 5 V
#Offset: 0 V
#Symmetry: 50 %
#Phase: 0 °
#Wavegen Channel 2: Running
#Mode: Simple
#Type: DC
#Offset: 2 V

Time (s),Channel 1 (V),Channel 2 (V)
0.02257826125319692,3.171354915663288,-7.04779679763818
0.02262941125319692,3.256473591749933,-7.055329276207518
0.02268056125319692,3.345293079840345,-7.059095515492187
0.02273171125319692,3.434112567930757,-7.066627994061524
0.02278286125319692,3.522932056021169,-7.070394233346192
0.02283401125319692,3.611751544111581,-7.074160472630862
0.02288516125319692,3.696870220198226,-7.081692951200199
0.02293631125319692,3.785689708288638,-7.089225429769536
0.02298746125319692,3.87450919637905,-7.092991669054205
0.02303861125319692,3.963328684469462,-7.100524147623542
0.02308976125319692,4.052148172559875,-7.104290386908211
0.02314091125319692,4.140967660650286,-7.111822865477548
0.02319206125319692,4.229787148740699,-7.111822865477548
0.02324321125319692,4.31860663683111,-7.119355344046886
0.02329436125319692,4.403725312917755,-7.123121583331554
0.02334551125319692,4.492544801008168,-7.130654061900891
0.02339666125319692,4.585065101102347,-7.13442030118556
0.02344781125319692,4.666482965185224,-7.141952779754898
0.02349896125319692,4.759003265279404,-7.141952779754898
0.02355011125319692,4.844121941366049,-7.145719019039567
0.02360126125319692,4.932941429456461,-7.153251497608904
0.02365241125319692,5.021760917546873,-7.157017736893573
0.02370356125319692,5.106879593633518,-7.160783976178242
0.02375471125319692,5.195699081723929,-7.168316454747579
0.02380586125319692,5.284518569814342,-7.172082694032247
0.02385701125319692,5.369637245900987,-7.175848933316916
0.02390816125319692,5.462157545995166,-7.179615172601585
0.02395931125319692,5.547276222081811,-7.183381411886254
0.02401046125319692,5.636095710172222,-7.187147651170922
0.02406161125319692,5.721214386258867,-7.190913890455591
0.02411276125319692,5.81003387434928,-7.194680129740259
0.02416391125319692,5.895152550435925,-7.198446369024929
0.02421506125319692,5.983972038526336,-7.202212608309597
0.02426621125319692,6.069090714612981,-7.209745086878934
0.02431736125319692,6.157910202703393,-7.213511326163603
0.02436851125319692,6.243028878790038,-7.217277565448271
0.02441966125319692,6.33184836688045,-7.221043804732941
0.02447081125319692,6.416967042967095,-7.221043804732941
0.02452196125319692,6.505786531057507,-7.224810044017609
0.02457311125319692,6.594606019147919,-7.228576283302278
0.02462426125319692,6.679724695234564,-7.232342522586947
0.02467541125319692,6.768544183324976,-7.236108761871615
0.02472656125319692,6.853662859411621,-7.243641240440953
0.02477771125319692,6.942482347502033,-7.247407479725622
0.02482886125319692,7.027601023588678,-7.25117371901029
0.02488001125319692,7.112719699675323,-7.254939958294959
0.02493116125319692,7.201539187765735,-7.258706197579627
0.02498231125319691,7.28665786385238,-7.262472436864297
0.02503346125319691,7.371776539939025,-7.266238676148965
0.02508461125319691,7.460596028029436,-7.270004915433634
0.02513576125319691,7.545714704116081,-7.266238676148965
0.02518691125319691,7.630833380202726,-7.273771154718302
0.02523806125319691,7.715952056289371,-7.273771154718302
0.02528921125319691,7.804771544379744,-7.27753739400297
0.02534036125319691,7.893591032470155,-7.281303633287638
0.02539151125319691,7.978709708556801,-7.288836111856973
0.02544266125319691,8.034221888613322,-7.28506987257231
0.02549381125319691,7.956504836534273,-7.277537394002975
0.02554496125319691,7.860283724436334,-7.270004915433637
0.02559611125319691,7.764062612338388,-7.258706197579633
0.02564726125319691,7.667841500240441,-7.247407479725627
0.02569841125319691,7.57532120014626,-7.239875001156288
0.02574956125319691,7.479100088048316,-7.232342522586951
0.02580071125319691,7.390280599957901,-7.221043804732946
0.02585186125319691,7.294059487859958,-7.209745086878939
0.02590301125319694,7.197838375761924,-7.198446369024923
0.02595416125319694,7.101617263663981,-7.187147651170918
0.02600531125319694,7.012797775573566,-7.179615172601579
0.02605646125319694,6.916576663475619,-7.168316454747574
0.02610761125319694,6.820355551377674,-7.157017736893567
0.02615876125319694,6.727835251283494,-7.145719019039562
0.02620991125319694,6.631614139185549,-7.134420301185555
0.02626106125319694,6.53909383909137,-7.123121583331549
0.02631221125319694,6.446573538997189,-7.111822865477543
0.02636336125319694,6.350352426899245,-7.100524147623537
0.02641451125319694,6.257832126805064,-7.089225429769533
0.02646566125319694,6.161611014707119,-7.081692951200194
0.02651681125319694,6.069090714612981,-7.070394233346192
0.02656796125319694,5.976570414518802,-7.059095515492187
0.02661911125319694,5.884050114424623,-7.04779679763818
0.02667026125319694,5.791529814330444,-7.036498079784174
0.02672141125319694,5.695308702232498,-7.025199361930168
0.02677256125319694,5.602788402138319,-7.017666883360831
0.02682371125319694,5.510268102044139,-7.006368165506824
0.02687486125319694,5.41774780194996,-6.99130320836815
0.02692601125319694,5.321526689852013,-6.980004490514144
0.02697716125319694,5.232707201761602,-6.968705772660138
0.02702831125319693,5.136486089663655,-6.953640815521463
0.02707946125319693,5.043965789569476,-6.942342097667456
0.02713061125319693,4.951445489475296,-6.934809619098119
0.02718176125319693,4.858925189381117,-6.923510901244113
0.02723291125319693,4.762704077283171,-6.908445944105439
0.02728406125319693,4.673884589192759,-6.897147226251432
0.02733521125319693,4.577663477094813,-6.885848508397427
0.02738636125319693,4.485143177000634,-6.870783551258752
0.02743751125319693,4.392622876906454,-6.859484833404745
0.02748866125319693,4.300102576812275,-6.84818611555074
0.02753981125319693,4.207582276718096,-6.833121158412064
0.02759096125319693,4.115061976623917,-6.821822440558059
0.02764211125319693,4.026242488533504,-6.810523722704052
0.02769326125319693,3.930021376435557,-6.799225004850046
0.02774441125319693,3.837501076341379,-6.78792628699604
0.02779556125319693,3.744980776247199,-6.776627569142034
0.02784671125319693,3.656161288156787,-6.765328851288028
0.02789786125319693,3.563640988062608,-6.754030133434022
0.02794901125319693,3.471120687968429,-6.738965176295347
0.02800016125319693,3.37860038787425,-6.723900219156672
0.02805131125319693,3.28608008778007,-6.712601501302666
0.02810246125319693,3.193559787685891,-6.697536544163992
0.02815361125319693,3.104740299595479,-6.682471587025317
0.02820476125319693,3.008519187497533,-6.67117286917131
0.02825591125319693,2.919699699407121,-6.656107912032636
0.02830706125319693,2.827179399312941,-6.641042954893961
0.02835821125319693,2.734659099218762,-6.625977997755286
0.02840936125319693,2.642138799124583,-6.61467927990128
0.02846051125319693,2.553319311034171,-6.595848083477937
0.02851166125319693,2.460799010939992,-6.58454936562393
0.02856281125319693,2.368278710845813,-6.569484408485255
0.02861396125319693,2.2794592227554,-6.55818569063125
0.02866511125319693,2.186938922661221,-6.543120733492574
0.02871626125319693,2.094418622567042,-6.5280557763539
0.02876741125319693,2.00559913447663,-6.509224579930557
0.02881856125319693,1.913078834382451,-6.494159622791882
0.02886971125319693,1.820558534288272,-6.475328426368538
0.02892086125319693,1.73173904619786,-6.456497229945194
0.02897201125319693,1.639218746103681,-6.441432272806519
0.02902316125319693,1.550399258013269,-6.426367315667845
0.02907431125319693,1.461579769922857,-6.403769879959833
0.02912546125319693,1.372760281832444,-6.38493868353649
0.02917661125319693,1.280239981738265,-6.362341247828477
0.02922776125319693,1.187719681644086,-6.343510051405134
0.02927891125319693,1.098900193553674,-6.320912615697122
0.02933006125319693,1.013781517467029,-6.290782701419772
0.02938121125319693,0.924962029376617,-6.256886547857754
0.02943236125319693,0.8398433532899721,-6.196626719303055
0.02948351125319693,0.7621263012108616,-6.061042105054981
0.02953466125319693,0.6992124971468198,-5.808704072982178
0.02958581125319693,0.6511019410978466,-5.447145101653983
0.02963696125319693,0.6140938210601748,-4.987663908924402
0.02968811125319692,0.5881881370338047,-4.426494255508765
0.02973926125319692,0.5696840770149688,-3.801298534253761
0.02979041125319692,0.5585816410036674,-3.14220665943674
0.02984156125319692,0.5437783929885986,-2.460517348911705
0.02989271125319692,0.5326759569772971,-1.77882803838667
0.02994386125319692,0.5252743329697628,-1.074541292153623
0.02999501125319692,0.5141718969584613,-0.3815532637745827
0.03004616125319692,0.5067702729509269,0.3302659610278016
0.03009731125319692,0.4956678369396255,1.03078646797618
0.03014846125319692,0.4882662129320911,1.738839453493895
0.03019961125319692,0.4771637769207896,2.424295003303598
0.03025076125319692,0.4660613409094881,3.11351679239797
0.03030191125319692,0.4512580928944194,3.768842427930324
0.03035306125319692,0.4327540328755836,4.397804388469997
0.03040421125319692,0.4031475368454462,4.91001293118494
0.03045536125319692,0.3513361687927059,5.154818484688406
0.03050651125319692,0.2551150566947595,5.218844552527774
0.03055766125319692,0.1625947566005803,5.226377031097111
0.03060881125319692,0.07377526851016826,5.233909509666448
0.03065996125319692,-0.01504421958024378,5.241441988235786
0.03071111125319692,-0.1038637076706558,5.248974466805123
0.03076226125319692,-0.1926831957610678,5.26027318465913
0.03081341125319692,-0.2852034958552471,5.267805663228467
0.03086456125319692,-0.3740229839456591,5.275338141797804
0.03091571125319692,-0.4628424720360712,5.28663685965181
0.03096686125319692,-0.5516619601264832,5.294169338221147
0.03101801125319692,-0.6404814482168952,5.305468056075154
0.03106916125319692,-0.7293009363073073,5.313000534644491
0.03112031125319692,-0.8218212364014865,5.324299252498498
0.03117146125319692,-0.9106407244918985,5.335597970352503
0.03122261125319692,-0.9994602125823105,5.343130448921841
0.03127376125319692,-1.088279700672723,5.350662927491178
0.03132491125319692,-1.180800000766902,5.361961645345184
0.03137606125319692,-1.269619488857314,5.369494123914522
0.03142721125319692,-1.358438976947726,5.380792841768527
0.03147836125319692,-1.447258465038138,5.388325320337865
0.03152951125319692,-1.53607795312855,5.40339027747654
0.03158066125319692,-1.624897441218962,5.410922756045878
0.03163181125319692,-1.713716929309374,5.422221473899883
0.03168296125319692,-1.802536417399786,5.437286431038558
0.03173411125319692,-1.891355905490198,5.444818909607895
0.03178526125319692,-1.98017539358061,5.45988386674657
0.03183641125319692,-2.068994881671022,5.471182584600577
0.03188756125319692,-2.157814369761434,5.482481302454582
0.03193871125319692,-2.246633857851847,5.493780020308589
0.03198986125319692,-2.335453345942259,5.505078738162595
0.03204101125319692,-2.424272834032671,5.516377456016601
0.03209216125319692,-2.509391510119315,5.531442413155276
0.03214331125319692,-2.59451018620596,5.542741131009282
0.03219446125319692,-2.687030486300139,5.557806088147957
0.03224561125319692,-2.772149162386784,5.569104806001962
0.03229676125319692,-2.864669462480963,5.584169763140637
0.03234791125319691,-2.949788138567608,5.595468480994644
0.03239906125319691,-3.03860762665802,5.610533438133318
0.03245021125319691,-3.127427114748432,5.621832155987325
0.03250136125319691,-3.216246602838845,5.636897113126
0.03255251125319691,-3.301365278925489,5.651962070264674
0.03260366125319691,-3.390184767015902,5.66326078811868
0.03265481125319691,-3.475303443102546,5.682091984542024
0.03270596125319691,-3.564122931192959,5.697156941680698
0.03275711125319691,-3.652942419283371,5.708455659534705
0.03280826125319691,-3.738061095369976,5.727286855958039
0.03285941125319691,-3.826880583460387,5.742351813096715
0.03291056125319691,-3.911999259547033,5.75741677023539
0.03296171125319691,-4.000818747637444,5.772481727374065
0.03301286125319691,-4.08593742372409,5.791312923797407
0.03306401125319691,-4.174756911814501,5.810144120220751
0.03311516125319691,-4.259875587901147,5.825209077359427
0.03316631125319691,-4.348695075991557,5.844040273782769
0.03321746125319691,-4.430112940074438,5.859105230921445
0.03326861125319691,-4.518932428164847,5.877936427344787
0.03331976125319691,-4.604051104251493,5.896767623768131
0.03337091125319694,-4.692870592341984,5.911832580906825
0.03342206125319694,-4.777989268428629,5.934430016614836
0.03347321125319694,-4.866808756519038,5.953261213038179
0.03352436125319694,-4.948226620601919,5.972092409461524
0.03357551125319694,-5.03704610869233,5.994689845169535
0.03362666125319694,-5.122164784778975,6.01352104159288
0.03367781125319694,-5.20728346086562,6.036118477300893
0.03372896125319694,-5.292402136952265,6.062482152293573
0.03378011125319694,-5.37752081303891,6.085079588001584
0.03383126125319694,-5.466340301129321,6.103910784424929
0.03388241125319694,-5.551458977215966,6.130274459417611
0.03393356125319694,-5.636577653302611,6.156638134410293
0.03398471125319694,-5.721696329389217,6.18676804868763
0.03403586125319694,-5.806815005475862,6.216897962964979
0.03408701125319694,-5.88823286955874,6.24326163795766
0.03413816125319694,-5.973351545645385,6.277157791519678
0.03418931125319694,-6.054769409728262,6.311053945081697
0.03424046125319694,-6.139888085814907,6.341183859359046
0.03429161125319694,-6.225006761901552,6.378846252205733
0.03434276125319694,-6.306424625984429,6.41650864505242
0.03439391125319693,-6.387842490067308,6.454171037899107
0.03444506125319693,-6.476661978157719,6.495599670030463
0.03449621125319693,-6.55437903023683,6.540794541446487
0.03454736125319693,-6.639497706323475,6.585989412862512
0.03459851125319693,-6.717214758402585,6.638716762847873
0.03464966125319693,-6.798632622485463,6.691444112833235
0.03470081125319693,-6.880050486568341,6.747937702103266
0.03475196125319693,-6.961468350651218,6.811963769942634
0.03480311125319693,-7.039185402730329,6.875989837782002
0.03485426125319693,-7.11690245480944,6.947548384190707
0.03490541125319693,-7.198320318892317,7.022873169884081
0.03495656125319693,-7.272336558967661,7.105730434146792
0.03500771125319693,-7.350053611046771,7.199886416263509
0.03505886125319693,-7.427770663125882,7.297808637664896
0.03511001125319693,-7.501786903201225,7.407029576920288
0.03516116125319693,-7.572102331272801,7.527549234029687
0.03521231125319693,-7.642417759344378,7.663133848277759
0.03526346125319693,-7.709032375412186,7.810017180379839
0.03531461125319693,-7.779347803483763,7.97949794818993
0.03536576125319693,-7.842261607547805,8.164043673138696
0.03541691125319693,-7.908876223615613,8.371186833795475
0.03546806125319693,-7.894072975600545,8.3561218766568
0.03551921125319693,-7.823757547528968,8.130147519576678
0.03557036125319693,-7.749741307453625,7.941835555343244
0.03562151125319693,-7.675725067378282,7.768588548248483
0.03567266125319693,-7.594307203295404,7.606640259007729
0.03572381125319693,-7.512889339212527,7.467289405474987
0.03577496125319693,-7.435172287133416,7.34300350908092
0.03582611125319693,-7.350053611046771,7.22625009125619
0.03587726125319693,-7.268635746963893,7.117029152000798
0.03592841125319693,-7.187217882881016,7.019106930599412
0.03597956125319693,-7.102099206794371,6.932483427052031
0.03603071125319693,-7.016980530707726,6.845859923504652
0.03608186125319693,-6.928161042617314,6.766768898526609
0.03613301125319693,-6.843042366530669,6.695210352117904
0.03618416125319693,-6.754222878440257,6.623651805709199
0.03623531125319693,-6.669104202353612,6.5633919771545
0.03628646125319693,-6.5802847142632,6.5031321485998
0.03633761125319693,-6.495166038176555,6.446638559329769
0.03638876125319693,-6.402645738082376,6.390144970059739
0.03643991125319693,-6.310125437988197,6.337417620074377
0.03649106125319693,-6.225006761901552,6.292222748658353
0.03654221125319693,-6.13618727381114,6.247027877242329
0.03659336125319693,-6.04366697371696,6.201833005826304
0.03664451125319693,-5.954847485626549,6.160404373694949
0.03669566125319693,-5.86232718553237,6.115209502278924
0.03674681125319693,-5.773507697441957,6.077547109432238
0.03679796125319693,-5.684688209351545,6.03988471658555
0.03684911125319693,-5.592167909257366,6.005988563023532
0.03690026125319693,-5.503348421166955,5.968326170176844
0.03695141125319693,-5.414528933076542,5.938196255899495
0.03700256125319693,-5.322008632982363,5.904300102337477
0.03705371125319692,-5.229488332888184,5.870403948775459
0.03710486125319692,-5.140668844797772,5.844040273782777
0.03715601125319692,-5.048148544703593,5.813910359505428
0.03720716125319692,-4.955628244609414,5.783780445228079
0.03725831125319692,-4.866808756519001,5.753650530950729
0.03730946125319692,-4.777989268428589,5.727286855958048
0.03736061125319692,-4.68546896833441,5.697156941680698
0.03741176125319692,-4.592948668240231,5.670793266688017
0.03746291125319692,-4.500428368146052,5.644429591695337
0.03751406125319692,-4.411608880055639,5.621832155987325
0.03756521125319692,-4.31908857996146,5.595468480994644
0.03761636125319692,-4.230269091871048,5.569104806001962
0.03766751125319692,-4.137748791776869,5.54650737029395
0.03771866125319692,-4.048929303686457,5.523909934585938
0.03776981125319692,-3.952708191588511,5.497546259593258
0.03782096125319692,-3.863888703498099,5.478715063169914
0.03787211125319692,-3.775069215407687,5.456117627461902
0.03792326125319692,-3.686249727317275,5.429753952469221
0.03797441125319692,-3.593729427223096,5.410922756045878
0.03802556125319692,-3.501209127128917,5.388325320337865
0.03807671125319692,-3.412389639038504,5.365727884629853
0.03812786125319692,-3.319869338944325,5.34689668820651
0.03817901125319692,-3.231049850853913,5.328065491783166
0.03823016125319692,-3.134828738755967,5.305468056075154
0.03828131125319692,-3.046009250665555,5.282870620367142
0.03833246125319692,-2.957189762575143,5.264039423943798
0.03838361125319692,-2.864669462480963,5.241441988235786
0.03843476125319692,-2.772149162386784,5.222610791812443
0.03848591125319692,-2.683329674296372,5.20001335610443
0.03853706125319692,-2.590809374202193,5.181182159681087
0.03858821125319692,-2.501989886111781,5.162350963257743
0.03863936125319692,-2.409469586017602,5.1435197668344
0.03869051125319692,-2.32065009792719,5.124688570411056
0.03874166125319692,-2.231830609836778,5.105857373987712
0.03879281125319692,-2.139310309742599,5.087026177564369
0.03884396125319692,-2.04679000964842,5.068194981141025
0.03889511125319692,-1.957970521558007,5.049363784717682
0.03894626125319692,-1.869151033467595,5.030532588294339
0.03899741125319692,-1.780331545377183,5.015467631155664
0.03904856125319692,-1.687811245283004,5.000402674016989
0.03909971125319692,-1.595290945188825,4.981571477593645
0.03915086125319692,-1.506471457098413,4.966506520454971
0.03920201125319692,-1.410250345000466,4.947675324031628
0.03925316125319692,-1.325131668913822,4.932610366892953
0.03930431125319692,-1.232611368819642,4.913779170469609
0.03935546125319692,-1.14379188072923,4.898714213330934
0.03940661125319692,-1.051271580635051,4.88364925619226
0.03945776125319692,-0.9624520925446389,4.864818059768916
0.03950891125319692,-0.8699317924504597,4.849753102630241
0.03956006125319692,-0.7848131163638148,4.834688145491566
0.03961121125319692,-0.6885920042658684,4.819623188352891
0.03966236125319691,-0.6034733281792235,4.804558231214217
0.03971351125319691,-0.5109530280850444,4.785727034790873
0.03976466125319691,-0.4184327279908651,4.770662077652198
0.03981581125319691,-0.3296132399004531,4.759363359798193
0.03986696125319691,-0.2407937518100411,4.744298402659518
