Versuch02/Csv_Files/2_2_t_1000.csv

#Digilent WaveForms Oscilloscope Acquisition
#Device Name: Discovery2
#Serial Number: SN:210321AA2D13
#Date Time: 2023-11-30 13:55:20.425
#Sample rate: 19550.3Hz
#Samples: 8192
#Trigger: Source: Channel 1 Type: Edge Condition: Rising Level: 0 V Hyst.: Auto HoldOff: 0 s
#Channel 1: Range: 2 V/div Offset: 0 V Attenuation: 1 X Sample Mode: Average
#Channel 2: Range: 2 V/div Offset: 0 V Attenuation: 1 X Sample Mode: Average
#Wavegen Channel 1: Running
#Mode: Simple
#Type: Triangle
#Frequency: 50 Hz
#Period: 20 ms
#Amplitude: 5 V
#Offset: 0 V
#Symmetry: 50 %
#Phase: 0 °
#Wavegen Channel 2: Running
#Mode: Simple
#Type: DC
#Offset: 1 V

Time (s),Channel 1 (V),Channel 2 (V)
0.02257399875319693,4.237188772748233,-1.948308806196762
0.02262514875319693,4.326008260838645,-1.948308806196762
0.02267629875319693,4.414827748929057,-1.948308806196762
0.02272744875319693,4.503647237019469,-1.95207504548143
0.02277859875319693,4.596167537113648,-1.95207504548143
0.02282974875319693,4.684987025204061,-1.95207504548143
0.02288089875319693,4.773806513294472,-1.95207504548143
0.02293204875319693,4.858925189381117,-1.95207504548143
0.02298319875319693,4.94774467747153,-1.95207504548143
0.02303434875319693,5.036564165561941,-1.95207504548143
0.02308549875319693,5.125383653652354,-1.955841284766099
0.02313664875319693,5.214203141742765,-1.955841284766099
0.02318779875319693,5.303022629833177,-1.959607524050768
0.02323894875319693,5.39184211792359,-1.959607524050768
0.02329009875319693,5.480661606014001,-1.959607524050768
0.02334124875319693,5.569481094104414,-1.959607524050768
0.02339239875319693,5.654599770191059,-1.959607524050768
0.02344354875319693,5.74341925828147,-1.959607524050768
0.02349469875319693,5.828537934368115,-1.959607524050768
0.02354584875319693,5.921058234462294,-1.963373763335436
0.02359699875319693,6.009877722552707,-1.967140002620105
0.02364814875319693,6.094996398639352,-1.967140002620105
0.02369929875319693,6.183815886729763,-1.967140002620105
0.02375044875319693,6.268934562816408,-1.967140002620105
0.02380159875319693,6.357754050906821,-1.967140002620105
0.02385274875319693,6.446573538997233,-1.963373763335436
0.02390389875319693,6.535393027087644,-1.967140002620105
0.02395504875319693,6.620511703174289,-1.967140002620105
0.02400619875319693,6.709331191264702,-1.970906241904774
0.02405734875319693,6.794449867351346,-1.970906241904774
0.02410849875319693,6.883269355441758,-1.970906241904774
0.02415964875319693,6.972088843532171,-1.974672481189442
0.02421079875319693,7.060908331622582,-1.974672481189442
0.02426194875319693,7.146027007709227,-1.974672481189442
0.02431309875319693,7.231145683795872,-1.974672481189442
0.02436424875319693,7.319965171886285,-1.974672481189442
0.02441539875319693,7.408784659976696,-1.978438720474111
0.02446654875319693,7.493903336063341,-1.978438720474111
0.02451769875319693,7.582722824153754,-1.978438720474111
0.02456884875319693,7.671542312244165,-1.978438720474111
0.02461999875319693,7.75666098833081,-1.978438720474111
0.02467114875319693,7.845480476421222,-1.98220495975878
0.02472229875319693,7.930599152507867,-1.98220495975878
0.02477344875319692,8.019418640598278,-1.978438720474111
0.02482459875319692,8.104537316684924,-1.978438720474111
0.02487574875319692,8.193356804775336,-1.978438720474111
0.02492689875319692,8.282176292865747,-1.98220495975878
0.02497804875319692,8.367294968952393,-1.985971199043449
0.02502919875319692,8.452413645039037,-1.98220495975878
0.02508034875319692,8.537532321125683,-1.985971199043449
0.02513149875319692,8.626351809216095,-1.98220495975878
0.02518264875319692,8.685564801276369,-1.978438720474111
0.02523379875319692,8.607847749197258,-1.974672481189442
0.02528494875319692,8.511626637099356,-1.974672481189442
0.02533609875319692,8.415405525001411,-1.974672481189442
0.02538724875319692,8.319184412903464,-1.967140002620108
0.02543839875319692,8.222963300805517,-1.963373763335438
0.02548954875319692,8.130443000711336,-1.95960752405077
0.02554069875319692,8.034221888613391,-1.963373763335435
0.02559184875319692,7.938000776515445,-1.95960752405077
0.02564299875319692,7.841779664417499,-1.955841284766101
0.02569414875319692,7.745558552319552,-1.948308806196765
0.02574529875319692,7.653038252225371,-1.948308806196762
0.02579644875319692,7.556817140127427,-1.948308806196762
0.02584759875319692,7.464296840033246,-1.944542566912095
0.02589874875319695,7.368075727935214,-1.940776327627424
0.02594989875319695,7.271854615837269,-1.940776327627422
0.02600104875319695,7.179334315743088,-1.937010088342754
0.02605219875319695,7.083113203645143,-1.933243849058085
0.02610334875319695,6.990592903550962,-1.929477609773418
0.02615449875319695,6.894371791453016,-1.929477609773416
0.02620564875319695,6.798150679355071,-1.925711370488749
0.02625679875319695,6.70563037926089,-1.925711370488746
0.02630794875319695,6.609409267162946,-1.91817889191941
0.02635909875319695,6.516888967068765,-1.914412652634743
0.02641024875319695,6.420667854970818,-1.914412652634742
0.02646139875319695,6.324446742872874,-1.910646413350073
0.02651254875319695,6.231926442778737,-1.906880174065406
0.02656369875319695,6.139406142684558,-1.903113934780737
0.02661484875319695,6.043185030586611,-1.903113934780737
0.02666599875319695,5.946963918488665,-1.899347695496068
0.02671714875319695,5.854443618394486,-1.8955814562114
0.02676829875319695,5.761923318300306,-1.8955814562114
0.02681944875319694,5.66570220620236,-1.891815216926731
0.02687059875319694,5.57318190610818,-1.888048977642062
0.02692174875319694,5.480661606014001,-1.884282738357394
0.02697289875319694,5.384440493916055,-1.880516499072725
0.02702404875319694,5.291920193821876,-1.876750259788056
0.02707519875319694,5.195699081723929,-1.876750259788056
0.02712634875319694,5.10317878162975,-1.872984020503388
0.02717749875319694,5.010658481535571,-1.869217781218719
0.02722864875319694,4.914437369437625,-1.869217781218719
0.02727979875319694,4.821917069343446,-1.86545154193405
0.02733094875319694,4.725695957245499,-1.861685302649382
0.02738209875319694,4.63317565715132,-1.857919063364713
0.02743324875319694,4.54065535705714,-1.854152824080044
0.02748439875319694,4.444434244959194,-1.846620345510707
0.02753554875319694,4.355614756868782,-1.846620345510707
0.02758669875319694,4.259393644770836,-1.846620345510707
0.02763784875319694,4.166873344676657,-1.842854106226038
0.02768899875319694,4.074353044582478,-1.839087866941369
0.02774014875319694,3.981832744488298,-1.839087866941369
0.02779129875319694,3.889312444394119,-1.831555388372032
0.02784244875319694,3.793091332296172,-1.831555388372032
0.02789359875319694,3.700571032201993,-1.827789149087363
0.02794474875319694,3.608050732107814,-1.824022909802695
0.02799589875319694,3.515530432013635,-1.820256670518026
0.02804704875319694,3.423010131919455,-1.816490431233357
0.02809819875319694,3.330489831825276,-1.80895795266402
0.02814934875319694,3.237969531731097,-1.80895795266402
0.02820049875319694,3.145449231636918,-1.805191713379351
0.02825164875319694,3.049228119538971,-1.805191713379351
0.02830279875319694,2.956707819444792,-1.801425474094682
0.02835394875319694,2.864187519350613,-1.797659234810014
0.02840509875319694,2.771667219256434,-1.793892995525345
0.02845624875319694,2.682847731166022,-1.790126756240676
0.02850739875319694,2.586626619068075,-1.790126756240676
0.02855854875319694,2.494106318973896,-1.782594277671339
0.02860969875319694,2.401586018879717,-1.782594277671339
0.02866084875319694,2.309065718785538,-1.77882803838667
0.02871199875319694,2.216545418691358,-1.775061799102001
0.02876314875319694,2.124025118597179,-1.775061799102001
0.02881429875319694,2.031504818503,-1.771295559817333
0.02886544875319694,1.942685330412588,-1.767529320532664
0.02891659875319694,1.846464218314642,-1.763763081247995
0.02896774875319694,1.75764473022423,-1.759996841963327
0.02901889875319694,1.665124430130051,-1.756230602678658
0.02907004875319694,1.572604130035872,-1.752464363393989
0.02912119875319694,1.480083829941692,-1.74869812410932
0.02917234875319694,1.387563529847513,-1.744931884824652
0.02922349875319694,1.298744041757101,-1.741165645539983
0.02927464875319694,1.206223741662922,-1.737399406255314
0.02932579875319694,1.113703441568743,-1.729866927685977
0.02937694875319694,1.021183141474563,-1.729866927685977
0.02942809875319694,0.9323636533841513,-1.72233444911664
0.02947924875319693,0.8361425412862049,-1.718568209831971
0.02953039875319693,0.7510238651995601,-1.714801970547302
0.02958154875319693,0.6548027531016137,-1.707269491977965
0.02963269875319693,0.5659832650112017,-1.699737013408627
0.02968384875319693,0.4734629649170224,-1.695970774123959
0.02973499875319693,0.3846434768266104,-1.69220453483929
0.02978614875319693,0.2921231767324312,-1.684672056269953
0.02983729875319693,0.199602876638252,-1.673373338415947
0.02988844875319693,0.1144842005516071,-1.609347270576579
0.02993959875319693,0.05897202049509959,-1.300515649233745
0.02999074875319693,0.0219639004574279,-0.7468784743874465
0.03004189875319693,-0.0002409715651751076,-0.1292152317017798
0.03009304875319693,-0.03354827959907962,0.4658505752758748
0.03014419875319693,-0.07795802364428564,0.8876693751587691
0.03019534875319693,-0.1445726397120947,1.015721510837505
0.03024649875319693,-0.2444945638138082,1.038318946545517
0.03029764875319693,-0.3333140519042203,1.045851425114855
0.03034879875319693,-0.4258343519983995,1.053383903684192
0.03039994875319693,-0.5146538400888115,1.060916382253529
0.03045109875319693,-0.6034733281792235,1.068448860822867
0.03050224875319693,-0.6959936282734027,1.075981339392204
0.03055339875319693,-0.7885139283675819,1.08728005724621
0.03060454875319693,-0.8736326044542269,1.094812535815548
0.03065569875319693,-0.9661529045484061,1.106111253669554
0.03070684875319693,-1.054972392638818,1.113643732238891
0.03075799875319693,-1.14379188072923,1.124942450092897
0.03080914875319693,-1.236312180823409,1.140007407231572
0.03086029875319693,-1.325131668913822,1.147539885800909
0.03091144875319693,-1.410250345000466,1.158838603654915
0.03096259875319693,-1.502770645094646,1.166371082224253
0.03101374875319693,-1.591590133185058,1.177669800078259
0.03106489875319693,-1.684110433279237,1.192734757216934
0.03111604875319693,-1.772929921369649,1.200267235786271
0.03116719875319693,-1.861749409460061,1.211565953640277
0.03121834875319693,-1.950568897550473,1.222864671494283
0.03126949875319693,-2.039388385640885,1.23416338934829
0.03132064875319693,-2.128207873731297,1.245462107202296
0.03137179875319693,-2.220728173825476,1.26052706434097
0.03142294875319693,-2.305846849912121,1.268059542910308
0.03147409875319693,-2.394666338002533,1.283124500048983
0.03152524875319693,-2.483485826092945,1.294423217902989
0.03157639875319693,-2.572305314183357,1.309488175041663
0.03162754875319693,-2.661124802273769,1.324553132180338
0.03167869875319693,-2.749944290364181,1.335851850034344
0.03172984875319693,-2.838763778454593,1.34715056788835
0.03178099875319693,-2.923882454541238,1.362215525027025
0.03183214875319693,-3.01270194263165,1.3772804821657
0.03188329875319693,-3.101521430722062,1.392345439304375
0.03193444875319693,-3.190340918812475,1.403644157158381
0.03198559875319693,-3.279160406902887,1.418709114297056
0.03203674875319693,-3.367979894993299,1.433774071435731
0.03208789875319693,-3.453098571079943,1.448839028574405
0.03213904875319692,-3.545618871174122,1.46390398571308
0.03219019875319692,-3.630737547260767,1.478968942851755
0.03224134875319692,-3.719557035351179,1.49403389999043
0.03229249875319692,-3.804675711437824,1.512865096413773
0.03234364875319692,-3.893495199528236,1.527930053552448
0.03239479875319692,-3.978613875614881,1.542995010691123
0.03244594875319692,-4.067433363705293,1.558059967829797
0.03249709875319692,-4.156252851795704,1.573124924968472
0.03254824875319692,-4.241371527882349,1.588189882107147
0.03259939875319692,-4.330191015972762,1.607021078530491
0.03265054875319692,-4.415309692059407,1.625852274953834
0.03270169875319692,-4.504129180149818,1.640917232092509
0.03275284875319692,-4.592948668240231,1.659748428515852
0.03280399875319692,-4.678067344326837,1.67481338565452
0.03285514875319692,-4.763186020413482,1.693644582077862
0.03290629875319692,-4.852005508503892,1.712475778501206
0.03295744875319692,-4.937124184590538,1.731306974924549
0.03300859875319692,-5.02594367268095,1.750138171347893
0.03305974875319692,-5.111062348767595,1.768969367771236
0.03311089875319692,-5.19618102485424,1.78780056419458
0.03316204875319692,-5.285000512944651,1.806631760617923
0.03321319875319692,-5.370119189031297,1.829229196325934
0.03326434875319692,-5.458938677121708,1.848060392749279
0.03331549875319692,-5.544057353208354,1.874424067741956
0.03336664875319695,-5.629176029295077,1.897021503449991
0.03341779875319695,-5.714294705381722,1.919618939158003
0.03346894875319695,-5.799413381468367,1.942216374866017
0.03352009875319695,-5.884532057555012,1.968580049858698
0.03357124875319695,-5.973351545645422,1.994943724851377
0.03362239875319695,-6.054769409728302,2.017541160559391
0.03367354875319695,-6.143588897818711,2.043904835552072
0.03372469875319695,-6.225006761901591,2.070268510544756
0.03377584875319695,-6.310125437988236,2.104164664106771
0.03382699875319695,-6.395244114074882,2.130528339099454
0.03387814875319695,-6.484063602165293,2.160658253376803
0.03392929875319695,-6.569182278251936,2.190788167654155
0.03398044875319695,-6.650600142334777,2.224684321216158
0.03403159875319695,-6.735718818421422,2.262346714062844
0.03408274875319695,-6.817136682504299,2.300009106909531
0.03413389875319695,-6.902255358590944,2.337671499756218
0.03418504875319694,-6.983673222673821,2.379100131887574
0.03423619875319694,-7.068791898760466,2.424295003303598
0.03428734875319694,-7.153910574847111,2.469489874719623
0.03433849875319694,-7.235328438929989,2.518450985420316
0.03438964875319694,-7.316746303012867,2.571178335405678
0.03444079875319694,-7.398164167095745,2.627671924675708
0.03449194875319694,-7.479582031178622,2.687931753230408
0.03454309875319694,-7.560999895261499,2.751957821069776
0.03459424875319694,-7.63871694734061,2.819750128193812
0.03464539875319694,-7.716433999419721,2.898841153171855
0.03469654875319694,-7.794151051498831,2.981698417434566
0.03474769875319694,-7.871868103577942,3.072088160266615
0.03479884875319694,-7.949585155657052,3.170010381668001
0.03484999875319694,-8.027302207736163,3.275465081638725
0.03490114875319694,-8.101318447811506,3.395984738748123
0.03495229875319694,-8.171633875883083,3.531569352996196
0.03500344875319694,-8.241949303954659,3.678452685098275
0.03505459875319694,-8.312264732026234,3.847933452908367
0.03510574875319694,-8.382580160097811,4.036245417141802
0.03515689875319694,-8.445493964161853,4.254687295652587
0.03520804875319694,-8.438092340154318,4.250921056367918
0.03525919875319694,-8.360375288075208,4.024946699287796
0.03531034875319694,-8.282658235996097,3.829102256485023
0.03536149875319694,-8.204941183916986,3.655855249390263
0.03541264875319694,-8.12352331983411,3.505205678003515
0.03546379875319694,-8.042105455751232,3.365854824470773
0.03551494875319694,-7.960687591668354,3.241568928076706
0.03556609875319694,-7.879269727585476,3.136114228105983
0.03561724875319694,-7.794151051498831,3.030659528135259
0.03566839875319694,-7.70533156340842,2.940269785303211
0.03571954875319694,-7.620212887321775,2.849880042471161
0.03577069875319694,-7.531393399231362,2.770789017493119
0.03582184875319694,-7.446274723144717,2.702996710369082
0.03587299875319694,-7.361156047058072,2.638970642529714
0.03592414875319694,-7.268635746963893,2.574944574690346
0.03597529875319694,-7.179816258873482,2.514684746135647
0.03602644875319694,-7.087295958779302,2.458191156865617
0.03607759875319694,-6.99847647068889,2.409230046164923
0.03612874875319694,-6.909656982598478,2.356502696179562
0.03617989875319694,-6.820837494508066,2.307541585478869
0.03623104875319694,-6.728317194413887,2.269879192632182
0.03628219875319694,-6.635796894319708,2.224684321216158
0.03633334875319694,-6.543276594225529,2.183255689084802
0.03638449875319694,-6.454457106135116,2.149359535522783
0.03643564875319694,-6.365637618044705,2.115463381960765
0.03648679875319694,-6.273117317950526,2.077800989114079
0.03653794875319694,-6.180597017856346,2.04390483555206
0.03658909875319694,-6.091777529765934,2.01377492127471
0.03664024875319694,-5.999257229671755,1.983645006997361
0.03669139875319694,-5.906736929577575,1.949748853435342
0.03674254875319694,-5.817917441487164,1.923385178442661
0.03679369875319694,-5.725397141392985,1.893255264165312
0.03684484875319693,-5.632876841298805,1.866891589172631
0.03689599875319693,-5.544057353208393,1.84052791417995
0.03694714875319693,-5.447836241110447,1.814164239187269
0.03699829875319693,-5.355315941016268,1.791566803479257
0.03704944875319693,-5.266496452925855,1.768969367771245
0.03710059875319693,-5.173976152831676,1.742605692778564
0.03715174875319693,-5.085156664741264,1.720008257070552
0.03720289875319693,-4.992636364647085,1.697410821362539
0.03725404875319693,-4.900116064552906,1.674813385654527
0.03730519875319693,-4.807595764458727,1.655982189231184
0.03735634875319693,-4.715075464364547,1.633384753523172
0.03740749875319693,-4.626255976274135,1.610787317815159
0.03745864875319693,-4.533735676179956,1.588189882107147
0.03750979875319693,-4.441215376085776,1.569358685683804
0.03756094875319693,-4.348695075991597,1.55052748926046
0.03761209875319693,-4.259875587901186,1.531696292837117
0.03766324875319693,-4.167355287807006,1.512865096413773
0.03771439875319693,-4.074834987712827,1.49403389999043
0.03776554875319693,-3.982314687618648,1.475202703567086
0.03781669875319693,-3.889794387524469,1.456371507143743
0.03786784875319693,-3.800974899434057,1.437540310720399
0.03791899875319693,-3.708454599339878,1.418709114297056
0.03797014875319693,-3.619635111249466,1.399877917873712
0.03802129875319693,-3.523413999151519,1.384812960735037
0.03807244875319693,-3.434594511061107,1.365981764311694
0.03812359875319693,-3.342074210966928,1.34715056788835
0.03817474875319693,-3.253254722876516,1.332085610749676
0.03822589875319693,-3.160734422782337,1.317020653611001
0.03827704875319693,-3.068214122688158,1.301955696472326
0.03832819875319693,-2.979394634597746,1.283124500048983
0.03837934875319693,-2.886874334503566,1.268059542910308
0.03843049875319693,-2.794354034409387,1.252994585771633
0.03848164875319693,-2.701833734315208,1.23416338934829
0.03853279875319693,-2.613014246224796,1.222864671494283
0.03858394875319693,-2.520493946130617,1.207799714355609
0.03863509875319693,-2.427973646036438,1.196500996501602
0.03868624875319693,-2.339154157946026,1.181436039362928
0.03873739875319693,-2.246633857851847,1.166371082224253
0.03878854875319693,-2.154113557757667,1.151306125085578
0.03883969875319693,-2.061593257663488,1.136241167946903
0.03889084875319693,-1.976474581576843,1.121176210808228
0.03894199875319693,-1.883954281482664,1.106111253669554
0.03899314875319693,-1.795134793392252,1.094812535815548
0.03904429875319693,-1.698913681294306,1.079747578676873
0.03909544875319693,-1.610094193203893,1.068448860822867
0.03914659875319693,-1.517573893109714,1.053383903684192
0.03919774875319693,-1.428754405019302,1.042085185830186
0.03924889875319693,-1.336234104925123,1.03078646797618
0.03930004875319693,-1.247414616834711,1.015721510837505
0.03935119875319693,-1.158595128744299,1.004422792983499
0.03940234875319693,-1.06607482865012,0.9931240751294926
0.03945349875319693,-0.9735545285559404,0.9780591179908179
0.03950464875319692,-0.8847350404655283,0.9667604001368117
0.03955579875319692,-0.7922147403713491,0.9592279215674744
0.03960694875319692,-0.69969444027717,0.9441629644287995
0.03965809875319692,-0.6108749521867579,0.9366304858594622
0.03970924875319692,-0.5220554640963458,0.9215655287207873
0.03976039875319692,-0.4295351640021666,0.9102668108667813
0.03981154875319692,-0.3407156759117546,0.9027343322974439
0.03986269875319692,-0.2518961878213425,0.8876693751587691
