Versuch02/Csv_Files/2_2_j.csv

#Digilent WaveForms Oscilloscope Acquisition
#Device Name: Discovery2
#Serial Number: SN:210321AA2D13
#Date Time: 2023-11-30 12:18:07.270
#Sample rate: 63979.5Hz
#Samples: 8192
#Trigger: Source: Channel 2 Type: Edge Condition: Rising Level: 0 V Hyst.: Auto HoldOff: 0 s
#Channel 2: Range: 5 V/div Offset: 0 V Attenuation: 1 X Sample Mode: Average
#Wavegen Channel 1: Running
#Mode: Simple
#Type: Triangle
#Frequency: 50 Hz
#Period: 20 ms
#Amplitude: 5 V
#Offset: 0 V
#Symmetry: 50 %
#Phase: 0 °

Time (s),Channel 2 (V)
-0.08219881687042827,-4.592208784034188
-0.08218318687042826,-4.57714382689552
-0.08216755687042826,-4.569611348326176
-0.08215192687042826,-4.55831263047217
-0.08213629687042825,-4.54324767333349
-0.08212066687042825,-4.531948955479486
-0.08210503687042826,-4.524416476910155
-0.08208940687042826,-4.513117759056145
-0.08207377687042826,-4.498052801917471
-0.08205814687042826,-4.494286562632802
-0.08204251687042825,-4.475455366209455
-0.08202688687042826,-4.467922887640125
-0.08201125687042826,-4.456624169786116
-0.08199562687042826,-4.445325451932109
-0.08197999687042826,-4.434026734078103
-0.08196436687042825,-4.422728016224093
-0.08194873687042827,-4.415195537654763
-0.08193310687042826,-4.396364341231425
-0.08191747687042826,-4.388831862662078
-0.08190184687042826,-4.370000666238735
-0.08188621687042826,-4.37376690552339
-0.08187058687042825,-4.343636991246056
-0.08185495687042826,-4.347403230530722
-0.08183932687042826,-4.328572034107379
-0.08182369687042826,-4.328572034107379
-0.08180806687042826,-4.305974598399367
-0.08179243687042825,-4.298442119830023
-0.08177680687042826,-4.283377162691362
-0.08176117687042826,-4.275844684122018
-0.08174554687042826,-4.264545966268011
-0.08172991687042826,-4.241948530559999
-0.08171428687042825,-4.245714769844658
-0.08169865687042825,-4.223117334136655
-0.08168302687042826,-4.223117334136655
-0.08166739687042826,-4.204286137713312
-0.08165176687042826,-4.200519898428643
-0.08163613687042826,-4.177922462720631
-0.08162050687042825,-4.174156223435956
-0.08160487687042826,-4.159091266297295
-0.08158924687042826,-4.155325027012619
-0.08157361687042826,-4.140260069873944
-0.08155798687042826,-4.121428873450601
-0.08154235687042825,-4.117662634165925
-0.08152672687042826,-4.102597677027265
-0.08151109687042826,-4.095065198457924
-0.08149546687042826,-4.076234002034576
-0.08147983687042826,-4.072467762749908
-0.08146420687042825,-4.053636566326563
-0.08144857687042825,-4.049870327041888
-0.08143294687042826,-4.034805369903228
-0.08141731687042826,-4.027272891333883
-0.08140168687042826,-4.015974173479878
-0.08138605687042826,-4.004675455625871
-0.08137042687042825,-3.997142977056525
-0.08135479687042826,-3.978311780633199
-0.08133916687042826,-3.967013062779184
-0.08132353687042826,-3.959480584209847
-0.08130790687042826,-3.948181866355841
-0.08129227687042825,-3.940649387786497
-0.08127664687042827,-3.925584430647836
-0.08126101687042826,-3.918051952078495
-0.08124538687042826,-3.899220755655148
-0.08122975687042826,-3.895454516370479
-0.08121412687042825,-3.880389559231801
-0.08119849687042825,-3.872857080662458
-0.08118286687042826,-3.854025884239132
-0.08116723687042826,-3.850259644954455
-0.08115160687042826,-3.83519468781578
-0.08113597687042826,-3.823895969961774
-0.08112034687042825,-3.808831012823093
-0.08110471687042826,-3.797532294969098
-0.08108908687042826,-3.793766055684424
-0.08107345687042826,-3.771168619976412
-0.08105782687042826,-3.771168619976412
-0.08104219687042825,-3.748571184268398
-0.08102656687042827,-3.744804944983733
-0.08101093687042826,-3.725973748560396
-0.08099530687042826,-3.722207509275719
-0.08097967687042826,-3.710908791421713
-0.08096404687042826,-3.695843834283036
-0.08094841687042825,-3.692077594998361
-0.08093278687042826,-3.673246398575035
-0.08091715687042826,-3.669480159290357
-0.08090152687042826,-3.650648962867014
-0.08088589687042826,-3.650648962867014
-0.08087026687042825,-3.620519048589666
-0.08085463687042826,-3.624285287874331
-0.08083900687042826,-3.601687852166321
-0.08082337687042826,-3.601687852166321
-0.08080774687042826,-3.579090416458309
-0.08079211687042825,-3.575324177173634
-0.08077648687042825,-3.564025459319627
-0.08076085687042826,-3.548960502180966
-0.08074522687042826,-3.54519426289629
-0.08072959687042826,-3.518830587903609
-0.08071396687042826,-3.515064348618941
-0.08069833687042825,-3.499999391480262
-0.08068270687042826,-3.492466912910932
-0.08066707687042826,-3.481168195056922
-0.08065144687042826,-3.469869477202916
-0.08063581687042826,-3.45857075934891
-0.08062018687042825,-3.447272041494903
-0.08060455687042825,-3.443505802210227
-0.08058892687042825,-3.424674605786887
-0.08057329687042826,-3.413375887932886
-0.08055766687042826,-3.394544691509542
-0.08054203687042825,-3.383245973655524
-0.08052640687042825,-3.356882298662847
-0.08051077687042825,-3.3380511022395
-0.08049514687042826,-3.311687427246831
-0.08047951687042826,-3.266492555830807
-0.08046388687042826,-3.228830162984119
-0.08044825687042825,-3.172336573714065
-0.08043262687042825,-3.119609223728693
-0.08041699687042826,-3.044284438035353
-0.08040136687042826,-2.976492130911317
-0.08038573687042826,-2.886102388079268
-0.08037010687042825,-2.795712645247178
-0.08035447687042825,-2.705322902415117
-0.08033884687042825,-2.588569484590403
-0.08032321687042826,-2.505712220327729
-0.08030758687042826,-2.377660084648993
-0.08029195687042825,-2.283504102532219
-0.08027632687042825,-2.159218206138163
-0.08026069687042825,-2.057529745452098
-0.08024506687042826,-1.933243849058087
-0.08022943687042826,-1.816490431233357
-0.08021380687042826,-1.699737013408627
-0.08019817687042825,-1.575451117014511
-0.08018254687042825,-1.466230177759106
-0.08016691687042826,-1.330645563511095
-0.08015128687042826,-1.221424624255703
-0.08013565687042826,-1.082073770722961
-0.08012002687042825,-0.980385310036839
-0.08010439687042825,-0.833501977934777
-0.08008876687042825,-0.7242810386793727
-0.08007313687042826,-0.5886964244313611
-0.08005750687042826,-0.464410528037294
-0.08004187687042826,-0.3363583923585582
-0.08002624687042825,-0.2045400173950989
-0.08001061687042825,-0.08402036028569029
-0.07999498687042826,0.05909673253165521
-0.07997935687042826,0.1720839110717162
-0.07996372687042826,0.3152010038891268
-0.07994809687042825,0.4281881824292512
-0.07993246687042825,0.5675390359619862
-0.07991683687042825,0.691824932356055
-0.07990120687042826,0.8198770680347325
-0.07988557687042826,0.9592279215674744
-0.07986994687042825,1.079747578676938
-0.07985431687042825,1.222864671494335
-0.07983868687042825,1.335851850034413
-0.07982305687042826,1.486501421421092
-0.07980742687042826,1.599488599961153
-0.07979179687042826,1.746371932063232
-0.07977616687042825,1.863125349888027
-0.07976053687042825,2.006242442705431
-0.07974490687042826,2.134294578384108
-0.07972927687042826,2.258580474778175
-0.07971364687042826,2.401697567595586
-0.07969801687042825,2.529749703274386
-0.07968238687042825,2.669100556807118
-0.07966675687042825,2.789620213916531
-0.07965112687042826,2.940269785303211
-0.07963549687042826,3.05702320312794
-0.07961986687042825,3.200140295945408
-0.07960423687042825,3.328192431624148
-0.07958860687042825,3.463777045872221
-0.07957297687042826,3.599361660120232
-0.07955734687042826,3.7236475565143
-0.07954171687042826,3.870530888616379
-0.07952608687042825,3.987284306441177
-0.07951045687042825,4.137933877827908
-0.07949482687042826,4.250921056367918
-0.07947919687042826,4.401570627754666
-0.07946356687042826,4.518324045579395
-0.07944793687042825,4.66520737768153
-0.07943230687042825,4.785727034790934
-0.07941667687042825,4.921311649039009
-0.07940104687042826,5.060662502571688
-0.07938541687042826,5.184948398965755
-0.07936978687042825,5.328065491783221
-0.07935415687042825,5.448585148892631
-0.07933852687042825,5.595468480994697
-0.07932289687042826,5.712221898819373
-0.07930726687042826,5.86663770949079
-0.07929163687042826,5.994689845169526
-0.07927600687042825,6.13027445941766
-0.07926037687042825,6.265859073665728
-0.07924474687042826,6.390144970059739
-0.07922911687042826,6.540794541446487
-0.07921348687042826,6.657547959271217
-0.07919785687042825,6.808197530658018
-0.07918222687042825,6.924950948482762
-0.07916659687042825,7.075600519869494
-0.07915096687042826,7.188587698409504
-0.07913533687042826,7.339237269796252
-0.07911970687042826,7.45975692690565
-0.07910407687042825,7.595341541153788
-0.07908844687042825,7.738458633971191
-0.07907281687042826,7.862744530365201
-0.07905718687042826,8.005861623182611
-0.07904155687042826,8.12638128029201
-0.07902592687042825,8.280797090963478
-0.07901029687042825,8.393784269503557
-0.07899466687042825,8.544433840890287
-0.07897903687042826,8.657421019430297
-0.07896340687042826,8.804304351532375
-0.07894777687042825,8.943655205065175
-0.07893214687042825,9.071707340743918
-0.07891651687042825,9.214824433561319
-0.07890088687042826,9.335344090670661
-0.07888525687042826,9.48599366205741
-0.07886962687042826,9.598980840597472
-0.07885399687042825,9.749630411984274
-0.07883836687042825,9.870150069093684
-0.07882273687042826,10.0170334011957
-0.07880710687042826,10.14131929758976
-0.07879147687042826,10.27690391183784
-0.07877584687042825,10.41625476537063
-0.07876021687042825,10.53677442248
-0.07874458687042825,10.58573553318067
-0.07872895687042826,10.57820305461133
-0.07871332687042826,10.570670576042
-0.07869769687042825,10.57067057604199
-0.07868206687042825,10.55937185818799
-0.07866643687042825,10.55937185818799
-0.07865080687042826,10.55560561890332
-0.07863517687042826,10.54807314033398
-0.07861954687042826,10.54430690104931
-0.07860391687042825,10.54054066176464
-0.07858828687042825,10.53300818319531
-0.07857265687042826,10.52924194391064
-0.07855702687042826,10.52547570462597
-0.07854139687042826,10.5217094653413
-0.07852576687042825,10.51794322605663
-0.07851013687042825,10.51417698677196
-0.07849450687042825,10.5104107474873
-0.07847887687042826,10.50664450820263
-0.07846324687042826,10.50287826891796
-0.07844761687042826,10.49911202963329
-0.07843198687042825,10.49534579034862
-0.07841635687042825,10.49157955106395
-0.07840072687042826,10.48404707249462
-0.07838509687042826,10.48028083320995
-0.07836946687042826,10.47651459392528
-0.07835383687042825,10.47274835464061
-0.07833820687042825,10.46898211535594
-0.07832257687042826,10.46521587607127
-0.07830694687042826,10.4614496367866
-0.07829131687042826,10.45768339750193
-0.07827568687042825,10.4501509189326
-0.07826005687042825,10.45015091893259
-0.07824442687042825,10.44261844036326
-0.07822879687042826,10.43885220107859
-0.07821316687042826,10.43508596179392
-0.07819753687042826,10.43131972250925
-0.07818190687042825,10.42755348322458
-0.07816627687042825,10.42002100465525
-0.07815064687042826,10.41625476537058
-0.07813501687042826,10.41625476537058
-0.07811938687042826,10.40872228680124
-0.07810375687042825,10.40495604751657
-0.07808812687042825,10.4011898082319
-0.07807249687042825,10.39742356894723
-0.07805686687042826,10.39365732966257
-0.07804123687042826,10.3898910903779
-0.07802560687042825,10.38235861180856
-0.07800997687042825,10.38235861180856
-0.07799434687042825,10.37482613323922
-0.07797871687042826,10.37105989395455
-0.07796308687042826,10.36729365466989
-0.07794745687042826,10.36352741538522
-0.07793182687042825,10.35976117610055
-0.07791619687042825,10.35599493681588
-0.07790056687042826,10.35222869753121
-0.07788493687042826,10.34846245824654
-0.07786930687042826,10.34469621896187
-0.07785367687042825,10.33716374039254
-0.07783804687042825,10.33716374039254
-0.07782241687042825,10.33339750110786
-0.07780678687042826,10.32586502253853
-0.07779115687042826,10.32209878325386
-0.07777552687042825,10.32209878325386
-0.07775989687042825,10.31833254396919
-0.07774426687042825,10.31080006539985
-0.07772863687042826,10.30703382611519
-0.07771300687042826,10.30326758683052
-0.07769737687042826,10.29573510826118
-0.07768174687042825,10.29573510826118
-0.07766611687042825,10.29196886897651
-0.07765048687042826,10.28820262969184
-0.07763485687042826,10.28443639040717
-0.07761922687042826,10.28067015112251
-0.07760359687042825,10.27690391183783
-0.07758796687042825,10.27313767255317
-0.07757233687042825,10.27313767255317
-0.07755670687042826,10.2693714332685
-0.07754107687042826,10.26560519398383
-0.07752544687042826,10.26183895469916
-0.07750981687042825,10.25807271541449
-0.07749418687042825,10.25807271541449
-0.07747855687042826,10.25430647612983
-0.07746292687042826,10.25054023684516
-0.07744729687042826,10.24677399756049
-0.07743166687042825,10.24300775827582
-0.07741603687042825,10.23924151899115
-0.07740040687042826,10.23924151899115
-0.07738477687042826,10.23170904042181
-0.07736914687042826,10.22794280113714
-0.07735351687042825,10.22794280113714
-0.07733788687042825,10.22417656185247
-0.07732225687042825,10.2204103225678
-0.07730662687042826,10.21664408328314
-0.07729099687042826,10.21287784399847
-0.07727536687042826,10.2091116047138
-0.07725973687042825,10.20534536542913
-0.07724410687042825,10.20157912614446
-0.07722847687042826,10.20157912614446
-0.07721284687042826,10.19404664757513
-0.07719721687042826,10.19404664757513
-0.07718158687042825,10.19028040829046
-0.07716595687042825,10.18651416900579
-0.07715032687042825,10.18651416900579
-0.07713469687042826,10.18274792972112
-0.07711906687042826,10.17898169043645
-0.07710343687042825,10.17521545115178
-0.07708780687042825,10.17521545115178
-0.07707217687042825,10.17144921186711
-0.07705654687042826,10.16768297258244
-0.07704091687042826,10.16391673329778
-0.07702528687042826,10.16015049401311
-0.07700965687042825,10.15638425472844
-0.07699402687042825,10.15261801544377
-0.07697839687042826,10.1488517761591
-0.07696276687042826,10.1488517761591
-0.07694713687042826,10.14508553687443
-0.07693150687042825,10.14508553687443
-0.07691587687042825,10.13755305830509
-0.07690024687042825,10.13755305830509
-0.07688461687042826,10.13378681902043
-0.07686898687042826,10.13002057973576
-0.07685335687042825,10.12625434045109
-0.07683772687042825,10.12625434045109
-0.07682209687042825,10.12248810116642
-0.07680646687042826,10.12248810116642
-0.07679083687042826,10.11495562259708
-0.07677520687042826,10.11495562259708
-0.07675957687042825,10.11118938331241
-0.07674394687042825,10.10742314402775
-0.07672831687042826,10.10742314402775
-0.07671268687042826,10.10365690474308
-0.07669705687042826,10.09989066545841
-0.07668142687042825,10.09612442617374
-0.07666579687042825,10.09612442617374
-0.07665016687042825,10.09235818688907
-0.07663453687042826,10.0885919476044
-0.07661890687042826,10.08482570831973
-0.07660327687042826,10.08105946903506
-0.07658764687042825,10.0772932297504
-0.07657201687042825,10.07729322975039
-0.07655638687042826,10.07352699046573
-0.07654075687042826,10.06976075118106
-0.07652512687042826,10.06599451189639
-0.07650949687042825,10.06599451189639
-0.07649386687042825,10.06222827261172
-0.07647823687042826,10.05846203332705
-0.07646260687042826,10.05846203332705
-0.07644697687042826,10.05469579404238
-0.07643134687042825,10.05092955475771
-0.07641571687042825,10.04716331547305
-0.07640008687042825,10.04716331547304
-0.07638445687042826,10.04339707618838
-0.07636882687042826,10.03963083690371
-0.07635319687042826,10.03586459761904
-0.07633756687042825,10.03586459761904
-0.07632193687042825,10.0283321190497
-0.07630630687042826,10.0283321190497
-0.07629067687042826,10.02456587976503
-0.07627504687042826,10.02456587976503
-0.07625941687042825,10.02079964048036
-0.07624378687042825,10.01703340119569
-0.07622815687042825,10.01326716191103
-0.07621252687042826,10.01326716191103
-0.07619689687042826,10.00950092262636
-0.07618126687042825,10.00573468334169
-0.07616563687042825,10.00573468334169
-0.07615000687042825,10.00196844405702
-0.07613437687042826,9.998202204772353
-0.07611874687042826,9.998202204772353
-0.07610311687042826,9.998202204772353
-0.07608748687042825,9.994435965487682
-0.07607185687042825,9.990669726203015
-0.07605622687042826,9.986903486918347
-0.07604059687042826,9.986903486918347
-0.07602496687042826,9.983137247633678
-0.07600933687042825,9.983137247633676
-0.07599370687042825,9.979371008349007
-0.07597807687042825,9.975604769064342
-0.07596244687042826,9.975604769064342
-0.07594681687042826,9.971838529779673
-0.07593118687042825,9.971838529779673
-0.07591555687042825,9.971838529779671
-0.07589992687042825,9.968072290495002
-0.07588429687042826,9.964306051210334
-0.07586866687042826,9.964306051210334
-0.07585303687042826,9.960539811925667
-0.07583740687042825,9.960539811925667
-0.07582177687042825,9.960539811925665
-0.07580614687042826,9.956773572640998
-0.07579051687042826,9.956773572640998
-0.07577488687042826,9.956773572640998
-0.07575925687042825,9.953007333356329
-0.07574362687042825,9.953007333356329
-0.07572799687042825,9.953007333356327
-0.07571236687042826,9.94924109407166
-0.07569673687042826,9.945474854786992
-0.07568110687042826,9.945474854786992
-0.07566547687042825,9.94547485478699
-0.07564984687042825,9.941708615502323
-0.07563421687042826,9.941708615502323
-0.07561858687042826,9.941708615502323
-0.07560295687042826,9.937942376217654
-0.07558732687042825,9.937942376217654
-0.07557169687042825,9.937942376217654
-0.07555606687042826,9.937942376217654
-0.07554043687042826,9.937942376217654
-0.07552480687042826,9.934176136932985
-0.07550917687042825,9.937942376217652
-0.07549354687042825,9.934176136932985
-0.07547791687042825,9.934176136932985
-0.07546228687042826,9.934176136932985
-0.07544665687042826,9.930409897648317
-0.07543102687042826,9.930409897648317
-0.07541539687042825,9.930409897648317
-0.07539976687042825,9.930409897648316
-0.07538413687042826,9.926643658363648
-0.07536850687042826,9.926643658363648
-0.07535287687042826,9.926643658363648
-0.07533724687042825,9.922877419078979
-0.07532161687042825,9.922877419078979
-0.07530598687042825,9.922877419078979
-0.07529035687042826,9.922877419078979
-0.07527472687042826,9.922877419078979
-0.07525909687042825,9.922877419078979
-0.07524346687042825,9.922877419078977
-0.07522783687042825,9.919111179794312
-0.07521220687042826,9.922877419078979
-0.07519657687042826,9.91911117979431
-0.07518094687042826,9.91911117979431
-0.07516531687042825,9.91911117979431
-0.07514968687042825,9.91911117979431
-0.07513405687042826,9.91911117979431
-0.07511842687042826,9.91911117979431
-0.07510279687042826,9.915344940509641
-0.07508716687042825,9.915344940509639
-0.07507153687042825,9.911578701224975
-0.07505590687042825,9.915344940509641
-0.07504027687042826,9.915344940509641
-0.07502464687042826,9.911578701224974
-0.07500901687042826,9.911578701224974
-0.07499338687042825,9.911578701224974
-0.07497775687042825,9.911578701224974
-0.07496212687042826,9.911578701224974
-0.07494649687042826,9.911578701224974
-0.07493086687042826,9.907812461940305
-0.07491523687042825,9.907812461940305
-0.07489960687042825,9.907812461940305
-0.07488397687042826,9.907812461940305
-0.07486834687042826,9.907812461940305
-0.07485271687042826,9.907812461940305
-0.07483708687042825,9.907812461940305
-0.07482145687042825,9.907812461940305
-0.07480582687042825,9.907812461940305
-0.07479019687042826,9.907812461940305
-0.07477456687042826,9.907812461940305
-0.07475893687042826,9.904046222655637
-0.07474330687042825,9.907812461940303
-0.07472767687042825,9.904046222655635
-0.07471204687042826,9.904046222655635
-0.07469641687042826,9.904046222655635
-0.07468078687042826,9.904046222655635
-0.07466515687042825,9.904046222655635
-0.07464952687042825,9.904046222655634
-0.07463389687042825,9.900279983370968
-0.07461826687042826,9.904046222655635
-0.07460263687042826,9.904046222655635
-0.07458700687042825,9.904046222655635
-0.07457137687042825,9.904046222655635
-0.07455574687042825,9.904046222655637
-0.07454011687042826,9.907812461940305
-0.07452448687042826,9.907812461940305
-0.07450885687042826,9.907812461940305
-0.07449322687042825,9.907812461940305
-0.07447759687042825,9.907812461940305
-0.07446196687042826,9.907812461940305
