Versuch02/Csv_Files/2_3_l_d.csv

#Digilent WaveForms Oscilloscope Acquisition
#Device Name: Discovery2
#Serial Number: SN:210321AA2D13
#Date Time: 2023-11-30 14:33:35.582
#Sample rate: 2.5e+07Hz
#Samples: 8192
#Trigger: Source: Channel 1 Type: Edge Condition: Rising Level: 0 V Hyst.: Auto HoldOff: 0 s
#Channel 1: Range: 5 mV/div Offset: 0 V Attenuation: 1 X Sample Mode: Average
#Channel 2: Range: 5 mV/div Offset: 0 V Attenuation: 1 X Sample Mode: Average
#Wavegen Channel 1: Running
#Mode: Simple
#Type: Sine
#Frequency: 10 kHz
#Period: 100 us
#Amplitude: 15 mV
#Offset: 0 V
#Symmetry: 50 %
#Phase: 0 °
#Wavegen Channel 2: Enabled
#Mode: Simple
#Type: DC
#Offset: 0 V

Time (s),Channel 1 (V),Channel 2 (V)
0.3928121733333333,-0.001096532350750861,-0.01353728857502934
0.3928122133333333,-0.001769700047263668,-0.01319467517166727
0.3928122533333333,-0.001433116199370095,-0.01319467517166727
0.3928122933333333,-0.00176970004696872,-0.01422251538089484
0.3928123333333333,-0.001096532351196879,-0.01387990197794799
0.3928123733333333,-0.001433116199090606,-0.01422251538090544
0.3928124133333333,-0.00176970004756933,-0.0149077421867552
0.3928124533333333,-0.002442867743356477,-0.01319467517196875
0.3928124933333333,-0.001433116199724124,-0.01285206176805966
0.3928125333333333,-0.002106283895511271,-0.0121668349623632
0.3928125733333333,-0.002779451591298724,-0.0128520617682781
0.3928126133333333,-0.001433116199595247,-0.01319467517200599
0.3928126533333333,-0.002106283895382699,-0.01387990197792088
0.3928126933333333,-0.00143311619963841,-0.01353728857499631
0.3928127333333333,-0.00109653235149749,-0.01319467517177104
0.3928127733333333,-0.002106283895178669,-0.01353728857472848
0.3928128133333333,-0.001769700047548054,-0.01319467517166727
0.3928128533333333,-0.002106283895441781,-0.01319467517185891
0.3928128933333333,-0.002442867743335354,-0.01490774218664536
0.3928129333333333,-0.002779451590793471,-0.01353728857465183
0.3928129733333333,-0.001096532351325603,-0.01319467517169454
0.3928130133333333,-0.001769700046925557,-0.01353728857459745
0.3928130533333333,-0.001096532351277695,-0.01422251538081772
0.3928130933333333,-0.001433116199171269,-0.01319467517194585
0.3928131333333333,-0.00176970004733331,-0.01250944836498708
0.3928131733333333,-0.001769700047376474,-0.0118242215591384
0.3928132133333333,-0.002442867743163927,-0.01216683496209585
0.3928132533333333,-0.001433116199531267,-0.01319467517166727
0.3928132933333333,-0.00210628389531872,-0.01319467517166727
0.3928133333333333,-0.002106283895404128,-0.01285206176875345
0.3928133733333333,-0.002106283895474077,-0.01353728857466258
0.3928134133333333,-0.002442867743367803,-0.01285206176874769
0.3928134533333333,-0.001433116199445247,-0.01319467517129522
0.3928134933333333,-0.00176970004733331,-0.0125094483653515
0.3928135333333333,-0.00176970004733331,-0.01011115454465047
0.3928135733333333,-0.002779451591308826,-0.01216683496358065
0.3928136133333333,-0.002106283895521679,-0.01593558239611084
0.3928136533333333,-8.678080744146543e-05,-0.01764864940986962
0.3928136933333333,-0.0007599485033910095,-0.01387990197744771
0.3928137333333333,-0.002442867742858876,-0.01079638135083209
0.3928137733333333,-0.002779451591378927,-0.009768541141988421
0.3928138133333333,-0.002442867743485354,-0.01319467517156133
0.3928138533333333,-0.001096532351941672,-0.01456512878345468
0.3928138933333333,-0.001096532351294073,-0.01456512878328002
0.3928139333333333,-0.001433116199187799,-0.01148160815666301
0.3928139733333333,-0.003116035439186174,-0.008398087528396511
0.3928140133333333,-0.002442867743474946,-0.009425927737500216
0.3928140533333333,-0.002442867743474946,-0.01250944836411723
0.3928140933333333,-0.0007599485029700929,-0.01525035559110739
0.3928141333333333,-0.0004233646550763664,-0.01662080920293718
0.3928141733333333,-0.001096532350784534,-0.01319467517373945
0.3928142133333333,-0.002106283895317649,-0.01182422155894038
0.3928142533333333,-0.001769700047424075,-0.01113899475302579
0.3928142933333333,-0.00244286774287755,-0.01319467517207267
0.3928143333333333,-0.001433116199218411,-0.01387990197803243
0.3928143733333333,-0.0007599485034312645,-0.0152503555898616
0.3928144133333333,-0.001433116199667032,-0.01285206176852956
0.3928144533333333,-0.002442867743347752,-0.01285206176852956
0.3928144933333333,-0.001769700047772288,-0.01285206176852956
0.3928145333333333,-0.001433116199051269,-0.0138799019781577
0.3928145733333333,-0.0004233646553700897,-0.01490774218703004
0.3928146133333333,-0.001096532351374889,-0.01422251537996143
0.3928146533333333,-0.001433116199268462,-0.01216683496223591
0.3928146933333333,-0.001769700047162189,-0.01113899475336357
0.3928147333333333,-0.002442867743118621,-0.01011115454439511
0.3928147733333333,-0.001433116199437441,-0.01285206176805468
0.3928148133333333,-0.001433116199030912,-0.01353728857504071
0.3928148533333333,-0.001096532351191675,-0.01387990197794269
0.3928148933333333,-0.001096532351191675,-0.01387990197794269
0.3928149333333333,-0.002106283895404128,-0.013194675171327
0.3928149733333333,-0.002106283895404128,-0.01250944836541211
0.3928150133333333,-0.001433116199636573,-0.01216683496244453
0.3928150533333333,-0.001433116199159636,-0.01285206176884366
0.3928150933333333,-0.001096532351266063,-0.01387990197771553
0.3928151333333333,-0.001433116199693818,-0.01319467517144775
0.3928151733333333,-0.002106283895404128,-0.01285206176852956
0.3928152133333333,-0.002106283895404128,-0.01285206176852956
0.3928152533333333,-0.001769700047030863,-0.01353728857403532
0.3928152933333333,-0.00109653235124341,-0.01182422155924809
0.3928153333333333,-0.002106283894794794,-0.01285206176790931
0.3928153733333333,-0.001433116199262493,-0.01285206176844122
0.3928154133333333,-0.001433116199262493,-0.01250944836548377
0.3928154533333333,-0.001433116199262493,-0.01285206176934223
0.3928154933333333,-0.001433116199284993,-0.0142225153810575
0.3928155333333333,-0.001769700047178566,-0.01387990197810021
0.3928155733333333,-0.0007599485036620799,-0.01456512878380492
0.3928156133333333,-0.002106283895236373,-0.01353728857493305
0.3928156533333333,-0.002442867743255916,-0.01113899475440169
0.3928156933333333,-0.002442867743545813,-0.0118242215590443
0.3928157333333333,-0.002779451591439386,-0.01148160815608701
0.3928157733333333,-0.0027794515906274,-0.01250944836632667
0.3928158133333333,-0.001096532351198104,-0.01422251538107386
0.3928158533333333,-0.00143311619909183,-0.01387990197811641
0.3928158933333333,-0.002106283895523362,-0.01319467517130316
0.3928159333333333,-0.002442867743417089,-0.01216683496243082
0.3928159733333333,-0.002779451591545763,-0.01353728857504118
0.3928160133333333,-0.002779451591326581,-0.01387990197788692
0.3928160533333333,-0.001433116199751675,-0.01353728857492947
0.3928160933333333,-0.001769700047500912,-0.01353728857463438
0.3928161333333333,-0.002106283895394638,-0.01319467517167693
0.3928161733333333,-0.002779451591172296,-0.01250944836577201
0.3928162133333333,-0.002442867743578262,-0.01216683496214898
0.3928162533333333,-0.002779451591471835,-0.01182422155919169
0.3928162933333333,-0.002779451591113826,-0.01250944836517201
0.3928163333333333,-0.002106283895443005,-0.01216683496229372
0.3928163733333333,-0.002442867743336579,-0.01250944836525101
0.3928164133333333,-0.002106283895555811,-0.01250944836539185
0.3928164533333333,-0.002442867743449385,-0.01250944836539185
0.3928164933333333,-0.001096532352002284,-0.01319467517125471
0.3928165333333333,-0.001769700047507799,-0.01216683496216533
0.3928165733333333,-0.002442867743295253,-0.01182422155920789
0.3928166133333333,-0.002779451590745562,-0.01113899475324828
0.3928166533333333,-0.001433116199308105,-0.01182422155916286
0.3928166933333333,-0.002106283895095558,-0.01250944836507775
0.3928167333333333,-0.001433116199398105,-0.01182422155939251
0.3928167733333333,-0.001769700047291831,-0.01250944836530741
0.3928168133333333,-0.001433116199481217,-0.01148160815664665
0.3928168533333333,-0.002106283895475454,-0.01113899475284101
0.3928168933333333,-0.002442867743369028,-0.01113899475284101
0.3928169333333333,-0.001433116199446472,-0.01148160815654055
0.3928169733333333,-0.00176970004733331,-0.01250944836538484
0.3928170133333333,-0.00176970004733331,-0.01216683496242739
0.3928170533333333,-0.002106283895164741,-0.01216683496237598
0.3928170933333333,-0.001433116199377595,-0.01250944836533327
0.3928171333333333,-0.002106283895404128,-0.01216683496201748
0.3928171733333333,-0.002106283895459383,-0.01182422155911643
0.3928172133333333,-0.00244286774335311,-0.01182422155911643
0.3928172533333333,-0.002106283895236068,-0.01319467517132513
0.3928172933333333,-0.001769700047342494,-0.01250944836541055
0.3928173333333333,-0.002106283895217853,-0.01285206176833995
0.3928173733333333,-0.002442867743474946,-0.01216683496235962
0.3928174133333333,-0.002442867743474946,-0.01250944836531707
0.3928174533333333,-0.002106283894971272,-0.01285206176852956
0.3928174933333333,-0.001433116199380503,-0.01285206176844948
0.3928175333333333,-0.002442867743061223,-0.0121668349625349
0.3928175733333333,-0.001433116199414482,-0.01250944836523714
0.3928176133333333,-0.001769700047308208,-0.01216683496227969
0.3928176533333333,-0.001433116199464686,-0.01216683496225414
0.3928176933333333,-0.00176970004733331,-0.01285206176826174
0.3928177333333333,-0.00176970004733331,-0.01182422155938987
0.3928177733333333,-0.001769700047132801,-0.01182422155870823
0.3928178133333333,-0.001433116199285758,-0.01113899475284101
0.3928178533333333,-0.001769700047179484,-0.01113899475284101
0.3928178933333333,-0.001769700047061169,-0.01250944836525334
0.3928179333333333,-0.001096532351273716,-0.0121668349622959
0.3928179733333333,-0.001769700046896782,-0.01285206176808521
0.3928180133333333,-0.001769700047404943,-0.01216683496239997
0.3928180533333333,-0.002106283895298669,-0.01285206176831487
0.3928180933333333,-0.001433116199631369,-0.0121668349620664
0.3928181333333333,-0.002106283895396781,-0.01182422155912391
0.3928181733333333,-0.001769700047503208,-0.0121668349620812
0.3928182133333333,-0.001433116199382645,-0.01216683496249875
0.3928182533333333,-0.001769700047276219,-0.01285206176841333
0.3928182933333333,-0.00176970004733331,-0.01285206176829259
0.3928183333333333,-0.001769700047166168,-0.01250944836544856
0.3928183733333333,-0.0007599485034854479,-0.01285206176840586
0.3928184133333333,-0.001433116199431013,-0.0121668349620826
0.3928184533333333,-0.001769700047324586,-0.01182422155912531
0.3928184933333333,-0.001433116199448308,-0.01182422155911643
0.3928185333333333,-0.002442867743266783,-0.0121668349621482
0.3928185733333333,-0.00176970004747933,-0.01182422155919075
0.3928186133333333,-0.001433116199045606,-0.01216683496225414
0.3928186533333333,-0.001096532351231318,-0.0121668349622945
0.3928186933333333,-0.001433116199125044,-0.01250944836525194
0.3928187333333333,-0.002106283895404128,-0.01216683496163343
0.3928187733333333,-0.002106283895404128,-0.01079638134980364
0.3928188133333333,-0.001433116199666267,-0.01148160815556772
0.3928188533333333,-0.001096532351368001,-0.0111389947530205
0.3928188933333333,-0.001769700047155148,-0.01182422155893508
0.3928189333333333,-0.001433116198860862,-0.01182422155972967
0.3928189733333333,-0.0007599485031920308,-0.01285206176848126
0.3928190133333333,-0.001769700046872751,-0.01216683496256668
0.3928190533333333,-0.002442867743201885,-0.01148160815570077
0.3928190933333333,-0.001769700047414739,-0.01079638134978619
0.3928191333333333,-0.002106283895186323,-0.01148160815553531
0.3928191733333333,-0.001433116199262493,-0.01182422155911643
0.3928192133333333,-0.001433116199262493,-0.01182422155911643
0.3928192533333333,-0.001769700047148413,-0.01216683496187772
0.3928192933333333,-0.001433116199262493,-0.01148160815595535
0.3928193333333333,-0.001433116199262493,-0.01045376794708302
0.3928193733333333,-0.002106283895524587,-0.01079638134945807
0.3928194133333333,-0.002442867743418313,-0.01011115454354318
0.3928194533333333,-0.001096532350958411,-0.01148160815621617
0.3928194933333333,-0.000759948503233204,-0.01182422155911643
0.3928195333333333,-0.001433116199020351,-0.01182422155911643
0.3928195733333333,-0.001096532351529327,-0.01182422155980383
0.3928196133333333,-0.00176970004731678,-0.01319467517163362
0.3928196533333333,-0.00176970004733331,-0.01216683496282017
0.3928196933333333,-0.002106283895613209,-0.009768541140077348
0.3928197333333333,-0.002779451591400356,-0.009083314334162767
0.3928197733333333,-0.002779451590893725,-0.0101111545440916
0.3928198133333333,-0.001769700047293209,-0.01113899475288183
0.3928198533333333,-0.001433116199399482,-0.01148160815583928
0.3928198933333333,-0.001769700046874588,-0.01216683496303238
0.3928199333333333,-0.0007599485031934083,-0.01387990197781961
0.3928199733333333,-0.001433116198859637,-0.01045376794861596
0.3928200133333333,-0.002442867743740353,-0.009083314333834648
0.3928200533333333,-0.003452619287421532,-0.008398087527919755
0.3928200933333333,-0.003116035439012757,-0.009425927737971986
0.3928201333333333,-0.002106283895379944,-0.01079638134977715
0.3928201733333333,-0.001769700047486371,-0.01182422155864903
0.3928202133333333,-0.002106283895267292,-0.01148160815570015
0.3928202533333333,-0.001769700047373565,-0.01079638134978526
0.3928202933333333,-0.00176970004733331,-0.009425927738037423
0.3928203333333333,-0.002779451591255561,-0.009425927737595567
0.3928203733333333,-0.001433116199681267,-0.01148160815533931
0.3928204133333333,-0.001769700047518667,-0.01113899475321837
0.3928204533333333,-0.002106283895404128,-0.0118242215590834
0.3928204933333333,-0.002106283895404128,-0.01045376794725362
0.3928205333333333,-0.001769700047454228,-0.009768541140290174
0.3928205733333333,-0.002106283895347955,-0.009768541140290174
0.3928206133333333,-0.001433116199729328,-0.0104537679460904
0.3928206533333333,-0.001769700047276831,-0.01045376794656559
0.3928206933333333,-0.001433116199383105,-0.01045376794656559
0.3928207333333333,-0.0007599485034594277,-0.01011115454342788
0.3928207733333333,-0.001433116199246881,-0.01011115454342788
0.3928208133333333,-0.002106283895034027,-0.01079638134932657
0.3928208533333333,-0.001769700047228311,-0.01079638134938266
0.3928208933333333,-0.001433116199334737,-0.009768541140510791
0.3928209333333333,-0.002442867742386685,-0.009425927737152465
0.3928209733333333,-0.0007599485032831018,-0.009425927737317616
0.3928210133333333,-0.002106283894857395,-0.01079638134914678
0.3928210533333333,-0.001769700047179944,-0.009083314334326983
0.3928210933333333,-0.00143311619928637,-0.009768541140241564
0.3928211333333333,-0.002106283895002191,-0.01045376794615646
0.3928211733333333,-0.001096532351280603,-0.01079638134952226
0.3928212133333333,-0.00143311619917433,-0.01011115454360737
0.3928212533333333,-0.002442867743071478,-0.008398087528150031
0.3928212933333333,-0.00176970004733331,-0.009083314334039683
0.3928213333333333,-0.00176970004733331,-0.009425927736997129
0.3928213733333333,-0.002442867743474946,-0.009768541140150419
0.3928214133333333,-0.002442867743474946,-0.009425927737192974
0.3928214533333333,-0.00176970004776739,-0.009768541140069247
0.3928214933333333,-0.00176970004733331,-0.01011115454335357
0.3928215333333333,-0.00176970004733331,-0.009768541140396275
0.3928215733333333,-0.001433116199448155,-0.00908331433458172
0.3928216133333333,-0.001769700047341882,-0.01011115454344533
0.3928216533333333,-0.002106283895235455,-0.01079638134935991
0.3928216933333333,-0.0004233646552927941,-0.009768541140166622
0.3928217333333333,-0.001096532351079941,-0.009425927737209332
0.3928217733333333,-0.0007599485033538158,-0.009425927737152465
0.3928218133333333,-0.002106283895461066,-0.008398087527507501
0.3928218533333333,-0.002442867743354793,-0.007027633915677716
0.3928218933333333,-0.002442867743135457,-0.0077128607216367
0.3928219333333333,-0.00176970004734831,-0.008055474124593991
0.3928219733333333,-0.00277945159099199,-0.009083314333451062
0.3928220133333333,-0.001433116199262493,-0.008740700931091428
0.3928220533333333,-0.001433116199262493,-0.009425927737006321
0.3928220933333333,-0.00210628389562224,-0.009425927737152465
0.3928221333333333,-0.002442867743433926,-0.0094259277370272
0.3928221733333333,-0.002106283895540352,-0.008398087528155327
0.3928222133333333,-0.002106283895250455,-0.008740700931189897
0.3928222533333333,-0.001769700047356729,-0.009425927737104789
0.3928222933333333,-0.002442867743073927,-0.009425927737152465
0.3928223333333333,-0.002106283895404128,-0.01045376794629263
0.3928223733333333,-0.002106283895404128,-0.009425927737420757
0.3928224133333333,-0.001769700046928924,-0.008740700930877044
0.3928224533333333,-0.001096532351216624,-0.008740700930826253
0.3928224933333333,-0.001433116199110351,-0.008055474124911361
0.3928225333333333,-0.002442867743199436,-0.008740700930877044
0.3928225733333333,-0.001769700047411984,-0.008740700930877044
0.3928226133333333,-0.002779451590896021,-0.009425927736711543
0.3928226533333333,-0.001096532351264991,-0.009083314334238644
0.3928226933333333,-0.001433116199158718,-0.01011115454311098
0.3928227333333333,-0.002106283895218007,-0.01011115454285951
0.3928227733333333,-0.001769700047351371,-0.009083314333987179
0.3928228133333333,-0.002442867743138519,-0.008055474125115307
0.3928228533333333,-0.002106283895525964,-0.008740700930877044
0.3928228933333333,-0.002442867743419538,-0.008740700930877044
0.3928229333333333,-0.002779451591313264,-0.009425927736679137
0.3928229733333333,-0.001769700047218515,-0.01045376794633189
0.3928230133333333,-0.001096532351431368,-0.00908331433450273
0.3928230533333333,-0.002106283895233925,-0.009083314333494998
0.3928230933333333,-0.001769700047340351,-0.008055474124623126
0.3928231333333333,-0.00176970004733331,-0.008740700930502183
0.3928231733333333,-0.00176970004733331,-0.008740700930877044
0.3928232133333333,-0.00176970004733331,-0.008740700930877044
0.3928232533333333,-0.002779451591327193,-0.009083314334014755
0.3928232933333333,-0.002442867743350967,-0.009083314334098889
0.3928233333333333,-0.001433116199669787,-0.00976854114001378
0.3928233733333333,-0.002442867743320814,-0.009768541139505708
0.3928234133333333,-0.002106283895427087,-0.008055474124718479
0.3928234533333333,-0.002442867743274743,-0.007370247318733785
0.3928234933333333,-0.001433116199352339,-0.008398087527830791
0.3928235333333333,-0.001769700047245913,-0.008740700930788081
0.3928235733333333,-0.000759948503525856,-0.009083314333396375
0.3928236133333333,-0.001433116199211677,-0.008055474124653352
0.3928236533333333,-0.0007599485034245298,-0.008740700930567932
0.3928236933333333,-0.00176970004733331,-0.008398087527457956
0.3928237333333333,-0.00176970004733331,-0.007712860721543374
0.3928237733333333,-0.00176970004733331,-0.006685020512710766
0.3928238133333333,-0.001769700047407086,-0.008398087527889529
0.3928238533333333,-0.002106283895300812,-0.009083314333804422
0.3928238933333333,-0.001769700046960149,-0.009768541140670021
0.3928239333333333,-0.001096532351219685,-0.01045376794654659
0.3928239733333333,-0.002106283894900865,-0.009768541140631692
0.3928240133333333,-0.0007599485034872847,-0.009425927736779473
0.3928240533333333,-0.001769700047168464,-0.008398087527907135
0.3928240933333333,-0.00176970004733331,-0.008398087527739335
0.3928241333333333,-0.002106283895288414,-0.00805547412466052
0.3928241733333333,-0.001433116199501267,-0.008398087527617809
0.3928242133333333,-0.001769700046992291,-0.0094259277369789
0.3928242533333333,-0.001096532351204839,-0.009083314334021455
0.3928242933333333,-0.001433116199078667,-0.009083314334014755
0.3928243333333333,-0.001769700047439534,-0.008055474124493499
0.3928243733333333,-0.002106283895333108,-0.007712860721536207
0.3928244133333333,-0.00176970004777137,-0.007370247318103252
0.3928244533333333,-0.002442867743558517,-0.007027633915273565
0.3928244933333333,-0.00311603543934597,-0.007712860721188456
0.3928245333333333,-0.001769700047487902,-0.008055474124758986
0.3928245733333333,-0.002106283895381475,-0.008398087527716277
