Versuch02/Csv_Files/2_3_d.csv

#Digilent WaveForms Oscilloscope Acquisition
#Device Name: Discovery2
#Serial Number: SN:210321AA2D13
#Date Time: 2023-11-30 14:04:55.019
#Sample rate: 3.33333e+07Hz
#Samples: 8192
#Trigger: Source: Channel 1 Type: Edge Condition: Rising Level: 0 V Hyst.: Auto HoldOff: 0 s
#Channel 1: Range: 1 V/div Offset: 0 V Attenuation: 1 X Sample Mode: Average
#Wavegen Channel 1: Running
#Mode: Simple
#Type: Sine
#Frequency: 10 kHz
#Period: 100 us
#Amplitude: 15 mV
#Offset: 0 V
#Symmetry: 50 %
#Phase: 0 °
#Wavegen Channel 2: Running
#Mode: Simple
#Type: DC
#Offset: 0 V

Time (s),Channel 1 (V)
0.3928086293147932,0.4919670249328543
0.3928086593147931,0.4808645889273943
0.3928086893147931,0.4882662129263018
0.3928087193147932,0.4956678369356133
0.3928087493147931,0.4882662129322056
0.3928087793147931,0.4956678369358456
0.3928088093147932,0.4956678369336073
0.3928088393147932,0.4882662129352769
0.3928088693147931,0.4993686489407319
0.3928088993147931,0.510471084946192
0.3928089293147932,0.5104710849526275
0.3928089593147931,0.5067702729512803
0.3928089893147931,0.5178727089567404
0.3928090193147932,0.514171896961531
0.3928090493147932,0.517872708965596
0.3928090793147931,0.5289751449710509
0.3928091093147931,0.5215735209715426
0.3928091393147932,0.5363767689768133
0.3928091693147931,0.5289751449737083
0.3928091993147931,0.5326759569755266
0.3928092293147932,0.5326759569835576
0.3928092593147932,0.5400775809836501
0.3928092893147931,0.5363767689818301
0.3928093193147931,0.5474792049842221
0.3928093493147932,0.5511800170026914
0.3928093793147932,0.5622824530074345
0.3928094093147931,0.5622824530074345
0.3928094393147932,0.5622824530106254
0.3928094693147932,0.5659832650112017
0.3928094993147931,0.5659832650112017
0.3928095293147931,0.5548808290078621
0.3928095593147932,0.5659832650134484
0.3928095893147932,0.5696840770158624
0.3928096193147931,0.5807865130213226
0.3928096493147932,0.5770857010322523
0.3928096793147932,0.5881881370338047
0.3928097093147931,0.5881881370338047
0.3928097393147931,0.5992905730373259
0.3928097693147932,0.5844873250369544
0.3928097993147932,0.595589761042056
0.3928098293147931,0.6029913850456959
0.3928098593147932,0.6066921970559509
0.3928098893147932,0.6103930090632236
0.3928099193147931,0.6288970690723152
0.3928099493147931,0.6288970690752436
0.3928099793147932,0.6214954450748078
0.3928100093147932,0.6325978810794297
0.3928100393147931,0.6362986930812481
0.3928100693147932,0.6362986930895197
0.3928100993147932,0.6437003170917343
0.3928101293147931,0.6474011290935543
0.3928101593147931,0.6399995050914928
0.3928101893147932,0.6511019410978466
0.3928102193147932,0.6511019411002448
0.3928102493147931,0.6696060011093363
0.3928102793147931,0.6622043771159808
0.3928103093147932,0.6696060011122343
0.3928103393147931,0.6585035651067743
0.3928103693147931,0.6696060011094424
0.3928103993147932,0.6844092491242889
0.3928104293147932,0.6733068131215265
0.3928104593147931,0.6807084371251667
0.3928104893147931,0.691810873129213
0.3928105193147932,0.6881100611386047
0.3928105493147931,0.6955116851422414
0.3928105793147931,0.6955116851430525
0.3928106093147932,0.7029133091480406
0.3928106393147932,0.6992124971486171
0.3928106693147931,0.7103149331540771
0.3928106993147931,0.7140157451585915
0.3928107293147932,0.7214173691726303
0.3928107593147931,0.7288189931762671
0.3928107893147931,0.7325198051784321
0.3928108193147932,0.7399214291934723
0.3928108493147932,0.7473230531964526
0.3928108793147931,0.751023865198271
0.3928109093147931,0.7510238651995601
0.3928109393147932,0.7547246772033273
0.3928109693147931,0.7547246772033273
0.3928109993147931,0.7584254892048612
0.3928110293147932,0.7584254892097618
0.3928110593147932,0.7621263012122987
0.3928110893147931,0.7695279252159388
0.3928111193147931,0.7732287372189874
0.3928111493147932,0.7732287372290564
0.3928111793147931,0.7880319852363364
0.3928112093147931,0.7843311732356373
0.3928112393147932,0.7880319852372317
0.3928112693147932,0.7880319852364526
0.3928112993147931,0.7843311732346325
0.3928113293147931,0.7880319852341149
0.3928113593147932,0.7917327972356472
0.3928113893147931,0.7806303612301922
0.3928114193147931,0.7695279252247321
0.3928114493147932,0.7658271132313503
0.3928114793147932,0.788031985239751
0.3928115093147931,0.7991344212452062
0.3928115393147931,0.7917327972471113
0.3928115693147932,0.8028352332504559
0.3928115993147931,0.7991344212486376
0.3928116293147931,0.7954336092468176
0.3928116593147932,0.7917327972495415
0.3928116893147932,0.8028352332550015
0.3928117193147931,0.8139376692604565
0.3928117493147931,0.8250401052659165
0.3928117793147932,0.8102368572636416
0.3928118093147931,0.8176384812672817
0.3928118393147931,0.8176384812673692
0.3928118693147932,0.7991344212514414
0.3928118993147932,0.8028352332523004
0.3928119293147931,0.8028352332523004
0.3928119593147931,0.8176384812556222
0.3928119893147932,0.8250401052827594
0.3928120193147931,0.8398433532899721
0.3928120493147931,0.8398433532899721
0.3928120793147932,0.8398433532870033
0.3928121093147932,0.8361425412872248
0.3928121393147931,0.8398433532890448
0.3928121693147931,0.83244172928819
0.3928121993147932,0.843544165299813
0.3928122293147931,0.8546466013050408
0.3928122593147931,0.8546466013050408
0.3928122893147932,0.8546466012959579
0.3928123193147932,0.8435441652991416
0.3928123493147931,0.8620482253082331
0.3928123793147931,0.8583474133116235
0.3928124093147932,0.8546466013175517
0.3928124393147931,0.8768514733277801
0.3928124693147931,0.8805522853296001
0.3928124993147932,0.9064579693516047
0.3928125293147932,0.8990563453491058
0.3928125593147931,0.8953555333472875
0.3928125893147931,0.9101587813505284
0.3928126193147932,0.9027571573583021
0.3928126493147931,0.910158781362139
0.3928126793147931,0.921261217367594
0.3928127093147932,0.9138595933747619
0.3928127393147932,0.9249620293790168
0.3928127693147931,0.9323636533826568
0.3928127993147931,0.9434660893873646
0.3928128293147932,0.9360644653879185
0.3928128593147932,0.936064465388691
0.3928128893147931,0.9471669013941459
0.3928129193147932,0.9360644653975466
0.3928129493147932,0.9471669014030015
0.3928129793147931,0.9582693374084615
0.3928130093147931,0.9545685254093897
0.3928130393147932,0.9582693374105214
0.3928130693147932,0.958269337410205
0.3928130993147931,0.9545685254083851
0.3928131293147932,0.9693717734185547
0.3928131593147932,0.9656709614193769
0.3928131893147931,0.9693717734211953
0.3928132193147931,0.9730725854230152
0.3928132493147932,0.9804742094284762
0.3928132793147932,0.9730725854267211
0.3928133093147931,0.9841750214321812
0.3928133393147932,0.9804742094364534
0.3928133693147932,0.9841750214368917
0.3928133993147931,0.9841750214368917
0.3928134293147931,0.9841750214368917
0.3928134593147932,0.991576645444426
0.3928134893147932,0.991576645444426
0.3928135193147931,0.991576645444426
0.3928135493147932,0.9915766454512049
0.3928135793147932,0.9989782694519603
0.3928136093147931,0.9989782694519603
0.3928136393147931,1.006379893454584
0.3928136693147932,1.002679081460618
0.3928136993147932,1.010080705462765
0.3928137293147931,1.006379893460945
0.3928137593147931,1.002679081459126
0.3928137893147932,1.013781517465528
0.3928138193147931,1.010080705463708
0.3928138493147931,1.013781517464634
0.3928138793147932,1.006379893459495
0.3928139093147932,1.006379893461723
0.3928139393147931,1.021183141469003
0.3928139693147931,1.013781517473707
0.3928139993147932,1.017482329472358
0.3928140293147931,1.021183141474176
0.3928140593147931,1.013781517471698
0.3928140893147932,1.013781517472159
0.3928141193147932,1.021183141474563
0.3928141493147931,1.021183141474563
0.3928141793147931,1.03228557747603
0.3928142093147932,1.024883953481575
0.3928142393147931,1.032285577485212
0.3928142693147931,1.039687201488852
0.3928142993147932,1.032285577491115
0.3928143293147932,1.039687201494077
0.3928143593147931,1.043388013495896
0.3928143893147931,1.047088825497716
0.3928144193147932,1.050789637499657
0.3928144493147931,1.039687201494197
0.3928144793147931,1.043388013494952
0.3928145093147932,1.043388013499852
0.3928145393147932,1.047088825501671
0.3928145693147931,1.050789637503491
0.3928145993147931,1.050789637504701
0.3928146293147932,1.050789637506442
0.3928146593147931,1.054490449508262
0.3928146893147931,1.054490449508468
0.3928147193147932,1.061892073518748
0.3928147493147932,1.065592885521365
0.3928147793147931,1.072994509525005
0.3928148093147931,1.065592885525966
0.3928148393147932,1.072994509529106
0.3928148693147931,1.076695321530925
0.3928148993147931,1.084096945534418
0.3928149293147932,1.087797757536762
0.3928149593147932,1.08039613353913
0.3928149893147931,1.098900193548221
0.3928150193147931,1.084096945550756
0.3928150493147932,1.087797757549825
0.3928150793147931,1.102601005557098
0.3928151093147931,1.098900193555707
0.3928151393147932,1.091498569549006
0.3928151693147932,1.095199381553582
0.3928151993147931,1.110002629560856
0.3928152293147931,1.102601005563395
0.3928152593147932,1.121105065574355
0.3928152893147931,1.117404253572535
0.3928153193147931,1.124805877576096
0.3928153493147932,1.132207501587578
0.3928153793147932,1.132207501588556
0.3928154093147931,1.135908313590376
0.3928154393147931,1.139609125592195
0.3928154693147932,1.143309937604827
0.3928154993147931,1.154412373610146
0.3928155293147931,1.150711561608328
0.3928155593147932,1.158113185628884
0.3928155893147932,1.176617245630708
0.3928156193147931,1.169215621627068
0.3928156493147931,1.165514809624341
0.3928156793147932,1.172916433629017
0.3928157093147931,1.172916433629112
0.3928157393147931,1.176617245630932
0.3928157693147932,1.161813997639039
0.3928157993147932,1.187719681642987
0.3928158293147931,1.184018869641169
0.3928158593147931,1.184018869640319
0.3928158893147932,1.19512130565162
0.3928159193147931,1.195121305651311
0.3928159493147931,1.187719681647671
0.3928159793147932,1.195121305657834
0.3928160093147932,1.202522929656836
0.3928160393147931,1.195121305653199
0.3928160693147931,1.19512130565162
0.3928160993147932,1.198822117653225
0.3928161293147931,1.195121305651836
0.3928161593147931,1.198822117653654
0.3928161893147932,1.206223741666089
0.3928162193147932,1.209924553665471
0.3928162493147931,1.206223741663651
0.3928162793147931,1.209924553664011
0.3928163093147932,1.217326177672
0.3928163393147932,1.21362536567073
0.3928163693147931,1.21732617767255
0.3928163993147932,1.224727801681758
0.3928164293147932,1.224727801683037
0.3928164593147931,1.228428613684857
0.3928164893147931,1.224727801684375
0.3928165193147932,1.232129425691576
0.3928165493147932,1.235830237693059
0.3928165793147931,1.235830237693059
0.3928166093147932,1.24323186169402
0.3928166393147932,1.235830237695738
0.3928166693147931,1.243231861699375
0.3928166993147931,1.243231861700593
0.3928167293147932,1.243231861698251
0.3928167593147932,1.239531049698013
0.3928167893147931,1.250633485703468
0.3928168193147932,1.250633485711475
0.3928168493147932,1.254334297714695
0.3928168793147931,1.261735921718332
0.3928169093147931,1.265436733720701
0.3928169393147932,1.272838357730731
0.3928169693147932,1.272838357731187
0.3928169993147931,1.276539169733005
0.3928170293147932,1.2876416057458
0.3928170593147932,1.287641605741422
0.3928170893147931,1.276539169735962
0.3928171193147931,1.283940793737159
0.3928171493147932,1.291342417752031
0.3928171793147932,1.295043229751789
0.3928172093147931,1.283940793746329
0.3928172393147931,1.291342417742805
0.3928172693147932,1.291342417748047
0.3928172993147931,1.287641605746227
0.3928173293147931,1.302444853751363
0.3928173593147932,1.309846477770927
0.3928173893147932,1.313547289773896
0.3928174193147931,1.324649725779356
0.3928174493147931,1.317248101782578
0.3928174793147932,1.324649725783471
0.3928175093147931,1.324649725783471
0.3928175393147931,1.32094891378202
0.3928175693147932,1.324649725775721
0.3928175993147932,1.313547289771533
0.3928176293147931,1.309846477769715
0.3928176593147931,1.320948913769924
0.3928176893147932,1.309846477770043
0.3928177193147931,1.313547289771862
0.3928177493147931,1.317248101773682
0.3928177793147932,1.324649725788759
0.3928178093147932,1.332051349791702
0.3928178393147931,1.33575216179352
0.3928178693147931,1.328350537793637
0.3928178993147932,1.332051349787606
0.3928179293147931,1.324649725783966
0.3928179593147931,1.328350537785042
0.3928179893147932,1.328350537787238
0.3928180193147932,1.328350537787238
0.3928180493147931,1.328350537787238
0.3928180793147931,1.328350537787238
0.3928181093147932,1.339452973791498
0.3928181393147931,1.324649725784218
0.3928181693147931,1.335752161788366
0.3928181993147932,1.346854597800544
0.3928182293147932,1.33945297379854
0.3928182593147931,1.33945297379854
0.3928182893147931,1.343153785799227
0.3928183193147932,1.339452973800361
0.3928183493147931,1.343153785802179
0.3928183793147931,1.346854597803999
0.3928184093147932,1.346854597806074
0.3928184393147932,1.346854597803444
0.3928184693147931,1.335752161797989
0.3928184993147931,1.343153785796269
0.3928185293147932,1.339452973800419
0.3928185593147931,1.34315378580224
0.3928185893147931,1.350555409805813
0.3928186193147932,1.343153785810961
0.3928186493147932,1.354256221816421
0.3928186793147931,1.365358657821876
0.3928187093147931,1.372760281826527
0.3928187393147932,1.365358657821029
0.3928187693147931,1.357957033817389
0.3928187993147931,1.365358657820999
0.3928188293147932,1.354256221825389
0.3928188593147932,1.369059469828677
0.3928188893147931,1.369059469828677
0.3928189193147931,1.36535865782781
0.3928189493147932,1.361657845827146
0.3928189793147931,1.372760281832497
0.3928190093147931,1.376461093834317
0.3928190393147932,1.376461093842223
0.3928190693147932,1.383862717840575
0.3928190993147931,1.372760281835115
0.3928191293147931,1.376461093833373
0.3928191593147932,1.380161905837917
0.3928191893147931,1.376461093836437
0.3928192193147931,1.383862717840077
0.3928192493147932,1.380161905849173
0.3928192793147932,1.391264341847928
0.3928193093147931,1.380161905842473
0.3928193393147931,1.37646109383899
0.3928193693147932,1.38016190584634
0.3928193993147931,1.391264341850934
0.3928194293147931,1.383862717847297
0.3928194593147932,1.376461093836212
0.3928194893147932,1.376461093835034
0.3928195193147931,1.372760281833215
0.3928195493147931,1.380161905834543
0.3928195793147932,1.387563529849694
0.3928196093147932,1.391264341850578
0.3928196393147931,1.380161905845124
0.3928196693147932,1.376461093848955
0.3928196993147932,1.39126434185128
0.3928197293147931,1.39126434185128
0.3928197593147931,1.383862717849064
0.3928197893147932,1.387563529847513
0.3928198193147932,1.387563529848391
0.3928198493147931,1.398665965853852
0.3928198793147932,1.40606758985661
0.3928199093147932,1.394965153856345
0.3928199393147931,1.398665965858165
0.3928199693147931,1.394965153857646
0.3928199993147932,1.398665965856512
0.3928200293147932,1.394965153855401
0.3928200593147931,1.398665965857221
0.3928200893147932,1.409768401863505
0.3928201193147932,1.40236677786394
0.3928201493147931,1.406067589865758
0.3928201793147931,1.40236677786512
0.3928202093147932,1.409768401867755
0.3928202393147932,1.406067589866763
0.3928202693147931,1.409768401868581
0.3928202993147932,1.413469213870517
0.3928203293147932,1.409768401870116
0.3928203593147931,1.409768401870116
0.3928203893147931,1.409768401870116
0.3928204193147932,1.402366777867425
0.3928204493147932,1.409768401869641
0.3928204793147931,1.406067589867823
0.3928205093147931,1.406067589866349
0.3928205393147932,1.409768401873071
0.3928205693147931,1.417170025876711
0.3928205993147931,1.41717002587765
0.3928206293147932,1.417170025885097
0.3928206593147932,1.428272461887351
0.3928206893147931,1.417170025881891
0.3928207193147931,1.439374897880078
0.3928207493147932,1.428272461888952
0.3928207793147931,1.428272461888952
0.3928208093147931,1.443075709894589
0.3928208393147932,1.443075709906563
0.3928208693147932,1.446776521908976
0.3928208993147931,1.454178145912616
0.3928209293147931,1.446776521914392
0.3928209593147932,1.450477333908357
0.3928209893147931,1.44307570990472
0.3928210193147931,1.450477333906961
0.3928210493147932,1.450477333916759
0.3928210793147932,1.45787895791778
0.3928211093147931,1.450477333914143
0.3928211393147931,1.457878957912607
0.3928211693147932,1.461579769926172
0.3928211993147931,1.468981393929812
0.3928212293147931,1.472682205931921
0.3928212593147932,1.4763830179326
0.3928212893147932,1.468981393932537
0.3928213193147931,1.480083829937991
0.3928213493147931,1.47268220594052
0.3928213793147932,1.483784641940305
0.3928214093147931,1.472682205934845
0.3928214393147931,1.487485453940516
0.3928214693147932,1.491186265955717
0.3928214993147932,1.494887077955213
0.3928215293147931,1.487485453951573
0.3928215593147931,1.505989513952453
0.3928215893147932,1.494887077960319
0.3928216193147931,1.502288701963955
0.3928216493147931,1.505989513965945
0.3928216793147932,1.494887077953977
0.3928217093147932,1.491186265954663
0.3928217393147931,1.498587889958303
0.3928217693147931,1.502288701961234
0.3928217993147932,1.513391137979275
0.3928218293147931,1.520792761982912
0.3928218593147931,1.528194385986552
0.3928218893147932,1.524493573998268
0.3928219193147932,1.539296822000176
0.3928219493147931,1.531895197996539
0.3928219793147931,1.5244935739929
0.3928220093147932,1.531895197994432
0.3928220393147931,1.531895197994432
0.3928220693147931,1.539296821997971
0.3928220993147932,1.53929682200487
0.3928221293147932,1.542997634008602
0.3928221593147931,1.554100070014057
0.3928221893147931,1.550399258016209
0.3928222193147932,1.554100070018995
0.3928222493147931,1.557800882020791
0.3928222793147931,1.554100070018973
0.3928223093147932,1.565202506031301
0.3928223393147932,1.568903318030075
0.3928223693147931,1.561501694026435
0.3928223993147931,1.565202506025456
0.3928224293147932,1.565202506032376
0.3928224593147931,1.572604130035942
0.3928224893147931,1.576304942037762
0.3928225193147932,1.572604130038896
0.3928225493147932,1.576304942038563
0.3928225793147931,1.572604130036743
0.3928226093147931,1.580005754037765
0.3928226393147932,1.583706566047173
0.3928226693147931,1.583706566047173
0.3928226993147931,1.583706566047173
0.3928227293147932,1.580005754040323
0.3928227593147932,1.576304942038503
0.3928227893147931,1.572604130036684
0.3928228193147931,1.572604130035872
0.3928228493147932,1.565202506030476
0.3928228793147931,1.568903318032104
0.3928229093147931,1.568903318032104
0.3928229393147932,1.568903318022673
0.3928229693147932,1.557800882026786
0.3928229993147931,1.576304942035877
0.3928230293147931,1.568903318037503
0.3928230593147932,1.580005754039007
0.3928230893147932,1.572604130036376
0.3928231193147931,1.580005754040013
0.3928231493147932,1.580005754043406
0.3928231793147932,1.580005754043406
0.3928232093147931,1.580005754043406
0.3928232393147931,1.587407378045659
0.3928232693147932,1.568903318027584
0.3928232993147932,1.561501694025816
0.3928233293147931,1.576304942033095
0.3928233593147932,1.576304942055955
0.3928233893147932,1.594809002061107
0.3928234193147931,1.602210626064747
0.3928234493147931,1.598509814064822
0.3928234793147932,1.591108190052386
0.3928235093147932,1.58740737805094
0.3928235393147931,1.58740737805094
0.3928235693147932,1.591108190058031
0.3928235993147932,1.594809002059851
0.3928236293147931,1.598509814061669
0.3928236593147931,1.605911438064737
0.3928236893147932,1.598509814055103
0.3928237193147932,1.587407378050075
0.3928237493147931,1.580005754046439
0.3928237793147932,1.568903318038873
0.3928238093147932,1.576304942043945
0.3928238393147931,1.587407378049405
0.3928238693147931,1.594809002053557
0.3928238993147932,1.605911438069776
0.3928239293147932,1.605911438067803
0.3928239593147931,1.59110819006053
0.3928239893147931,1.587407378054343
0.3928240193147932,1.587407378053932
0.3928240493147931,1.594809002057572
0.3928240793147931,1.594809002058474
0.3928241093147932,1.583706566052175
0.3928241393147932,1.591108190055259
0.3928241693147931,1.594809002057079
0.3928241993147931,1.591108190058051
0.3928242293147932,1.576304942041195
