Versuch02/Csv_Files/2_3_e.csv

#Digilent WaveForms Oscilloscope Acquisition
#Device Name: Discovery2
#Serial Number: SN:210321AA2D13
#Date Time: 2023-11-30 14:11:29.505
#Sample rate: 2.5e+07Hz
#Samples: 8192
#Trigger: Source: Channel 1 Type: Edge Condition: Rising Level: 0 V Hyst.: Auto HoldOff: 0 s
#Channel 1: Range: 5 mV/div Offset: 0 V Attenuation: 1 X Sample Mode: Average
#Channel 2: Range: 5 mV/div Offset: 0 V Attenuation: 1 X Sample Mode: Average
#Wavegen Channel 1: Running
#Mode: Simple
#Type: Sine
#Frequency: 10 kHz
#Period: 100 us
#Amplitude: 15 mV
#Offset: 0 V
#Symmetry: 50 %
#Phase: 0 °
#Wavegen Channel 2: Enabled
#Mode: Simple
#Type: DC
#Offset: 0 V

Time (s),Channel 1 (V),Channel 2 (V)
0.39281218,-0.002106283894522499,-0.01216683496158107
0.39281222,-0.003452619287408829,-0.01319467517166727
0.39281226,-0.002106283895834535,-0.01319467517166727
0.3928123,-0.003452619287322808,-0.01319467517148171
0.39281234,-0.002779451591545763,-0.01285206176854016
0.39281238,-0.002779451591545763,-0.01353728857445505
0.39281242,-0.002106283895640148,-0.01387990197818294
0.39281246,-0.002779451591427294,-0.01456512878409752
0.3928125,-0.002779451592238209,-0.01353728857503993
0.39281254,-0.003789203135704645,-0.01387990197772457
0.39281258,-0.003452619287810919,-0.01250944836589478
0.39281262,-0.003789203135924593,-0.01285206176886828
0.39281266,-0.00412578698381832,-0.01353728857478317
0.3928127,-0.002442867744414738,-0.01387990197775137
0.39281274,-0.002779451591545763,-0.01353728857490875
0.39281278,-0.002779451591545763,-0.01387990197786619
0.39281282,-0.002779451591545763,-0.01319467517144868
0.39281286,-0.002779451591545763,-0.01285206176868287
0.3928129,-0.002779451591545763,-0.01422251538051203
0.39281294,-0.002779451591094387,-0.01387990197855531
0.39281298,-0.001769700047413667,-0.01525035559038447
0.39281302,-0.002106283895200251,-0.01627819579928408
0.39281306,-0.00176970004733331,-0.01525035559005573
0.3928131,-0.00176970004733331,-0.01353728857526927
0.39281314,-0.002442867744270249,-0.01285206176852956
0.39281318,-0.003789203135693471,-0.01285206176852956
0.39281322,-0.002779451592012292,-0.01285206176852956
0.39281326,-0.003116035439616581,-0.01216683496239094
0.3928133,-0.003116035439616581,-0.01250944836534838
0.39281334,-0.00412578698316919,-0.01182422155956421
0.39281338,-0.003116035439616581,-0.01319467517180968
0.39281342,-0.003116035439616581,-0.01387990197772457
0.39281346,-0.002442867743292191,-0.01456512878440414
0.3928135,-0.002106283895421118,-0.01490774218733276
0.39281354,-0.003116035439101838,-0.0135372885755036
0.39281358,-0.00277945159190117,-0.01250944836551244
0.39281362,-0.00378920313558189,-0.01285206176846973
0.39281366,-0.003452619287225156,-0.01353728857551077
0.3928137,-0.002779451591545763,-0.01456512878432811
0.39281374,-0.002779451591545763,-0.01525035559024269
0.39281378,-0.001769700047833819,-0.01387990197794269
0.39281382,-0.002779451591514539,-0.01387990197794269
0.39281386,-0.003116035439429082,-0.01422251538088954
0.3928139,-0.002442867743372548,-0.01525035559059776
0.39281394,-0.002106283895478822,-0.01559296899355521
0.39281398,-0.001096532351622082,-0.01490774218713676
0.39281402,-0.001769700047409228,-0.01456512878410219
0.39281406,-0.002442867743196682,-0.01353728857522985
0.3928141,-0.003116035439767346,-0.01250944836569878
0.39281414,-0.003452619287661072,-0.01319467517161368
0.39281418,-0.003116035439820152,-0.01353728857459776
0.39281422,-0.003789203135498778,-0.01490774218691568
0.39281426,-0.002779451591818058,-0.01319467517212923
0.3928143,-0.002106283895802392,-0.0142225153814858
0.39281434,-0.002779451591523723,-0.01490774218731095
0.39281438,-0.002442867743630149,-0.01422251538139637
0.39281442,-0.002106283895538975,-0.01387990197821722
0.39281446,-0.002442867743432548,-0.0145651287841318
0.3928145,-0.002779451591326274,-0.01422251538130382
0.39281454,-0.002779451591545763,-0.01456512878421811
0.39281458,-0.002779451591545763,-0.01456512878421811
0.39281462,-0.002779451591728977,-0.01456512878440461
0.39281466,-0.003116035439610612,-0.01490774218734974
0.3928147,-0.002779451591716885,-0.0145651287843923
0.39281474,-0.003116035439497806,-0.01387990197782179
0.39281478,-0.00277945159160408,-0.01353728857486434
0.39281482,-0.003452619287455818,-0.0152503555902578
0.39281486,-0.003116035439344133,-0.01490774218746675
0.3928149,-0.001433116199876266,-0.01559296899338133
0.39281494,-0.003116035439282297,-0.01422251538091026
0.39281498,-0.002442867743494843,-0.01387990197795282
0.39281502,-0.002779451591358723,-0.01353728857499537
0.39281506,-0.00277945159164862,-0.01216683496235884
0.3928151,-0.003116035439542194,-0.01250944836531613
0.39281514,-0.003116035439185256,-0.01353728857436593
0.39281518,-0.002442867743551782,-0.01285206176868599
0.39281522,-0.003116035439339235,-0.01422251538051577
0.39281526,-0.003116035439314133,-0.01319467517166727
0.3928153,-0.00244286774352668,-0.01319467517166727
0.39281534,-0.001769700047739533,-0.01353728857459823
0.39281538,-0.003116035439529796,-0.01319467517175561
0.39281542,-0.002779451591636069,-0.01353728857471306
0.39281546,-0.002106283896402083,-0.0128520617689359
0.3928155,-0.003789203135645717,-0.01353728857482788
0.39281554,-0.002106283896177849,-0.01387990197778518
0.39281558,-0.003452619287416788,-0.01319467517166727
0.39281562,-0.002779451591629641,-0.01319467517166727
0.39281566,-0.002442867743693975,-0.01319467517166727
0.3928157,-0.003116035439545714,-0.01387990197772628
0.39281574,-0.002779451591652141,-0.01285206176885441
0.39281578,-0.002779451591362091,-0.01525035558937175
0.39281582,-0.002442867743494232,-0.01319467517168036
0.39281586,-0.003452619287175411,-0.01387990197759525
0.3928159,-0.00244286774359418,-0.01319467517178864
0.39281594,-0.002779451591487906,-0.01353728857474609
0.39281598,-0.002779451592241883,-0.01285206176852956
0.39281602,-0.003789203135648624,-0.01285206176852956
0.39281606,-0.003116035439861172,-0.01285206176852956
0.3928161,-0.003789203135423013,-0.01387990197760148
0.39281614,-0.003116035439635561,-0.01319467517168659
0.39281618,-0.002779451591732497,-0.0135372885746149
0.39281622,-0.002442867743474946,-0.01353728857501531
0.39281626,-0.002442867743474946,-0.0142225153809299
0.3928163,-0.002779451591761732,-0.01353728857436531
0.39281634,-0.003116035439538826,-0.01285206176860871
0.39281638,-0.002442867743751679,-0.01353728857452329
0.39281642,-0.003116035439464898,-0.01353728857511378
0.39281646,-0.002779451591571325,-0.01422251538102836
0.3928165,-0.003116035439413929,-0.01319467517228612
0.39281654,-0.002779451591807497,-0.01422251538081398
0.39281658,-0.003789203135488676,-0.01319467517194164
0.39281662,-0.003116035439816631,-0.01353728857480498
0.39281666,-0.003452619287687399,-0.0135372885748282
0.3928167,-0.003452619287687399,-0.01387990197778564
0.39281674,-0.002779451591816987,-0.01387990197794269
0.39281678,-0.00345261928760444,-0.01387990197794269
0.39281682,-0.003116035439835305,-0.01422251538085776
0.39281686,-0.002442867743617598,-0.0149077421870654
0.3928169,-0.003116035439404745,-0.01353728857523624
0.39281694,-0.003452619287687399,-0.01422251538145495
0.39281698,-0.003452619287680511,-0.0149077421873418
0.39281702,-0.003116035439786784,-0.01422251538142691
0.39281706,-0.002779451591186683,-0.01422251538120224
0.3928171,-0.001769700047505963,-0.01456512878415953
0.39281714,-0.001769700047565809,-0.01490774218759248
0.39281718,-0.002106283895293618,-0.0152503555903248
0.39281722,-0.001433116199506165,-0.01422251538145246
0.39281726,-0.002106283895740249,-0.01387990197811376
0.3928173,-0.002779451591527396,-0.01422251538107105
0.39281734,-0.002779451591545763,-0.0142225153810804
0.39281738,-0.002106283895714994,-0.01422251538139684
0.39281742,-0.003116035439396174,-0.01525035559026918
0.39281746,-0.002442867743691373,-0.0142225153808601
0.3928175,-0.002779451591545763,-0.01387990197798273
0.39281754,-0.002779451591545763,-0.01422251538094002
0.39281758,-0.002779451591697752,-0.01353728857542383
0.39281762,-0.003116035439591479,-0.01490774218725361
0.39281766,-0.002442867743879332,-0.01525035559028772
0.3928177,-0.002442867743562649,-0.01593558239676895
0.39281774,-0.002779451591456223,-0.01593558239676895
0.39281778,-0.002779451591545763,-0.01593558239636075
0.39281782,-0.002779451591569029,-0.01525035559042249
0.39281786,-0.003116035439462755,-0.01422251538155015
0.3928179,-0.003789203135350003,-0.013537288575082
0.39281794,-0.002779451591668824,-0.01422251538099689
0.39281798,-0.003116035439398317,-0.01525035558982701
0.39281802,-0.002442867743403313,-0.01525035559049353
0.39281806,-0.002106283895509587,-0.01525035559049353
0.3928181,-0.002442867743843822,-0.01422251538051717
0.39281814,-0.003116035439623928,-0.01319467517170466
0.39281818,-0.003452619287517502,-0.01490774218649112
0.39281822,-0.002779451591665916,-0.01353728857504959
0.39281826,-0.00311603543955949,-0.01422251538096417
0.3928183,-0.003116035439849386,-0.01456512878421811
0.39281834,-0.003452619287575971,-0.01456512878427482
0.39281838,-0.002779451591788824,-0.01490774218723211
0.39281842,-0.002779451592219842,-0.01456512878353196
0.39281846,-0.004125786983794136,-0.0131946751717028
0.3928185,-0.00345261928805903,-0.01285206176871871
0.39281854,-0.0031160354395125,-0.01353728857501687
0.39281858,-0.002779451591618773,-0.01422251538093177
0.39281862,-0.003116035439399694,-0.0149077421866935
0.39281866,-0.002779451591545763,-0.01387990197814446
0.3928187,-0.002779451591545763,-0.01559296899293169
0.39281874,-0.003789203135453319,-0.01456512878359739
0.39281878,-0.003116035439665867,-0.01319467517176761
0.39281882,-0.003452619287485512,-0.01216683496287065
0.39281886,-0.003789203135846379,-0.01319467517166727
0.3928189,-0.004125786983739953,-0.01319467517166727
0.39281894,-0.004462370832100667,-0.01148160815516107
0.39281898,-0.004798954679970669,-0.01011115454371768
0.39281902,-0.004798954679970669,-0.01422251537920516
0.39281906,-0.002442867743474946,-0.01662080920221052
0.3928191,-0.002442867743474946,-0.01456512878446677
0.39281914,-0.003452619287033983,-0.0128520617696381
0.39281918,-0.004462370831899851,-0.01113899475320793
0.39281922,-0.004462370831899851,-0.01285206176799516
0.39281926,-0.003789203135203524,-0.01490774218773224
0.3928193,-0.00277945159153811,-0.01559296899362345
0.39281934,-0.002442867743644384,-0.015250355590666
0.39281938,-0.003452619288289692,-0.01216683496164106
0.39281942,-0.005135538527758324,-0.01045376794685383
0.39281946,-0.005472122374945982,-0.01216683496439113
0.3928195,-0.003789203135421177,-0.01525035559089379
0.39281954,-0.001769700048059736,-0.01764864941159482
0.39281958,-0.001769700047502136,-0.01730603600811684
0.39281962,-0.002106283895395863,-0.01490774218741471
0.39281966,-0.004125786982716895,-0.01182422156081452
0.3928197,-0.005135538527623325,-0.01216683496246697
0.39281974,-0.003789203136049031,-0.01285206176838155
0.39281978,-0.00412578698295965,-0.01422251538085916
0.39281982,-0.002779451591625967,-0.01387990197782023
0.39281986,-0.00345261928741342,-0.01285206176894789
0.3928199,-0.003789203135452401,-0.01285206176884086
0.39281994,-0.003116035439664948,-0.01353728857475575
0.39281998,-0.003116035439616581,-0.01525035558946835
0.39282002,-0.002442867743828822,-0.0149077421869956
0.39282006,-0.003789203135403728,-0.01353728857516582
0.3928201,-0.003452619287486124,-0.01422251538046576
0.39282014,-0.003116035439664948,-0.01319467517161804
0.39282018,-0.003789203135452095,-0.01250944836570346
0.39282022,-0.003789203135484543,-0.01285206176908671
0.39282026,-0.003116035439697091,-0.0142225153809165
0.3928203,-0.003116035439616581,-0.01387990197816393
0.39282034,-0.003116035439689132,-0.01387990197779499
0.39282038,-0.003452619287582705,-0.01319467517188041
0.39282042,-0.003116035439616581,-0.01387990197756534
0.39282046,-0.003116035439624693,-0.01319467517172507
0.3928205,-0.00345261928751842,-0.0155929689924272
0.39282054,-0.002779451591545763,-0.01456512878409503
0.39282058,-0.002779451591545763,-0.01422251538113758
0.39282062,-0.003789203135057964,-0.01285206176947996
0.39282066,-0.00311603543972954,-0.01319467517155229
0.3928207,-0.003789203135516992,-0.0125094483656374
0.39282074,-0.004125786983829034,-0.01422251538142504
0.39282078,-0.004125786983829034,-0.01490774218733993
0.39282082,-0.003452619288057499,-0.01456512878440648
0.39282086,-0.004462370831479853,-0.01422251538118728
0.3928209,-0.00311603543990556,-0.01456512878414457
0.39282094,-0.003452619287905051,-0.01456512878399656
0.39282098,-0.003789203135717655,-0.0142225153810804
0.39282102,-0.003452619287824082,-0.0142225153810804
0.39282106,-0.003116035439616581,-0.01456512878390588
0.3928211,-0.003116035439616581,-0.0138799019779913
0.39282114,-0.00345261928748643,-0.01422251538087583
0.39282118,-0.00378920313558036,-0.01490774218762738
0.39282122,-0.003116035439792907,-0.01593558239649973
0.39282126,-0.002442867744281881,-0.01353728857521568
0.3928213,-0.003789203135807195,-0.01422251538110533
0.39282134,-0.004462370831594648,-0.01456512878406277
0.39282138,-0.003789203136032807,-0.01456512878421811
0.39282142,-0.00446237083182026,-0.01456512878421811
0.39282146,-0.003452619288338519,-0.01456512878421811
0.3928215,-0.003452619287687399,-0.01490774218743014
0.39282154,-0.003452619287687399,-0.01525035559038743
0.39282158,-0.004462370831899851,-0.01422251538070242
0.39282162,-0.004462370831908423,-0.01353728857482243
0.39282166,-0.004798954679801997,-0.01422251538073701
0.3928217,-0.004462370831778474,-0.01422251538145106
0.39282174,-0.004125786983884901,-0.01525035559032293
0.39282178,-0.003789203135991174,-0.01525035559049353
0.39282182,-0.003116035439730458,-0.01422251538096448
0.39282186,-0.003789203135517911,-0.01353728857504959
0.3928219,-0.003789203135758216,-0.01285206176939349
0.39282194,-0.003789203135758216,-0.01456512878417994
0.39282198,-0.00345261928787199,-0.0142225153812683
0.39282202,-0.004125786983723729,-0.01353728857523375
0.39282206,-0.003789203135830001,-0.01490774218706353
0.3928221,-0.003789203135758216,-0.01490774218735582
0.39282214,-0.003789203135676176,-0.0149077421871888
0.39282218,-0.003116035439889029,-0.01353728857535964
0.39282222,-0.003789203135911889,-0.0142225153810804
0.39282226,-0.004125786983805616,-0.0142225153810804
0.3928223,-0.004125786983829034,-0.01353728857521318
0.39282234,-0.003789203135758216,-0.01319467517203123
0.39282238,-0.003789203135758216,-0.01456512878386039
0.39282242,-0.002106283896415093,-0.01456512878380648
0.39282246,-0.003789203135758216,-0.01387990197794269
0.3928225,-0.003789203135758216,-0.01387990197794269
0.39282254,-0.004462370831899851,-0.01216683496253459
0.39282258,-0.004462370831899851,-0.01285206176844948
0.39282262,-0.004125786984045615,-0.01387990197728131
0.39282266,-0.004125786983975666,-0.01387990197794269
0.3928227,-0.004798954679763119,-0.01387990197794269
0.39282274,-0.003789203135758216,-0.01319467517204618
0.39282278,-0.003789203135767247,-0.01387990197795188
0.39282282,-0.004125786983660821,-0.01422251538090917
0.39282286,-0.003452619287931071,-0.01387990197794269
0.3928229,-0.004125786983718218,-0.01387990197794269
0.39282294,-0.004125786983829034,-0.0131946751721406
0.39282298,-0.004125786983714239,-0.01353728857474656
0.39282302,-0.003452619287927092,-0.01319467517178926
0.39282306,-0.004125786983318424,-0.01387990197776944
0.3928231,-0.003116035439637703,-0.01353728857481215
0.39282314,-0.003452619287503267,-0.01387990197775526
0.39282318,-0.003452619288004694,-0.0128520617684219
0.39282322,-0.004462370831685872,-0.01250944836546445
0.39282326,-0.004798954679314958,-0.01250944836605931
0.3928233,-0.003789203135799542,-0.01353728857484705
0.39282334,-0.004125786983693269,-0.0138799019778045
0.39282338,-0.003452619287687399,-0.01353728857464809
0.39282342,-0.003452619287687399,-0.01319467517169064
0.39282346,-0.004798954679169856,-0.01319467517166727
0.3928235,-0.004462370831810005,-0.01250944836557476
0.39282354,-0.004125786983916432,-0.01319467517148934
0.39282358,-0.004125786983626535,-0.01422251538087427
0.39282362,-0.003789203135732808,-0.01387990197794269
0.39282366,-0.003452619287839235,-0.01387990197794269
0.3928237,-0.004462370831623424,-0.01319467517180796
0.39282374,-0.003789203135836277,-0.01353728857476525
0.39282378,-0.003789203135758216,-0.01319467517188726
0.39282382,-0.004125786983681484,-0.01387990197794269
0.39282386,-0.00345261928789403,-0.01387990197794269
0.3928239,-0.00345261928806056,-0.01353728857480498
0.39282394,-0.00412578698383837,-0.01353728857480498
0.39282398,-0.004462370831732097,-0.01353728857480498
0.39282402,-0.003789203135513931,-0.01353728857492931
0.39282406,-0.003116035439726479,-0.01387990197788676
0.3928241,-0.002779451591777956,-0.01353728857504133
0.39282414,-0.00244286774359066,-0.01319467517184395
0.39282418,-0.003116035439377806,-0.01422251538071582
0.39282422,-0.003116035439616581,-0.01422251538177466
0.39282426,-0.003116035439616581,-0.01559296899360444
0.3928243,-0.003452619287503573,-0.01525035559068065
0.39282434,-0.003116035439722805,-0.01490774218670706
0.39282438,-0.003452619287616379,-0.01285206176896332
0.39282442,-0.005135538527822457,-0.01285206176897547
0.39282446,-0.004798954679928884,-0.01353728857476245
0.3928245,-0.004462370832035157,-0.013194675171805
0.39282454,-0.00345261928784199,-0.0149077421870411
0.39282458,-0.003789203135735563,-0.01422251538112652
0.39282462,-0.003116035440016069,-0.01387990197814601
0.39282466,-0.003452619287867704,-0.01422251538117217
0.3928247,-0.004125786983655158,-0.01456512878412962
0.39282474,-0.003452619287687399,-0.01490774218694263
0.39282478,-0.003452619287739133,-0.01422251538115939
0.39282482,-0.004125786983526281,-0.01525035559003127
0.39282486,-0.004125786983413474,-0.01490774218777882
0.3928249,-0.003116035439732295,-0.01593558239665116
0.39282494,-0.003116035439616581,-0.01593558239676895
0.39282498,-0.003789203135980919,-0.01422251538077814
0.39282502,-0.004798954679661641,-0.01285206176894898
0.39282506,-0.00479895468015771,-0.01216683496263492
0.3928251,-0.005135538528012099,-0.01285206176851959
0.39282514,-0.00412578698433092,-0.01250944836556214
0.39282518,-0.005135538528164088,-0.01250944836514226
0.39282522,-0.005472122376057814,-0.01182422155922737
0.39282526,-0.005472122376112304,-0.01216683496201826
0.3928253,-0.005472122375879651,-0.01250944836556947
0.39282534,-0.004125786984304746,-0.0135372885744418
0.39282538,-0.003789203135758216,-0.01490774218683373
0.39282542,-0.003789203135758216,-0.01387990197796139
0.39282546,-0.004125786983645668,-0.01387990197794269
0.3928255,-0.00513553852782812,-0.01182422155900784
0.39282554,-0.004462370832040973,-0.01148160815605055
0.39282558,-0.003789203136416223,-0.01250944836583838
0.39282562,-0.00479895467988618,-0.01319467517162427
0.39282566,-0.004125786984099033,-0.01285206176866698
0.3928257,-0.00479895468012572,-0.01319467517119379
0.39282574,-0.005135538528019293,-0.01216683496232192
0.39282578,-0.005135538528041487,-0.01182422155931929
0.39282582,-0.00547212237593108,-0.01182422155948537
0.39282586,-0.004798954680143628,-0.01319467517131516
0.3928259,-0.004462370832510104,-0.01285206176811544
0.39282594,-0.00547212237608613,-0.01216683496217421
0.39282598,-0.005135538528192404,-0.01113899475330188
0.39282602,-0.005472122376251283,-0.01216683496225414
0.39282606,-0.00580870622414501,-0.01216683496225414
0.3928261,-0.004462370832761277,-0.01250944836517264
0.39282614,-0.004798954679970669,-0.01285206176845353
0.39282618,-0.004798954679970669,-0.01250944836549624
0.39282622,-0.004462370831899851,-0.01285206176795746
0.39282626,-0.004462370831889596,-0.01182422155912687
0.3928263,-0.004125786983996023,-0.01216683496208416
0.39282634,-0.005135538527918426,-0.01216683496262994
0.39282638,-0.004798954680024853,-0.01319467517150181
0.39282642,-0.004125786984291583,-0.01285206176876498
0.39282646,-0.004462370831958474,-0.01250944836533218
0.3928265,-0.004798954679852201,-0.01216683496237473
0.39282654,-0.004125786984000462,-0.01216683496242864
