Versuch02/Csv_Files/2_3_l_e.csv

#Digilent WaveForms Oscilloscope Acquisition
#Device Name: Discovery2
#Serial Number: SN:210321AA2D13
#Date Time: 2023-11-30 14:36:51.892
#Sample rate: 2.5e+07Hz
#Samples: 8192
#Trigger: Source: Channel 1 Type: Edge Condition: Rising Level: 0 V Hyst.: Auto HoldOff: 0 s
#Channel 1: Range: 5 mV/div Offset: 0 V Attenuation: 1 X Sample Mode: Average
#Channel 2: Range: 200 mV/div Offset: 0 V Attenuation: 1 X Sample Mode: Average
#Wavegen Channel 1: Running
#Mode: Simple
#Type: Sine
#Frequency: 10 kHz
#Period: 100 us
#Amplitude: 15 mV
#Offset: 0 V
#Symmetry: 50 %
#Phase: 0 °
#Wavegen Channel 2: Enabled
#Mode: Simple
#Type: DC
#Offset: 0 V

Time (s),Channel 1 (V),Channel 2 (V)
0.392812176,0.001259554585524455,-0.9447605183098308
0.392812216,0.0009229707374421582,-0.9344821162077637
0.392812256,0.001932722281122878,-0.9286576883574897
0.392812296,0.001596138433010275,-0.9313985955853685
0.392812336,0.0009229707372332305,-0.9399639306592887
0.392812376,0.0009229707372332305,-0.9475014255243526
0.392812416,0.001596138433610885,-0.9512701729629568
0.392812456,0.002269306129398032,-0.9519553997688714
0.392812496,0.00159613843314405,-0.9519553997713415
0.392812536,0.001259554585250477,-0.9553815338014052
0.392812576,0.0009229707373567504,-0.9618911884575967
0.392812616,0.001596138433042112,-0.9639468688779651
0.392812656,0.000922970737254659,-0.9622338018631779
0.392812696,0.00125955458511609,-0.960178121445445
0.392812736,0.000586386889468228,-0.9601781214459573
0.392812776,0.001596138433149407,-0.9656599358932764
0.392812816,-8.67808065497343e-05,-0.9694286833292338
0.392812856,0.0005863868892377188,-0.9697712967317313
0.392812896,0.001259554585024865,-0.966002549299201
0.392812936,0.0009229707370827719,-0.9612059616521786
0.392812976,0.0005863868891891986,-0.9577798276226057
0.392813016,0.0009229707370293537,-0.9591502812340538
0.392813056,0.001259554585304048,-0.9632616420728867
0.392813096,0.001259554585304048,-0.9646320956847158
0.392813136,0.001259554585304048,-0.9646320956838729
0.392813176,0.001259554585260885,-0.9625764152661732
0.392813216,0.000586386889473432,-0.9612059616543434
0.392813256,0.001259554585169661,-0.9622338018640809
0.392813296,0.0009229707372759344,-0.9646320956847829
0.392813336,0.0009229707372332305,-0.9673730029083978
0.392813376,0.0002498030413014413,-0.9680582297163932
0.392813416,0.001259554584982621,-0.9677156163134357
0.392813456,0.001596138433374866,-0.9670303895061211
0.392813496,0.001596138433369202,-0.9653173224913743
0.392813536,0.001259554585475629,-0.9660025492972888
0.392813576,0.001596138433374866,-0.9660025492969145
0.392813616,0.001596138433374866,-0.9639468688791708
0.392813656,0.001596138433143744,-0.96360425547638
0.392813696,0.001259554585358078,-0.9646320956850872
0.392813736,0.001596138433251652,-0.9646320956850872
0.392813776,0.001259554585304048,-0.964289482280591
0.392813816,0.001259554585304048,-0.9615485750569326
0.392813856,0.0005863868895374114,-0.9574372142214856
0.392813896,0.0009229707374380255,-0.9526406265742251
0.392813936,0.001596138433225478,-0.9492144925446506
0.392813976,0.0009229707370180273,-0.9502423327554941
0.392814016,0.000586386889238331,-0.9536684667847578
0.392814056,0.001259554585025784,-0.9543536935906728
0.392814096,0.001259554585304048,-0.9526406265731189
0.392814136,0.001259554585304048,-0.9478440389317146
0.392814176,0.000922970737436801,-0.9447605183049651
0.392814216,0.001596138433115428,-0.9420196110781746
0.392814256,0.0005863868894347077,-0.9427048378840891
0.392814296,0.001596138432976602,-0.9433900646905493
0.392814336,0.0009229707372332305,-0.9433900646904596
0.392814376,0.0009229707372332305,-0.9420196110786304
0.392814416,0.001596138433509712,-0.9396213172553481
0.392814456,0.001932722281403286,-0.9379082502405618
0.392814496,0.001259554585743026,-0.9355099564199459
0.392814536,0.0005863868893032287,-0.9351673430150291
0.392814576,0.001259554585090682,-0.9341395028061569
0.392814616,0.001259554584937621,-0.9331116625962315
0.392814656,0.000586386889180321,-0.9327690491932742
0.392814696,0.0015961384328615,-0.9324264357903167
0.392814736,0.001259554585185273,-0.9317412089836253
0.392814776,0.0009229707372915466,-0.9310559821777104
0.392814816,0.001596138432911704,-0.9341395028074813
0.392814856,0.0009229707372332305,-0.9365377966283498
0.392814896,0.0009229707372332305,-0.9399639306579226
0.392814936,0.001259554585805475,-0.9440752914980156
0.392814976,0.002269306129486654,-0.9464735853187177
0.392815016,0.0009229707379813908,-0.9464735853187887
0.392815056,0.001259554585406905,-0.9475014255280971
0.392815096,0.001596138433300478,-0.9471588121251397
0.392815136,0.001596138433159203,-0.9451031317066769
0.392815176,0.001259554585342466,-0.9457883585127478
0.392815216,0.001596138433236193,-0.9478440389304925
0.392815256,0.001596138432921194,-0.9509275595603486
0.392815296,0.0005863868892400147,-0.9526406265751357
0.392815336,0.001259554584897825,-0.9519553997694055
0.392815376,0.0005863868893359836,-0.9492144925431836
0.392815416,0.001259554585123437,-0.9464735853195241
0.392815456,0.00125955458570323,-0.944417904898337
0.392815496,0.001932722281378184,-0.9416769976748378
0.392815536,0.0009229707376974632,-0.9413343842718805
0.392815576,0.0005863868891624129,-0.9413343842721362
0.392815616,0.0005863868891624129,-0.942362224481008
0.392815656,0.0005863868891624129,-0.9413343842723919
0.392815696,0.001259554585304048,-0.9396213172553852
0.392815736,0.001259554585304048,-0.9365377966287697
0.392815776,0.0009229707374169032,-0.9358525698220805
0.392815816,0.001259554585304048,-0.9368804100309656
0.392815856,0.001259554585304048,-0.9385934770457527
0.392815896,0.001596138432897929,-0.9403065440621885
0.392815936,0.000249803041323023,-0.939963930659231
0.392815976,0.0002498030417877149,-0.9368804100280984
0.392816016,0.001259554585249252,-0.9327690491927783
0.392816056,0.0009229707373555259,-0.9296855285661612
0.392816096,0.001259554584801244,-0.9266020079369721
0.392816136,0.0002498030411200644,-0.9269446213399295
0.392816176,0.0009229707368597626,-0.9269446213399392
0.392816216,0.001259554585200732,-0.9252315543233042
0.392816256,0.0009229707373071587,-0.9221480336966885
0.392816296,0.000922970737017262,-0.9207775800819216
0.392816336,0.0005863868892401677,-0.9183792862611798
0.392816376,0.001259554585027314,-0.9156383790375215
0.392816416,0.0005863868894657791,-0.9142679254239984
0.392816456,0.001259554585252926,-0.9146105388269556
0.392816496,0.0009229707374358827,-0.914953152229913
0.392816536,0.0005863868894241466,-0.9132400852130986
0.392816576,0.001596138433105326,-0.9081008841687369
0.392816616,0.001596138433174815,-0.901591229505916
0.392816656,0.001259554585281242,-0.8985077088795325
0.392816696,0.0009229707373875156,-0.89885032228249
0.392816736,0.001259554585168436,-0.8988503222833373
0.392816776,0.0009229707372747099,-0.9005633892981244
0.392816816,0.0002498030415290425,-0.9012486161041656
0.392816856,0.0009229707373045568,-0.9002207758950527
0.392816896,0.00125955458519813,-0.899535549089138
0.392816936,0.0009229707374172093,-0.8978224820730466
0.392816976,0.00125955458529716,-0.8974798686700332
0.392817016,0.0009229707374034338,-0.8943963480434161
0.392817056,0.0009229707374726173,-0.8923406676231523
0.392817096,0.001596138433259764,-0.8926832810261096
0.392817136,0.001259554585304048,-0.8947389614449944
0.392817176,0.001259554585304048,-0.8947389614446569
0.392817216,0.001259554585304048,-0.8926832810269123
0.392817256,0.000922970737401291,-0.8902849872033489
0.392817296,0.001259554585294864,-0.8885719201885625
0.392817336,0.0005863868895349624,-0.8858310129649309
0.392817376,0.0009229707372332305,-0.8841179459477255
0.392817416,0.0009229707372332305,-0.8841179459477255
0.392817456,0.001596138433158438,-0.8844605593493211
0.392817496,0.001259554585382721,-0.8820622655283786
0.392817536,0.001932722281169868,-0.8776082912899339
0.392817576,0.001932722281141705,-0.8704134098208246
0.392817616,0.001259554585354252,-0.8673298891942076
0.392817656,0.001932722281041297,-0.8673298891939777
0.392817696,0.0009229707374963416,-0.8663020489844753
0.392817736,0.001932722281177062,-0.865959435581518
0.392817776,0.001596138433174356,-0.8680151160027024
0.392817816,0.001259554585350579,-0.8721264768382372
0.392817856,0.001932722281138032,-0.8769230644796414
0.392817896,0.001259554585440119,-0.8779509046901386
0.392817936,0.001596138433333845,-0.8752099974664791
0.392817976,0.001596138433374866,-0.8704134098253274
0.392818016,0.001259554585590578,-0.8659594355814998
0.392818056,0.002605889977165483,-0.8663020489844572
0.392818096,0.001596138433374866,-0.8673298891967938
0.392818136,0.001596138433382213,-0.8724690902411106
0.392818176,0.001932722281275786,-0.8755526108677263
0.392818216,0.001932722281325531,-0.8752099974652889
0.392818256,0.001596138433431957,-0.8728117036445878
0.392818296,0.001932722281212878,-0.8687003428053437
0.392818336,0.001596138433263437,-0.8669872757910668
0.392818376,0.0009229707374762907,-0.868357729402896
0.392818416,0.00260588997691324,-0.8700707964194224
0.392818456,0.001259554585338946,-0.8707560232253371
0.392818496,0.002605889976844056,-0.8690429562106119
0.392818536,0.001932722281549765,-0.8652742087744099
0.392818576,0.002269306129443491,-0.8628759149537077
0.392818616,0.001259554585954709,-0.8618480747437743
0.392818656,0.002269306129437215,-0.861848074743734
0.392818696,0.001596138433649763,-0.8615054613407765
0.392818736,0.002269306129364052,-0.8594497809193274
0.392818776,0.001932722281470326,-0.8539679664720083
0.392818816,0.001596138433576753,-0.8498566056364205
0.392818856,0.001259554585480374,-0.8467730850046382
0.392818896,0.001932722281267521,-0.8426617241691507
0.392818936,0.002269306128914054,-0.8409486571515564
0.392818976,0.001259554585375221,-0.8395782035398958
0.392819016,0.002269306129055942,-0.8406060437487675
0.392819056,0.002269306129379971,-0.8392355901366855
0.392819096,0.001932722281486398,-0.8392355901366855
0.392819136,0.001932722281445683,-0.8368372963162735
0.392819176,0.002605889977371044,-0.8330685488793995
0.392819216,0.001596138433689864,-0.8292998014468677
0.392819256,0.002269306129331604,-0.8251884406074748
0.392819296,0.00193272228143803,-0.824160600398634
0.392819336,0.001596138433544304,-0.8245032138015914
0.392819376,0.002269306129275583,-0.8231327601877417
0.392819416,0.001596138433488131,-0.8190213993522524
0.392819456,0.001932722281445683,-0.8152526519144339
0.392819496,0.001932722281501857,-0.811483904482188
0.392819536,0.00226930612939543,-0.8094282240644441
0.392819576,0.000922970737739708,-0.8090856106612545
0.392819616,0.001932722281420887,-0.8104560642730843
0.392819656,0.001932722281445683,-0.8101134508701688
0.392819696,0.001596138433270325,-0.8066873168377517
0.392819736,0.001259554585376752,-0.8039464096140935
0.392819776,0.001932722281445683,-0.799835048774079
0.392819816,0.001932722281485785,-0.7970941415506247
0.392819856,0.002269306129379511,-0.7960663013417524
0.392819896,0.001596138433527773,-0.7960663013414897
0.392819936,0.0019327222814215,-0.7964089147444471
0.392819976,0.001932722281445683,-0.795038461132741
0.392820016,0.001932722281268745,-0.7926401673094167
0.392820056,0.001259554585481292,-0.7905844868916719
0.392820096,0.002942473824853038,-0.790241873486354
0.392820136,0.001596138433350682,-0.7875009662625714
0.392820176,0.001259554585457109,-0.7830469920241265
0.392820216,0.002269306129653337,-0.7803060847964424
0.392820256,0.002605889977547063,-0.7789356311846124
0.392820296,0.001932722281880375,-0.7803060847961145
0.392820336,0.002269306129516501,-0.7809913116028318
0.392820376,0.002269306129516501,-0.7789356311850879
0.392820416,0.002269306129331144,-0.7755094971519394
0.392820456,0.001932722281461908,-0.7734538167342286
0.392820496,0.002605889977249361,-0.7727685899283139
0.392820536,0.001596138433616702,-0.7737964301371368
0.392820576,0.002269306129404155,-0.7731112033312219
0.392820616,0.001932722281679101,-0.7720833631224071
0.392820656,0.002269306129516501,-0.7700276827023507
0.392820696,0.002269306129516501,-0.7669441620757338
0.392820736,0.001932722281445683,-0.7645458682526648
0.392820776,0.001932722281445683,-0.7645458682526648
0.392820816,0.001596138433559916,-0.763860641446766
0.392820856,0.001932722281655682,-0.7638606414463893
0.392820896,0.002605889977442829,-0.7638606414463893
0.392820936,0.001596138433374866,-0.7614623476226531
0.392820976,0.001596138433496549,-0.7587214403992411
0.392821016,0.002605889977177269,-0.7580362135933265
0.392821056,0.001596138433834966,-0.7570083733830106
0.392821096,0.002605889977515686,-0.7556379197711816
0.392821136,0.001932722281847621,-0.7549526929652181
0.392821176,0.001932722281445683,-0.7532396259493014
0.392821216,0.001932722281445683,-0.7539248527552163
0.392821256,0.001596138432971398,-0.7518691723341053
0.392821296,0.0009229707372577202,-0.7477578114988173
0.392821336,0.001259554585151447,-0.7463873578869875
0.392821376,0.001596138433512161,-0.7429612238545699
0.392821416,0.001932722281405888,-0.7419333836456975
0.392821456,0.001932722281445683,-0.7426186104514095
0.392821496,0.001596138433374866,-0.7453595176767301
0.392821536,0.001596138433374866,-0.7443316774678582
0.392821576,0.002269306129145176,-0.7405629300317021
0.392821616,0.001596138433357723,-0.7381646362110437
0.392821656,0.0009229707375705761,-0.7374794094051291
0.392821696,0.001259554585182671,-0.73576634238885
0.392821736,0.0009229707372890976,-0.7350811155829354
0.392821776,0.001596138432908949,-0.7357663423886228
0.392821816,0.001259554585304048,-0.737479409404438
0.392821856,0.001259554585304048,-0.7354237289866933
0.392821896,0.001259554585134304,-0.7337106619683703
0.392821936,0.0009229707372407304,-0.72994191453584
0.392821976,0.001259554585119457,-0.7268583939092078
0.392822016,0.001259554585409354,-0.7244601000849096
0.392822056,0.00159613843330308,-0.722404419667165
0.392822096,0.002269306129080278,-0.7210339660537316
0.392822136,0.001596138433415886,-0.7203487392473574
0.392822176,0.001932722281309459,-0.7158947650089127
0.392822216,0.002605889976818954,-0.7134964711827997
0.392822256,0.000922970737350322,-0.708357270138438
0.392822296,0.001259554585103539,-0.7039032958999435
0.392822336,0.001932722281356296,-0.6997919350592737
0.392822376,0.001596138433462723,-0.6984214814474445
0.392822416,0.002269306129112115,-0.6977362546408113
0.392822456,0.001596138433424764,-0.6977362546408368
0.392822496,0.002269306129212216,-0.6980788680437942
0.392822536,0.00159613843351262,-0.6963658010269985
0.392822576,0.001932722281406347,-0.6932822804003815
0.392822616,0.001596138433591447,-0.6908839865796004
0.392822656,0.002269306129589817,-0.6847169453211307
0.392822696,0.002605889977483543,-0.682661264903386
0.392822736,0.001932722281445683,-0.6809481978863058
0.392822776,0.001932722281454714,-0.6795777442744576
0.392822816,0.002269306129348287,-0.6775220638567139
0.392822856,0.001932722281445683,-0.6758089968395019
0.392822896,0.001932722281445683,-0.6744385432276727
0.392822936,0.001596138433607365,-0.6727254762129419
0.392822976,0.001596138433374866,-0.6720402494051325
0.392823016,0.001596138433374866,-0.6699845689873889
0.392823056,0.00193272228127548,-0.6706697957922393
0.392823096,0.001596138433381907,-0.6692993421804101
0.392823136,0.001932722281261551,-0.6665584349567792
0.392823176,0.001932722281339919,-0.6631323009226108
0.392823216,0.001596138433446192,-0.6590209400871214
0.392823256,0.001932722281227113,-0.6559374194575658
0.392823296,0.001596138433374866,-0.6552521926518196
0.392823336,0.001596138433374866,-0.6559374194577343
0.392823376,0.002269306129362369,-0.6562800328619329
0.392823416,0.001932722281468642,-0.6579930998767202
0.392823456,0.001932722281445683,-0.6614192339061762
0.392823496,0.001596138433464712,-0.6679288885666417
0.392823536,0.001932722281358286,-0.6634749143281969
0.392823576,0.001932722281243184,-0.6504556050030665
0.392823616,0.00159613843332405,-0.6425754967355883
0.392823656,0.0009229707375369027,-0.6418902699296738
0.392823696,0.001259554585442262,-0.6473720843805529
0.392823736,0.001596138433335835,-0.6497703782012539
0.392823776,0.002269306129084258,-0.6425754967402599
0.392823816,0.002942473825436811,-0.6322970946402322
0.392823856,0.001932722281755631,-0.6264726667899555
0.392823896,0.002605889977027576,-0.6302414142287601
0.392823936,0.001596138433393539,-0.6412050431232222
0.392823976,0.002269306129180992,-0.6460016307646266
0.392824016,0.001596138433741293,-0.6425754967310399
0.392824056,0.002605889977422472,-0.6298988008216144
0.392824096,0.002269306129748694,-0.6189351719267014
0.392824136,0.00327905767361324,-0.616879491500783
0.392824176,0.002605889977826093,-0.6196203987244413
0.392824216,0.002605889977587319,-0.6254448265785811
0.392824256,0.002605889977587319,-0.6251022131756235
0.392824296,0.002605889977587319,-0.6223613059520121
0.392824336,0.00260588997737487,-0.6199630121281187
0.392824376,0.001932722281587724,-0.6185925585162896
0.392824416,0.00226930612973553,-0.6189351719173546
0.392824456,0.002605889977545533,-0.6161942646936112
0.392824496,0.002269306129651806,-0.6127681306640367
0.392824536,0.002605889977432727,-0.604888022388761
0.392824576,0.002269306129539154,-0.6011192749562309
0.392824616,0.002942473825258648,-0.6011192749559772
0.392824656,0.002942473825748289,-0.6031749553748953
0.392824696,0.003279057673642016,-0.6035175687778527
0.392824736,0.002605889977587319,-0.5994062079376029
0.392824776,0.002605889977587319,-0.5949522336991825
0.392824816,0.002605889977587319,-0.590840872863695
0.392824856,0.002605889977725838,-0.5901556460562755
0.392824896,0.002942473825619565,-0.5918687130710628
0.392824936,0.001932722282092671,-0.5928965532800136
0.392824976,0.002605889977290381,-0.5901556460545881
0.392825016,0.001259554585716087,-0.5857016718161434
0.392825056,0.002605889977400278,-0.5829607645904402
0.392825096,0.002269306129506705,-0.5843312182022793
0.392825136,0.001932722281612979,-0.5860442852170665
0.392825176,0.002605889977219514,-0.589127805846407
0.392825216,0.001596138433538334,-0.5898130326523219
0.392825256,0.00193272228121395,-0.5870721254292182
0.392825296,0.001932722281503846,-0.5833033779925795
0.392825336,0.002269306129397573,-0.5819329243807497
0.392825376,0.002269306129345532,-0.5809050841712003
0.392825416,0.001932722281451806,-0.5815903109771153
0.392825456,0.0009229707377833303,-0.5815903109771278
0.392825496,0.001259554585410731,-0.5788494037515917
0.392825536,0.001596138433304305,-0.5774789501397626
0.392825576,0.00125955458574272,-0.576451109929169
0.392825616,0.001932722281403439,-0.5750806563170382
0.392825656,0.001596138433509865,-0.571311908884508
0.392825696,0.0022693061292064,-0.5661727078337213
0.392825736,0.001596138433419253,-0.5613761201923192
0.392825776,0.002269306129117931,-0.5582925995655892
0.392825816,0.001259554585213436,-0.5582925995641325
0.392825856,0.0009229707373197098,-0.5596630531759622
0.392825896,0.001596138433781701,-0.5579499861583481
0.392825936,0.002269306129464154,-0.5541812387256847
0.392825976,0.001596138433676701,-0.5486994242783656
0.392826016,0.001596138433374866,-0.5432176098234407
0.392826056,0.001596138433374866,-0.5377357953761216
0.392826096,0.001932722281230327,-0.5360227283609085
0.392826136,0.001596138433374866,-0.5367079551661639
0.392826176,0.001596138433374866,-0.5370505685691211
0.392826216,0.0009229707372332305,-0.5349948881503992
0.392826256,0.0009229707372434855,-0.5349948881503992
0.392826296,0.001259554585137059,-0.5349948881503992
0.392826336,0.00226930612927038,-0.5346522747466352
0.392826376,0.001596138433483233,-0.5329392077318488
0.392826416,0.002269306129053952,-0.5308835273141592
0.392826456,0.001596138433374866,-0.5301983005060537
0.392826496,0.001596138433374866,-0.5278000066853514
0.392826536,0.001259554585646904,-0.5291704602958367
0.392826576,0.001932722281434051,-0.5267721664751356
0.392826616,0.001932722281445683,-0.5236886458485305
0.392826656,0.001596138433374866,-0.5209477386204463
0.392826696,0.001596138433374866,-0.5168363777849569
