Versuch05/Csv_Files/5_2_u_analog12.csv

#Digilent WaveForms Oscilloscope Acquisition
#Device Name: Discovery2
#Serial Number: SN:210321AA2D13
#Date Time: 2024-02-01 11:03:42.560
#Sample rate: 5e+07Hz
#Samples: 8192
#Trigger: Source: Digital
#Channel 1: Range: 1 V/div Offset: 0 V Attenuation: 1 X Sample Mode: Average
#Channel 2: Range: 1 V/div Offset: 0 V Attenuation: 1 X Sample Mode: Average
#Wavegen Channel 1: Enabled
#Mode: Simple
#Type: Square
#Frequency: 25 kHz
#Period: 40 us
#Amplitude: 2.5 V
#Offset: 2.5 V
#Symmetry: 50 %
#Phase: 0 °

Time (s),Channel 1 (V),Channel 2 (V)
-9.950000000000001e-05,1.154412373610181,2.220918081931488
-9.948e-05,1.176617245632785,2.228450560500826
-9.946e-05,1.198822117655396,2.228450560500828
-9.944000000000001e-05,1.217326177674215,2.232216799785493
-9.942000000000001e-05,1.24693267370436,2.232216799785495
-9.94e-05,1.265436733723197,2.232216799785495
-9.938e-05,1.2876416057458,2.232216799785495
-9.936000000000001e-05,1.298744041757096,2.247281756924163
-9.934000000000001e-05,1.328350537787238,2.24728175692417
-9.932e-05,1.346854597806074,2.251047996208838
-9.93e-05,1.357957033817376,2.254814235493507
-9.928e-05,1.394965153855052,2.251047996208841
-9.926000000000001e-05,1.406067589866349,2.258580474778175
-9.924000000000001e-05,1.428272461888952,2.266112953347514
-9.922e-05,1.446776521907788,2.262346714062844
-9.92e-05,1.465280581926629,2.243515517639509
-9.918000000000001e-05,1.47638301793792,2.262346714062836
-9.916000000000001e-05,1.498587889960528,2.273645431916851
-9.914e-05,1.520792761983131,2.266112953347514
-9.912e-05,1.53929682200197,2.26987919263218
-9.910000000000001e-05,1.546698446009498,2.266112953347515
-9.908000000000001e-05,1.568903318032104,2.277411671201519
-9.906e-05,1.598509814062242,2.262346714062844
-9.904e-05,1.609612250073543,2.284944149770856
-9.902000000000001e-05,1.642919558107433,2.266112953347522
-9.900000000000001e-05,1.639218746103681,2.281177910486188
-9.898e-05,1.665124430130051,2.281177910486188
-9.896e-05,1.694730926160188,2.281177910486188
-9.894e-05,1.705833362171493,2.273645431916851
-9.892000000000001e-05,1.713234986179024,2.273645431916851
-9.890000000000001e-05,1.746542294212929,2.281177910486188
-9.888e-05,1.750243106216696,2.281177910486188
-9.886e-05,1.76874716623554,2.281177910486188
-9.884000000000001e-05,1.787251226254359,2.281177910486188
-9.882000000000001e-05,1.790952038258134,2.288710389055526
-9.88e-05,1.80945609827697,2.284944149770856
-9.878e-05,1.827960158295811,2.281177910486194
-9.876000000000001e-05,1.839062594307103,2.292476628340189
-9.874000000000001e-05,1.861267466329711,2.288710389055526
-9.872e-05,1.887173150356081,2.288710389055526
-9.87e-05,1.876070714344779,2.292476628340194
-9.868000000000001e-05,1.901976398371138,2.296242867624861
-9.866000000000001e-05,1.920480458389985,2.288710389055526
-9.864e-05,1.931582894401287,2.284944149770856
-9.862e-05,1.946386142416356,2.284944149770856
-9.86e-05,1.953787766423892,2.284944149770858
-9.858000000000001e-05,1.957488578427657,2.288710389055526
-9.856000000000001e-05,1.97969345045026,2.284944149770856
-9.854e-05,1.990795886461561,2.296242867624863
-9.852e-05,2.020402382491699,2.296242867624861
-9.850000000000001e-05,2.020402382491699,2.292476628340194
-9.848000000000001e-05,2.046308066518069,2.281177910486188
-9.846e-05,2.057410502529371,2.300009106909531
-9.844e-05,2.064812126536915,2.284944149770862
-9.842000000000001e-05,2.087016998559498,2.296242867624858
-9.840000000000001e-05,2.101820246574576,2.292476628340194
-9.838e-05,2.098119434570809,2.300009106909531
-9.836e-05,2.120324306593412,2.300009106909531
-9.834000000000001e-05,2.127725930600943,2.300009106909531
-9.832000000000001e-05,2.142529178616015,2.292476628340194
-9.83e-05,2.161033238634851,2.300009106909531
-9.828e-05,2.157332426631084,2.292476628340194
-9.826e-05,2.179537298653694,2.292476628340197
-9.824000000000001e-05,2.194340546668756,2.300009106909531
-9.822e-05,2.209143794683824,2.292476628340194
-9.82e-05,2.216545418691358,2.292476628340194
-9.818e-05,2.238750290713962,2.292476628340194
-9.816000000000001e-05,2.238750290713962,2.292476628340194
-9.814000000000001e-05,2.257254350732798,2.300009106909531
-9.812e-05,2.264655974740332,2.3037753461942
-9.81e-05,2.268356786744106,2.292476628340196
-9.808000000000001e-05,2.283160034759161,2.296242867624861
-9.806000000000001e-05,2.294262470770469,2.300009106909531
-9.804e-05,2.301664094778003,2.292476628340194
-9.802e-05,2.316467342793072,2.296242867624863
-9.800000000000001e-05,2.327569778804369,2.296242867624863
-9.798000000000001e-05,2.334971402811908,2.288710389055526
-9.796e-05,2.342373026819442,2.292476628340194
-9.794e-05,2.357176274834511,2.277411671201519
-9.792000000000001e-05,2.353475462830746,2.292476628340187
-9.790000000000001e-05,2.375680334853347,2.284944149770856
-9.788e-05,2.394184394872183,2.288710389055526
-9.786e-05,2.390483582868415,2.281177910486188
-9.784e-05,2.412688454891022,2.292476628340189
-9.782000000000001e-05,2.420090078898553,2.281177910486188
-9.780000000000001e-05,2.431192514909855,2.277411671201519
-9.778e-05,2.431192514909855,2.273645431916851
-9.776e-05,2.438594138917399,2.281177910486182
-9.774000000000001e-05,2.460799010939982,2.26611295334752
-9.772000000000001e-05,2.471901446951293,2.262346714062844
-9.77e-05,2.468200634947526,2.251047996208838
-9.768e-05,2.475602258955069,2.258580474778172
-9.766000000000001e-05,2.494106318973888,2.251047996208841
-9.764000000000001e-05,2.50150794298143,2.251047996208838
-9.762e-05,2.520012003000267,2.21715184264682
-9.76e-05,2.516311190996499,2.209619364077483
-9.758000000000001e-05,2.520012003000265,2.194554406938815
-9.756000000000001e-05,2.54221687502287,2.194554406938808
-9.754e-05,2.538516063019102,2.179489449800133
-9.752e-05,2.549618499030404,2.15689201409212
-9.75e-05,2.557020123037947,2.149359535522775
-9.748000000000001e-05,2.575524183056774,2.13052833909944
-9.746000000000001e-05,2.579224995060541,2.119229621245434
-9.744e-05,2.582925807064308,2.107930903391428
-9.742e-05,2.59402824307561,2.077800989114068
-9.740000000000001e-05,2.59402824307561,2.055203553406076
-9.738000000000001e-05,2.601429867083144,2.025073639128716
-9.736e-05,2.608831491090679,1.998709964136035
-9.734e-05,2.627335551109518,1.968580049858674
-9.732000000000001e-05,2.634737175117045,1.942216374866017
-9.730000000000001e-05,2.642138799124583,1.919618939157993
-9.728e-05,2.638437987120816,1.889489024880643
-9.726e-05,2.649540423132117,1.836761674895281
-9.724000000000001e-05,2.653241235135883,1.802865521333278
-9.722000000000001e-05,2.668044483150953,1.78403432490992
-9.72e-05,2.675446107158487,1.750138171347901
-9.718e-05,2.686548543169789,1.704943299931877
-9.716e-05,2.682847731166027,1.674813385654508
-9.714000000000001e-05,2.693950167177323,1.633384753523172
-9.712000000000001e-05,2.690249355173556,1.595722360676485
-9.71e-05,2.705052603188625,1.561826207114466
-9.708e-05,2.708753415192392,1.531696292837088
-9.706000000000001e-05,2.708753415192392,1.467670224997778
-9.704000000000001e-05,2.723556663207461,1.441306550005068
-9.702e-05,2.727257475211228,1.384812960735037
-9.7e-05,2.730958287214999,1.350916807172997
-9.698000000000001e-05,2.738359911222526,1.301955696472348
-9.696000000000001e-05,2.749462347233831,1.271825782194976
-9.694e-05,2.756863971241365,1.222864671494283
-9.692e-05,2.742060723226297,1.177669800078259
-9.690000000000001e-05,2.760564783245124,1.136241167946922
-9.688000000000001e-05,2.764265595248899,1.091046296530879
-9.686e-05,2.764265595248899,1.042085185830186
-9.684e-05,2.771667219256434,0.9931240751294926
-9.682e-05,2.775368031260199,0.9479292037134459
-9.680000000000001e-05,2.771667219256434,0.8989680930127751
-9.678000000000001e-05,2.786470467271502,0.8575394608814195
-9.676e-05,2.786470467271502,0.8274095466040698
-9.674e-05,2.801273715286573,0.7784484359033544
-9.672000000000001e-05,2.804974527290337,0.729487325202706
-9.670000000000001e-05,2.812376151297873,0.6842924537866593
-9.668e-05,2.804974527290339,0.6353313430859662
-9.666e-05,2.819777775305407,0.5788377538159152
-9.664000000000001e-05,2.819777775305407,0.5336428823999319
-9.662000000000001e-05,2.838281835324243,0.5110454466918991
-9.66e-05,2.827179399312941,0.4319544217138565
-9.658e-05,2.834581023320476,0.3942920288671695
-9.656000000000001e-05,2.838281835324241,0.3528633967358326
-9.654000000000001e-05,2.84198264732801,0.3114347646044581
-9.652e-05,2.838281835324243,0.2700061324731023
-9.65e-05,2.845683459331777,0.2172787824877406
-9.648e-05,2.85678589534308,0.1645514325023565
-9.646000000000001e-05,2.860486707346846,0.1155903218016857
-9.644e-05,2.856785895343079,0.0779279289549987
-9.642e-05,2.864187519350613,0.02520057896963691
-9.64e-05,2.878990767365678,-0.02752677101574372
-9.638000000000001e-05,2.871589143358147,-0.06895540314708057
-9.636000000000001e-05,2.882691579369449,-0.1216827531324424
-9.634e-05,2.893794015380751,-0.1706438638331355
-9.632e-05,2.89009320337698,-0.21207249596451
-9.630000000000001e-05,2.882691579369452,-0.253501128095828
-9.628000000000001e-05,2.890093203376983,-0.3099947173658774
-9.626e-05,2.886392391373216,-0.351423349497233
-9.624e-05,2.897494827384518,-0.3966182209132574
-9.622000000000001e-05,2.890093203376987,-0.4531118101832622
-9.620000000000001e-05,2.897494827384518,-0.502072920883981
-9.618e-05,2.908597263395819,-0.5435015530153366
-9.616e-05,2.919699699407121,-0.5962289030006985
-9.614e-05,2.915998887403355,-0.6376575351320747
-9.612000000000001e-05,2.919699699407121,-0.6828524065480785
-9.61e-05,2.923400511410888,-0.7431122351027778
-9.608e-05,2.915998887403354,-0.7996058243728082
-9.606e-05,2.91599888740336,-0.8372682172195124
-9.604000000000001e-05,2.930802135418422,-0.8749306100661822
-9.602000000000001e-05,2.930802135418422,-0.9238917207668753
-9.6e-05,2.941904571429724,-0.9690865921828997
-9.598e-05,2.938203759425955,-1.025580181452951
-9.596000000000001e-05,2.934502947422191,-1.070775052868934
-9.594000000000001e-05,2.930802135418422,-1.127268642138985
-9.592e-05,2.930802135418422,-1.176229752839678
-9.59e-05,2.923400511410888,-1.217658384971034
-9.588000000000001e-05,2.93820375942595,-1.266619495671705
-9.586000000000001e-05,2.938203759425956,-1.308048127803083
-9.584e-05,2.927101323414655,-1.353242999219107
-9.582e-05,2.938203759425956,-1.4022041099198
-9.580000000000001e-05,2.945605383433487,-1.454931459905138
-9.578000000000001e-05,2.956707819444792,-1.500126331321186
-9.576e-05,2.945605383433491,-1.537788724167873
-9.574e-05,2.953007007441025,-1.586749834868566
-9.572e-05,2.956707819444792,-1.631944706284615
-9.570000000000001e-05,2.956707819444792,-1.684672056269953
-9.568000000000001e-05,2.960408631448559,-1.72233444911664
-9.566e-05,2.956707819444792,-1.771295559817333
-9.564e-05,2.96040863144857,-1.805191713379373
-9.562000000000001e-05,2.982613503471152,-1.854152824080022
-9.560000000000001e-05,2.971511067459861,-1.8955814562114
-9.558e-05,2.982613503471162,-1.95207504548143
-9.556e-05,2.975211879463626,-1.978438720474133
-9.554000000000001e-05,2.971511067459863,-2.027399831174782
-9.552000000000001e-05,2.964109443452327,-2.06882846330616
-9.55e-05,2.967810255456094,-2.129088291860859
-9.548e-05,2.975211879463628,-2.162984445422877
-9.546000000000001e-05,2.982613503471159,-2.204413077554214
-9.544000000000001e-05,2.98631431547493,-2.245841709685589
-9.542e-05,2.98631431547493,-2.294802820386282
-9.54e-05,2.98631431547493,-2.336231452517637
-9.538e-05,2.986314315474942,-2.373893845364345
-9.536000000000001e-05,3.0122199995013,-2.419088716780349
-9.534000000000001e-05,2.990015127478697,-2.460517348911705
-9.532e-05,3.001117563489998,-2.494413502473723
-9.53e-05,3.001117563490003,-2.550907091743767
-9.528000000000001e-05,3.012219999501295,-2.581037006021089
-9.526000000000001e-05,3.001117563489998,-2.607400681013784
-9.524e-05,3.008519187497533,-2.645063073860471
-9.522e-05,3.012219999501298,-2.68272546670718
-9.520000000000001e-05,3.008519187497535,-2.731686577407829
-9.518000000000001e-05,3.015920811505067,-2.758050252400532
-9.516e-05,3.008519187497533,-2.788180166677882
-9.514e-05,3.0122199995013,-2.833375038093906
-9.512000000000001e-05,3.019621623508831,-2.867271191655909
-9.510000000000001e-05,3.023322435512601,-2.901167345217942
-9.508e-05,3.023322435512601,-2.919998541641286
-9.506e-05,3.023322435512601,-2.957660934487973
-9.504e-05,3.034424871523905,-2.984024609480668
-9.502000000000001e-05,3.03812568352767,-3.014154523758004
-9.500000000000001e-05,3.034424871523903,-3.029219480896678
-9.498e-05,3.03812568352767,-3.070648113028034
-9.496e-05,3.034424871523909,-3.089479309451387
-9.494000000000001e-05,3.049228119538965,-3.112076745159379
-9.492000000000001e-05,3.056629743546506,-3.134674180867401
-9.49e-05,3.049228119538971,-3.164804095144752
-9.488e-05,3.052928931542742,-3.176102812998773
-9.486000000000001e-05,3.060330555550269,-3.20999896656076
-9.484000000000001e-05,3.052928931542739,-3.225063923699451
-9.482e-05,3.06403136755404,-3.2551938379768
-9.48e-05,3.071432991561574,-3.258960077261469
-9.478000000000001e-05,3.071432991561574,-3.289089991538805
-9.476000000000001e-05,3.067732179557807,-3.307921187962162
-9.474e-05,3.082535427572876,-3.330518623670175
-9.472e-05,3.097338675587945,-3.345583580808849
-9.47e-05,3.082535427572874,-3.371947255801535
-9.468000000000001e-05,3.078834615569109,-3.383245973655536
-9.466000000000001e-05,3.089937051580411,-3.402077170078879
-9.464e-05,3.097338675587945,-3.43220708435623
-9.462e-05,3.097338675587953,-3.439739562925574
-9.460000000000001e-05,3.115842735606772,-3.454804520064235
-9.458000000000001e-05,3.119543547610548,-3.473635716487585
-9.456e-05,3.126945171618082,-3.477401955772254
-9.454e-05,3.130645983621849,-3.4962331521956
-9.452000000000001e-05,3.130645983621849,-3.503765630764931
-9.450000000000001e-05,3.141748419633151,-3.507531870049603
-9.448e-05,3.149150043640685,-3.518830587903609
-9.446e-05,3.156551667648219,-3.533895545042284
-9.444000000000001e-05,3.149150043640689,-3.541428023611618
-9.442000000000001e-05,3.163953291655754,-3.560259220034965
-9.44e-05,3.152850855644452,-3.552726741465627
-9.438e-05,3.167654103659521,-3.556492980750297
-9.436e-05,3.189858975682122,-3.571557937888966
-9.434000000000001e-05,3.186158163678357,-3.560259220034965
-9.432e-05,3.189858975682124,-3.571557937888971
-9.43e-05,3.189858975682124,-3.564025459319634
-9.428e-05,3.197260599689662,-3.564025459319632
-9.426000000000001e-05,3.204662223697193,-3.560259220034965
-9.424000000000001e-05,3.215764659708494,-3.571557937888971
-9.422e-05,3.219465471712261,-3.575324177173639
-9.42e-05,3.215764659708496,-3.582856655742979
-9.418000000000001e-05,3.219465471712259,-3.586622895027644
-9.416000000000001e-05,3.230567907723563,-3.575324177173639
-9.414e-05,3.249071967742398,-3.582856655742977
-9.412e-05,3.249071967742398,-3.582856655742977
-9.410000000000001e-05,3.249071967742398,-3.582856655742977
-9.408000000000001e-05,3.263875215757467,-3.575324177173639
-9.406e-05,3.263875215757467,-3.582856655742977
-9.404e-05,3.271276839765002,-3.594155373596983
-9.402000000000001e-05,3.278678463772533,-3.582856655742982
-9.400000000000001e-05,3.293481711787605,-3.579090416458309
-9.398e-05,3.289780899783838,-3.571557937888971
-9.396e-05,3.282379275776303,-3.582856655742977
-9.394e-05,3.293481711787608,-3.582856655742979
-9.392000000000001e-05,3.300883335795139,-3.586622895027646
-9.390000000000001e-05,3.315686583810208,-3.582856655742977
-9.388e-05,3.315686583810208,-3.575324177173639
-9.386e-05,3.315686583810209,-3.586622895027642
-9.384000000000001e-05,3.319387395813973,-3.579090416458312
-9.382000000000001e-05,3.326789019821509,-3.586622895027646
-9.38e-05,3.337891455832811,-3.571557937888971
-9.378e-05,3.341592267836578,-3.571557937888971
-9.376000000000001e-05,3.341592267836578,-3.590389134312306
-9.374000000000001e-05,3.356395515851646,-3.582856655742977
-9.372e-05,3.360096327855413,-3.571557937888971
-9.37e-05,3.367497951862948,-3.579090416458309
-9.368000000000001e-05,3.360096327855417,-3.594155373596977
-9.366000000000001e-05,3.371198763866715,-3.586622895027646
-9.364e-05,3.37860038787425,-3.582856655742977
-9.362e-05,3.382301199878017,-3.594155373596983
-9.36e-05,3.382301199878023,-3.579090416458312
-9.358000000000001e-05,3.397104447893085,-3.586622895027646
-9.356000000000001e-05,3.400805259896853,-3.590389134312314
-9.354e-05,3.400805259896853,-3.575324177173639
-9.352e-05,3.39710444789309,-3.575324177173643
-9.350000000000001e-05,3.408206883904382,-3.582856655742973
-9.348000000000001e-05,3.408206883904387,-3.575324177173639
-9.346e-05,3.411907695908154,-3.582856655742977
-9.344e-05,3.41190769590815,-3.579090416458315
-9.342000000000001e-05,3.404506071900623,-3.594155373596977
-9.340000000000001e-05,3.397104447893085,-3.597921612881652
-9.338e-05,3.397104447893085,-3.582856655742977
-9.336e-05,3.408206883904387,-3.582856655742977
-9.334000000000001e-05,3.378600387874263,-3.582856655742977
-9.332000000000001e-05,3.360096327855413,-3.575324177173639
-9.33e-05,3.337891455832811,-3.575324177173639
-9.328e-05,3.31198577180644,-3.575324177173639
-9.326e-05,3.256473591749918,-3.575324177173645
-9.324000000000001e-05,3.223166283716028,-3.586622895027646
-9.322000000000001e-05,3.152850855644452,-3.575324177173639
-9.32e-05,3.067732179557807,-3.579090416458309
-9.318e-05,2.971511067459816,-3.586622895027641
-9.316000000000001e-05,2.871589143358193,-3.575324177173645
-9.314000000000001e-05,2.756863971241365,-3.564025459319634
-9.312e-05,2.61993392710198,-3.590389134312314
-9.31e-05,2.479303070958765,-3.57909041645831
-9.308000000000001e-05,2.342373026819505,-3.582856655742975
-9.306000000000001e-05,2.190639734664988,-3.594155373596983
-9.304e-05,2.038906442510535,-3.571557937888971
-9.302e-05,1.872369902341012,-3.571557937888971
-9.300000000000001e-05,1.709534174175331,-3.575324177173638
-9.298000000000001e-05,1.546698446009501,-3.582856655742977
-9.296e-05,1.380161905839979,-3.582856655742977
-9.294e-05,1.202522929659155,-3.579090416458309
-9.292e-05,1.043388013497094,-3.571557937888978
-9.290000000000001e-05,0.8842530973351781,-3.586622895027646
-9.288000000000001e-05,0.6955116851430525,-3.590389134312314
-9.286e-05,0.5141718969584613,-3.579090416458309
-9.284e-05,0.32543048476626,-3.590389134312308
-9.282000000000001e-05,0.1588939445968889,-3.575324177173646
-9.280000000000001e-05,-0.02244584358777812,-3.582856655742977
-9.278e-05,-0.1815807597497664,-3.575324177173639
-9.276e-05,-0.3518181119231369,-3.582856655742979
-9.274000000000001e-05,-0.5294570881037994,-3.586622895027644
-9.272000000000001e-05,-0.6885920042658684,-3.579090416458309
-9.27e-05,-0.8588293564391581,-3.571557937888971
-9.268e-05,-1.003161024586078,-3.579090416458309
-9.266000000000001e-05,-1.158595128744228,-3.575324177173641
-9.264000000000001e-05,-1.284422736872382,-3.567791698604302
-9.262e-05,-1.417651969008001,-3.594155373596983
-9.26e-05,-1.521274705113481,-3.582856655742977
-9.258e-05,-1.635999877230316,-3.586622895027638
-9.256000000000001e-05,-1.750725049347046,-3.567791698604302
-9.254000000000001e-05,-1.835843725433691,-3.579090416458309
-9.252e-05,-1.917261589516568,-3.567791698604302
-9.25e-05,-1.987577017588178,-3.586622895027639
-9.248000000000001e-05,-2.061593257663454,-3.571557937888978
-9.246000000000001e-05,-2.131908685735064,-3.575324177173639
-9.244e-05,-2.20222411380664,-3.567791698604302
-9.242e-05,-2.254035481859411,-3.567791698604306
-9.240000000000001e-05,-2.320650097927159,-3.575324177173636
-9.238000000000001e-05,-2.339154157946026,-3.564025459319634
-9.236e-05,-2.357658217964862,-3.564025459319634
-9.234e-05,-2.368760653976163,-3.556492980750297
-9.232000000000001e-05,-2.38726471399499,-3.552726741465629
-9.230000000000001e-05,-2.394666338002533,-3.556492980750297
-9.228e-05,-2.390965525998766,-3.552726741465627
-9.226e-05,-2.405768774013834,-3.537661784326953
-9.224e-05,-2.402067962010067,-3.548960502180951
-9.222000000000001e-05,-2.402067962010067,-3.530129305757615
-9.22e-05,-2.413170398021369,-3.515064348618941
