Versuch01/1_5_d_ohne.csv

#Digilent WaveForms Oscilloscope Acquisition
#Device Name: Discovery2
#Serial Number: SN:210321AA2D13
#Date Time: 2023-11-09 17:37:57.482
#Sample rate: 240385Hz
#Samples: 8192
#Trigger: Source: Channel 1 Type: Edge Condition: Rising Level: 0 V Hyst.: Auto HoldOff: 0 s
#Channel 1: Range: 600 mV/div Offset: -1.14 V Attenuation: 1 X Sample Mode: Average
#Wavegen Channel 1: Running
#Mode: Simple
#Type: Sine
#Frequency: 50 Hz
#Period: 20 ms
#Amplitude: 5 V
#Offset: 0 V
#Symmetry: 50 %
#Phase: 0 °

Time (s),Channel 1 (V)
-0.01426048444620089,3.133272960548667
-0.01425632444620089,3.133272960548667
-0.01425216444620089,3.133272960548667
-0.01424800444620089,3.133272960548667
-0.01424384444620089,3.129572148544901
-0.01423968444620089,3.1295721485449
-0.01423552444620088,3.1295721485449
-0.01423136444620089,3.129572148544898
-0.01422720444620089,3.125871336541132
-0.01422304444620089,3.1295721485449
-0.01421888444620089,3.1295721485449
-0.01421472444620089,3.125871336541132
-0.01421056444620089,3.125871336541132
-0.01420640444620089,3.125871336541132
-0.01420224444620089,3.129572148544898
-0.01419808444620088,3.125871336541131
-0.01419392444620089,3.122170524537365
-0.01418976444620089,3.122170524537365
-0.01418560444620089,3.118469712533598
-0.01418144444620089,3.125871336541132
-0.01417728444620089,3.122170524537365
-0.01417312444620089,3.122170524537365
-0.01416896444620089,3.122170524537365
-0.01416480444620088,3.118469712533602
-0.01416064444620089,3.125871336541131
-0.01415648444620089,3.122170524537365
-0.01415232444620089,3.118469712533598
-0.01414816444620089,3.118469712533598
-0.01414400444620089,3.122170524537365
-0.01413984444620089,3.1184697125336
-0.01413568444620089,3.118469712533598
-0.01413152444620088,3.114768900529831
-0.01412736444620089,3.114768900529831
-0.01412320444620089,3.114768900529831
-0.01411904444620089,3.114768900529831
-0.01411488444620089,3.114768900529831
-0.01411072444620089,3.114768900529831
-0.01410656444620089,3.107367276522297
-0.01410240444620089,3.111068088526062
-0.01409824444620088,3.111068088526064
-0.01409408444620089,3.111068088526064
-0.01408992444620089,3.111068088526064
-0.01408576444620089,3.111068088526064
-0.01408160444620089,3.111068088526064
-0.01407744444620089,3.111068088526064
-0.01407328444620089,3.107367276522297
-0.01406912444620089,3.103666464518531
-0.01406496444620089,3.107367276522295
-0.01406080444620088,3.107367276522295
-0.01405664444620089,3.103666464518529
-0.01405248444620089,3.103666464518529
-0.01404832444620089,3.099965652514762
-0.01404416444620089,3.096264840510995
-0.01404000444620089,3.099965652514762
-0.01403584444620089,3.103666464518527
-0.01403168444620089,3.103666464518529
-0.01402752444620088,3.096264840510995
-0.01402336444620089,3.096264840510995
-0.01401920444620089,3.096264840510995
-0.01401504444620089,3.096264840510995
-0.01401088444620089,3.092564028507228
-0.01400672444620089,3.092564028507228
-0.01400256444620089,3.092564028507228
-0.01399840444620089,3.092564028507228
-0.01399424444620088,3.092564028507226
-0.01399008444620089,3.088863216503459
-0.01398592444620089,3.085162404499694
-0.01398176444620089,3.08886321650346
-0.01397760444620089,3.08886321650346
-0.01397344444620089,3.08886321650346
-0.01396928444620089,3.08886321650346
-0.01396512444620089,3.085162404499695
-0.01396096444620089,3.085162404499694
-0.01395680444620089,3.081461592495926
-0.01395264444620089,3.081461592495926
-0.01394848444620089,3.081461592495926
-0.01394432444620089,3.077760780492159
-0.01394016444620089,3.077760780492159
-0.01393600444620089,3.077760780492159
-0.01393184444620089,3.074059968488394
-0.01392768444620089,3.074059968488392
-0.01392352444620088,3.077760780492158
-0.01391936444620089,3.074059968488394
-0.01391520444620089,3.077760780492159
-0.01391104444620089,3.074059968488392
-0.01390688444620089,3.070359156484625
-0.01390272444620089,3.074059968488392
-0.01389856444620089,3.070359156484627
-0.01389440444620089,3.062957532477094
-0.01389024444620088,3.062957532477091
-0.01388608444620089,3.062957532477091
-0.01388192444620089,3.062957532477091
-0.01387776444620089,3.062957532477091
-0.01387360444620089,3.062957532477091
-0.01386944444620089,3.062957532477091
-0.01386528444620089,3.059256720473325
-0.01386112444620089,3.055555908469558
-0.01385696444620088,3.055555908469556
-0.01385280444620089,3.055555908469554
-0.01384864444620089,3.051855096465789
-0.01384448444620089,3.051855096465789
-0.01384032444620089,3.051855096465789
-0.01383616444620089,3.048154284462022
-0.01383200444620089,3.051855096465789
-0.01382784444620089,3.048154284462024
-0.01382368444620089,3.048154284462022
-0.01381952444620088,3.044453472458256
-0.01381536444620089,3.048154284462022
-0.01381120444620089,3.044453472458255
-0.01380704444620089,3.040752660454487
-0.01380288444620089,3.040752660454487
-0.01379872444620089,3.040752660454487
-0.01379456444620089,3.037051848450722
-0.01379040444620089,3.03705184845072
-0.01378624444620088,3.03705184845072
-0.01378208444620089,3.037051848450719
-0.01377792444620089,3.033351036446953
-0.01377376444620089,3.033351036446953
-0.01376960444620089,3.033351036446953
-0.01376544444620089,3.033351036446953
-0.01376128444620089,3.029650224443188
-0.01375712444620089,3.029650224443186
-0.01375296444620088,3.025949412439419
-0.01374880444620089,3.025949412439417
-0.01374464444620089,3.022248600435652
-0.01374048444620089,3.022248600435652
-0.01373632444620089,3.022248600435652
-0.01373216444620089,3.022248600435652
-0.01372800444620089,3.018547788431885
-0.01372384444620089,3.018547788431885
-0.01371968444620088,3.014846976428117
-0.01371552444620089,3.014846976428116
-0.01371136444620089,3.01114616442435
-0.01370720444620089,3.014846976428117
-0.01370304444620089,3.007445352420583
-0.01369888444620089,3.01114616442435
-0.01369472444620089,3.007445352420583
-0.01369056444620089,3.003744540416817
-0.01368640444620089,3.003744540416815
-0.01368224444620088,3.003744540416815
-0.01367808444620089,3.003744540416815
-0.01367392444620089,3.003744540416815
-0.01366976444620089,3.000043728413049
-0.01366560444620089,2.996342916409281
-0.01366144444620089,2.992642104405514
-0.01365728444620089,2.996342916409279
-0.01365312444620089,2.992642104405516
-0.01364896444620088,2.992642104405514
-0.01364480444620089,2.992642104405513
-0.01364064444620089,2.988941292401747
-0.01363648444620089,2.988941292401747
-0.01363232444620089,2.988941292401747
-0.01362816444620089,2.98524048039798
-0.01362400444620089,2.981539668394214
-0.01361984444620089,2.981539668394213
-0.01361568444620088,2.985240480397978
-0.01361152444620089,2.981539668394211
-0.01360736444620089,2.977838856390446
-0.01360320444620089,2.977838856390446
-0.01359904444620089,2.974138044386678
-0.01359488444620089,2.970437232382912
-0.01359072444620089,2.970437232382912
-0.01358656444620089,2.970437232382912
-0.01358240444620088,2.97043723238291
-0.01357824444620088,2.966736420379144
-0.01357408444620089,2.966736420379144
-0.01356992444620089,2.963035608375377
-0.01356576444620089,2.95933479637161
-0.01356160444620089,2.95933479637161
-0.01355744444620089,2.963035608375377
-0.01355328444620089,2.955633984367846
-0.01354912444620089,2.955633984367843
-0.01354496444620088,2.955633984367841
-0.01354080444620089,2.951933172364075
-0.01353664444620089,2.951933172364075
-0.01353248444620089,2.948232360360308
-0.01352832444620089,2.948232360360308
-0.01352416444620089,2.944531548356541
-0.01352000444620089,2.940830736352776
-0.01351584444620089,2.937129924349009
-0.01351168444620088,2.940830736352774
-0.01350752444620089,2.940830736352772
-0.01350336444620089,2.937129924349007
-0.01349920444620089,2.93342911234524
-0.01349504444620089,2.93342911234524
-0.01349088444620089,2.93342911234524
-0.01348672444620089,2.93342911234524
-0.01348256444620089,2.929728300341474
-0.01347840444620088,2.929728300341471
-0.01347424444620089,2.926027488337704
-0.01347008444620089,2.922326676333938
-0.01346592444620089,2.922326676333938
-0.01346176444620089,2.922326676333938
-0.01345760444620089,2.918625864330171
-0.01345344444620089,2.918625864330171
-0.01344928444620089,2.918625864330171
-0.01344512444620089,2.914925052326406
-0.01344096444620088,2.907523428318871
-0.01343680444620089,2.911224240322636
-0.01343264444620089,2.90752342831887
-0.01342848444620089,2.903822616315102
-0.01342432444620089,2.903822616315102
-0.01342016444620089,2.900121804311335
-0.01341600444620089,2.900121804311335
-0.01341184444620089,2.896420992307569
-0.01340768444620088,2.896420992307568
-0.01340352444620089,2.896420992307566
-0.01339936444620089,2.892720180303801
-0.01339520444620089,2.892720180303801
-0.01339104444620089,2.889019368300033
-0.01338688444620089,2.889019368300033
-0.01338272444620089,2.889019368300033
-0.01337856444620089,2.885318556296268
-0.01337440444620088,2.881617744292497
-0.01337024444620089,2.877916932288734
-0.01336608444620089,2.881617744292499
-0.01336192444620089,2.877916932288732
-0.01335776444620089,2.877916932288732
-0.01335360444620089,2.870515308281198
-0.01334944444620089,2.874216120284965
-0.01334528444620089,2.870515308281199
-0.01334112444620088,2.863113684273665
-0.01333696444620089,2.86681449627743
-0.01333280444620089,2.86681449627743
-0.01332864444620089,2.859412872269896
-0.01332448444620089,2.859412872269896
-0.01332032444620089,2.859412872269896
-0.01331616444620089,2.855712060266129
-0.01331200444620089,2.852011248262364
-0.01330784444620089,2.852011248262362
-0.01330368444620088,2.848310436258593
-0.01329952444620089,2.844609624254828
-0.01329536444620089,2.844609624254828
-0.01329120444620089,2.84090881225106
-0.01328704444620089,2.84090881225106
-0.01328288444620089,2.837208000247293
-0.01327872444620089,2.833507188243528
-0.01327456444620089,2.829806376239761
-0.01327040444620088,2.829806376239759
-0.01326624444620089,2.829806376239759
-0.01326208444620089,2.829806376239759
-0.01325792444620089,2.826105564235992
-0.01325376444620089,2.822404752232225
-0.01324960444620089,2.822404752232225
-0.01324544444620089,2.818703940228459
-0.01324128444620089,2.818703940228457
-0.01323712444620088,2.815003128224689
-0.01323296444620089,2.811302316220923
-0.01322880444620089,2.811302316220923
-0.01322464444620089,2.800199880209622
-0.01322048444620089,2.803900692213388
-0.01321632444620089,2.803900692213388
-0.01321216444620089,2.800199880209622
-0.01320800444620089,2.796499068205856
-0.01320384444620088,2.792798256202087
-0.01319968444620088,2.792798256202086
-0.01319552444620089,2.78909744419832
-0.01319136444620089,2.78909744419832
-0.01318720444620089,2.785396632194553
-0.01318304444620089,2.785396632194553
-0.01317888444620089,2.781695820190786
-0.01317472444620089,2.777995008187021
-0.01317056444620089,2.777995008187019
-0.01316640444620088,2.777995008187019
-0.01316224444620089,2.777995008187015
-0.01315808444620089,2.770593384179484
-0.01315392444620089,2.766892572175717
-0.01314976444620089,2.766892572175717
-0.01314560444620089,2.770593384179484
-0.01314144444620089,2.766892572175719
-0.01313728444620089,2.759490948168186
-0.01313312444620088,2.759490948168181
-0.01312896444620089,2.755790136164414
-0.01312480444620089,2.752089324160648
-0.01312064444620089,2.748388512156881
-0.01311648444620089,2.752089324160648
-0.01311232444620089,2.748388512156881
-0.01310816444620089,2.744687700153116
-0.01310400444620089,2.740986888149349
-0.01309984444620088,2.740986888149345
-0.01309568444620089,2.737286076145578
-0.01309152444620089,2.733585264141813
-0.01308736444620089,2.729884452138045
-0.01308320444620089,2.729884452138045
-0.01307904444620089,2.729884452138045
-0.01307488444620089,2.726183640134278
-0.01307072444620089,2.722482828130513
-0.01306656444620089,2.722482828130511
-0.01306240444620088,2.715081204122977
-0.01305824444620089,2.715081204122977
-0.01305408444620089,2.711380392119209
-0.01304992444620089,2.707679580115443
-0.01304576444620089,2.707679580115443
-0.01304160444620089,2.703978768111675
-0.01303744444620089,2.703978768111675
-0.01303328444620089,2.70027795610791
-0.01302912444620088,2.696577144104139
-0.01302496444620089,2.69287633210037
-0.01302080444620089,2.68547470809284
-0.01301664444620089,2.689175520096606
-0.01301248444620089,2.689175520096606
-0.01300832444620089,2.681773896089072
-0.01300416444620089,2.685474708092838
-0.01300000444620089,2.681773896089074
-0.01299584444620088,2.674372272081538
-0.01299168444620089,2.674372272081536
-0.01298752444620089,2.670671460077771
-0.01298336444620089,2.666970648074003
-0.01297920444620089,2.666970648074003
-0.01297504444620089,2.663269836070236
-0.01297088444620089,2.659569024066471
-0.01296672444620089,2.659569024066469
-0.01296256444620088,2.659569024066469
-0.01295840444620089,2.659569024066466
-0.01295424444620089,2.652167400058935
-0.01295008444620089,2.648466588055168
-0.01294592444620089,2.644765776051401
-0.01294176444620089,2.644765776051401
-0.01293760444620089,2.644765776051401
-0.01293344444620089,2.644765776051401
-0.01292928444620089,2.63736415204387
-0.01292512444620088,2.633663340040095
-0.01292096444620089,2.626261716032564
-0.01291680444620089,2.626261716032564
-0.01291264444620089,2.629962528036332
-0.01290848444620089,2.622560904028798
-0.01290432444620089,2.61886009202503
-0.01290016444620089,2.61886009202503
-0.01289600444620089,2.615159280021265
-0.01289184444620088,2.611458468017494
-0.01288768444620089,2.607757656013731
-0.01288352444620089,2.611458468017496
-0.01287936444620089,2.600356032006195
-0.01287520444620089,2.600356032006195
-0.01287104444620089,2.600356032006195
-0.01286688444620089,2.596655220002429
-0.01286272444620089,2.596655220002427
-0.01285856444620088,2.592954407998659
-0.01285440444620089,2.589253595994891
-0.01285024444620089,2.585552783991126
-0.01284608444620089,2.585552783991126
-0.01284192444620089,2.581851971987358
-0.01283776444620089,2.578151159983591
-0.01283360444620089,2.570749535976057
-0.01282944444620089,2.574450347979824
-0.01282528444620089,2.570749535976057
-0.01282112444620089,2.56704872397229
-0.01281696444620089,2.56704872397229
-0.01281280444620089,2.563347911968523
-0.01280864444620089,2.555946287960988
-0.01280448444620089,2.555946287960988
-0.01280032444620089,2.552245475957221
-0.01279616444620089,2.552245475957221
-0.01279200444620089,2.544843851949687
-0.01278784444620089,2.544843851949687
-0.01278368444620089,2.54114303994592
-0.01277952444620089,2.537442227942153
-0.01277536444620089,2.537442227942153
-0.01277120444620089,2.533741415938385
-0.01276704444620089,2.533741415938385
-0.01276288444620089,2.530040603934618
-0.01275872444620089,2.530040603934618
-0.01275456444620089,2.522638979927084
-0.01275040444620089,2.518938167923316
-0.01274624444620089,2.518938167923316
-0.01274208444620089,2.51523735591955
-0.01273792444620089,2.511536543915782
-0.01273376444620089,2.507835731912015
-0.01272960444620089,2.504134919908248
-0.01272544444620089,2.504134919908248
-0.01272128444620089,2.500434107904481
-0.01271712444620089,2.496733295900714
-0.01271296444620089,2.493032483896947
-0.01270880444620089,2.489331671893179
-0.01270464444620089,2.489331671893179
-0.01270048444620089,2.485630859889412
-0.01269632444620089,2.481930047885645
-0.01269216444620089,2.481930047885645
-0.01268800444620089,2.478229235881878
-0.01268384444620089,2.470827611874344
-0.01267968444620089,2.467126799870576
-0.01267552444620089,2.467126799870576
-0.01267136444620089,2.459725175863042
-0.01266720444620089,2.459725175863042
-0.01266304444620089,2.459725175863042
-0.01265888444620089,2.456024363859275
-0.01265472444620089,2.452323551855508
-0.01265056444620089,2.452323551855508
-0.01264640444620089,2.452323551855508
-0.01264224444620089,2.441221115844206
-0.01263808444620089,2.441221115844206
-0.01263392444620089,2.437520303840439
-0.01262976444620089,2.437520303840439
-0.01262560444620089,2.433819491836672
-0.01262144444620089,2.433819491836672
-0.01261728444620089,2.426417867829137
-0.01261312444620089,2.426417867829137
-0.01260896444620089,2.422717055825371
-0.01260480444620089,2.415315431817836
-0.01260064444620089,2.415315431817836
-0.01259648444620089,2.411614619814069
-0.01259232444620089,2.407913807810302
-0.01258816444620089,2.407913807810302
-0.01258400444620089,2.400512183802768
-0.01257984444620089,2.396811371799
-0.01257568444620089,2.393110559795233
-0.01257152444620089,2.393110559795233
-0.01256736444620089,2.389409747791466
-0.01256320444620089,2.385708935787699
-0.01255904444620089,2.382008123783931
-0.01255488444620089,2.382008123783931
-0.01255072444620089,2.374606499776397
-0.01254656444620089,2.374606499776397
-0.01254240444620089,2.37090568777263
-0.01253824444620089,2.363504063765096
-0.01253408444620089,2.363504063765096
-0.01252992444620089,2.356102439757561
-0.01252576444620089,2.359803251761329
-0.01252160444620089,2.356102439757561
-0.01251744444620089,2.352401627753794
-0.01251328444620089,2.348700815750027
-0.01250912444620089,2.337598379738726
-0.01250496444620089,2.337598379738726
-0.01250080444620089,2.333897567734958
-0.01249664444620089,2.333897567734958
-0.01249248444620089,2.326495943727424
-0.01248832444620089,2.330196755731191
-0.01248416444620089,2.322795131723657
-0.01248000444620089,2.319094319719889
-0.01247584444620089,2.319094319719889
-0.01247168444620089,2.311692695712355
-0.01246752444620089,2.311692695712355
-0.01246336444620089,2.304291071704821
-0.01245920444620089,2.300590259701054
-0.01245504444620089,2.300590259701054
-0.01245088444620089,2.300590259701054
-0.01244672444620089,2.289487823689752
-0.01244256444620089,2.293188635693519
-0.01243840444620089,2.285787011685985
-0.01243424444620089,2.285787011685985
-0.01243008444620089,2.278385387678451
-0.01242592444620089,2.274684575674684
-0.01242176444620089,2.274684575674684
-0.01241760444620089,2.267282951667149
-0.01241344444620089,2.267282951667149
-0.01240928444620089,2.267282951667149
-0.01240512444620089,2.263582139663382
-0.01240096444620089,2.256180515655848
-0.01239680444620089,2.252479703652081
-0.01239264444620089,2.248778891648313
-0.01238848444620089,2.245078079644546
-0.01238432444620089,2.241377267640779
-0.01238016444620089,2.245078079644546
-0.01237600444620089,2.237676455637012
-0.01237184444620089,2.237676455637012
-0.01236768444620089,2.230274831629478
-0.01236352444620089,2.230274831629478
-0.01235936444620089,2.222873207621944
-0.01235520444620089,2.215471583614409
-0.01235104444620089,2.219172395618176
-0.01234688444620089,2.215471583614409
-0.01234272444620089,2.211770771610642
-0.01233856444620089,2.204369147603107
-0.01233440444620089,2.20066833559934
-0.01233024444620089,2.20066833559934
-0.01232608444620089,2.193266711591806
-0.01232192444620089,2.193266711591806
-0.01231776444620089,2.193266711591806
-0.01231360444620089,2.185865087584272
-0.01230944444620089,2.185865087584272
-0.01230528444620089,2.182164275580504
-0.01230112444620089,2.182164275580504
-0.01229696444620089,2.178463463576737
-0.01229280444620089,2.17476265157297
-0.01228864444620089,2.163660215561669
-0.01228448444620089,2.163660215561669
-0.01228032444620089,2.159959403557902
-0.01227616444620089,2.159959403557902
-0.01227200444620089,2.152557779550367
-0.01226784444620089,2.152557779550367
-0.01226368444620089,2.141455343539065
-0.01225952444620089,2.141455343539065
-0.01225536444620089,2.137754531535299
-0.01225120444620089,2.134053719531531
-0.01224704444620089,2.134053719531531
-0.01224288444620089,2.126652095523997
-0.01223872444620089,2.12295128352023
-0.01223456444620089,2.119250471516462
-0.01223040444620089,2.119250471516462
-0.01222624444620089,2.111848847508928
-0.01222208444620089,2.111848847508928
-0.01221792444620089,2.104447223501394
-0.01221376444620089,2.100746411497627
-0.01220960444620089,2.097045599493859
-0.01220544444620089,2.097045599493859
-0.01220128444620089,2.089643975486325
-0.01219712444620089,2.089643975486325
-0.01219296444620089,2.082242351478791
-0.01218880444620089,2.074840727471257
-0.01218464444620089,2.074840727471257
