Versuch01/1_5_d_c1.csv

#Digilent WaveForms Oscilloscope Acquisition
#Device Name: Discovery2
#Serial Number: SN:210321AA2D13
#Date Time: 2023-11-09 17:39:05.535
#Sample rate: 240385Hz
#Samples: 8192
#Trigger: Source: Channel 1 Type: Edge Condition: Rising Level: 0 V Hyst.: Auto HoldOff: 0 s
#Channel 1: Range: 600 mV/div Offset: -1.14 V Attenuation: 1 X Sample Mode: Average
#Wavegen Channel 1: Running
#Mode: Simple
#Type: Sine
#Frequency: 50 Hz
#Period: 20 ms
#Amplitude: 5 V
#Offset: 0 V
#Symmetry: 50 %
#Phase: 0 °

Time (s),Channel 1 (V)
-0.01426048444620089,1.738066835128444
-0.01425632444620089,1.741767647132211
-0.01425216444620089,1.738066835128444
-0.01424800444620089,1.738066835128444
-0.01424384444620089,1.741767647132209
-0.01423968444620089,1.738066835128446
-0.01423552444620088,1.738066835128442
-0.01423136444620089,1.734366023124674
-0.01422720444620089,1.726964399117143
-0.01422304444620089,1.73066521112091
-0.01421888444620089,1.73066521112091
-0.01421472444620089,1.726964399117143
-0.01421056444620089,1.723263587113375
-0.01420640444620089,1.723263587113375
-0.01420224444620089,1.71956277510961
-0.01419808444620088,1.719562775109607
-0.01419392444620089,1.715861963105841
-0.01418976444620089,1.715861963105841
-0.01418560444620089,1.712161151102074
-0.01418144444620089,1.715861963105841
-0.01417728444620089,1.712161151102074
-0.01417312444620089,1.712161151102074
-0.01416896444620089,1.712161151102074
-0.01416480444620088,1.712161151102072
-0.01416064444620089,1.708460339098305
-0.01415648444620089,1.70475952709454
-0.01415232444620089,1.70475952709454
-0.01414816444620089,1.70475952709454
-0.01414400444620089,1.70475952709454
-0.01413984444620089,1.701058715090774
-0.01413568444620089,1.701058715090773
-0.01413152444620088,1.697357903087005
-0.01412736444620089,1.697357903087005
-0.01412320444620089,1.697357903087005
-0.01411904444620089,1.693657091083238
-0.01411488444620089,1.693657091083238
-0.01411072444620089,1.689956279079471
-0.01410656444620089,1.686255467075704
-0.01410240444620089,1.686255467075704
-0.01409824444620088,1.686255467075701
-0.01409408444620089,1.678853843068171
-0.01408992444620089,1.682554655071937
-0.01408576444620089,1.67885384306817
-0.01408160444620089,1.67885384306817
-0.01407744444620089,1.682554655071937
-0.01407328444620089,1.67885384306817
-0.01406912444620089,1.675153031064404
-0.01406496444620089,1.671452219060637
-0.01406080444620088,1.671452219060632
-0.01405664444620089,1.664050595053103
-0.01405248444620089,1.667751407056868
-0.01404832444620089,1.667751407056868
-0.01404416444620089,1.664050595053101
-0.01404000444620089,1.664050595053101
-0.01403584444620089,1.664050595053101
-0.01403168444620089,1.660349783049335
-0.01402752444620088,1.660349783049334
-0.01402336444620089,1.66034978304933
-0.01401920444620089,1.652948159041799
-0.01401504444620089,1.652948159041799
-0.01401088444620089,1.652948159041799
-0.01400672444620089,1.649247347038032
-0.01400256444620089,1.645546535034267
-0.01399840444620089,1.64924734703803
-0.01399424444620088,1.64924734703803
-0.01399008444620089,1.645546535034263
-0.01398592444620089,1.641845723030498
-0.01398176444620089,1.641845723030498
-0.01397760444620089,1.638144911026731
-0.01397344444620089,1.641845723030498
-0.01396928444620089,1.638144911026731
-0.01396512444620089,1.638144911026731
-0.01396096444620089,1.634444099022965
-0.01395680444620089,1.634444099022962
-0.01395264444620089,1.630743287019196
-0.01394848444620089,1.630743287019196
-0.01394432444620089,1.627042475015429
-0.01394016444620089,1.630743287019196
-0.01393600444620089,1.623341663011662
-0.01393184444620089,1.623341663011662
-0.01392768444620089,1.623341663011662
-0.01392352444620088,1.619640851007895
-0.01391936444620089,1.619640851007893
-0.01391520444620089,1.615940039004128
-0.01391104444620089,1.615940039004128
-0.01390688444620089,1.615940039004128
-0.01390272444620089,1.615940039004128
-0.01389856444620089,1.608538414996597
-0.01389440444620089,1.608538414996593
-0.01389024444620088,1.608538414996593
-0.01388608444620089,1.608538414996593
-0.01388192444620089,1.608538414996593
-0.01387776444620089,1.604837602992826
-0.01387360444620089,1.601136790989059
-0.01386944444620089,1.597435978985292
-0.01386528444620089,1.601136790989057
-0.01386112444620089,1.597435978985294
-0.01385696444620088,1.597435978985292
-0.01385280444620089,1.59743597898529
-0.01384864444620089,1.593735166981525
-0.01384448444620089,1.593735166981525
-0.01384032444620089,1.593735166981525
-0.01383616444620089,1.58633354297399
-0.01383200444620089,1.58633354297399
-0.01382784444620089,1.582632730970225
-0.01382368444620089,1.582632730970223
-0.01381952444620088,1.586333542973989
-0.01381536444620089,1.582632730970223
-0.01381120444620089,1.582632730970223
-0.01380704444620089,1.578931918966456
-0.01380288444620089,1.578931918966456
-0.01379872444620089,1.578931918966456
-0.01379456444620089,1.575231106962691
-0.01379040444620089,1.575231106962689
-0.01378624444620088,1.571530294958922
-0.01378208444620089,1.571530294958922
-0.01377792444620089,1.571530294958922
-0.01377376444620089,1.567829482955154
-0.01376960444620089,1.567829482955154
-0.01376544444620089,1.564128670951387
-0.01376128444620089,1.560427858947622
-0.01375712444620089,1.564128670951386
-0.01375296444620088,1.564128670951386
-0.01374880444620089,1.560427858947618
-0.01374464444620089,1.556727046943853
-0.01374048444620089,1.553026234940086
-0.01373632444620089,1.556727046943853
-0.01373216444620089,1.553026234940086
-0.01372800444620089,1.549325422936318
-0.01372384444620089,1.553026234940084
-0.01371968444620088,1.553026234940084
-0.01371552444620089,1.549325422936317
-0.01371136444620089,1.545624610932551
-0.01370720444620089,1.549325422936318
-0.01370304444620089,1.541923798928784
-0.01369888444620089,1.541923798928784
-0.01369472444620089,1.538222986925017
-0.01369056444620089,1.541923798928782
-0.01368640444620089,1.541923798928784
-0.01368224444620088,1.538222986925015
-0.01367808444620089,1.534522174921252
-0.01367392444620089,1.538222986925017
-0.01366976444620089,1.53452217492125
-0.01366560444620089,1.530821362917483
-0.01366144444620089,1.530821362917483
-0.01365728444620089,1.534522174921248
-0.01365312444620089,1.527120550913719
-0.01364896444620088,1.523419738909948
-0.01364480444620089,1.523419738909948
-0.01364064444620089,1.523419738909948
-0.01363648444620089,1.519718926906181
-0.01363232444620089,1.519718926906181
-0.01362816444620089,1.519718926906181
-0.01362400444620089,1.516018114902416
-0.01361984444620089,1.516018114902414
-0.01361568444620088,1.512317302898647
-0.01361152444620089,1.512317302898649
-0.01360736444620089,1.516018114902414
-0.01360320444620089,1.50861649089488
-0.01359904444620089,1.50861649089488
-0.01359488444620089,1.50861649089488
-0.01359072444620089,1.504915678891113
-0.01358656444620089,1.504915678891113
-0.01358240444620088,1.504915678891111
-0.01357824444620088,1.501214866887346
-0.01357408444620089,1.501214866887346
-0.01356992444620089,1.497514054883578
-0.01356576444620089,1.501214866887346
-0.01356160444620089,1.497514054883578
-0.01355744444620089,1.493813242879811
-0.01355328444620089,1.497514054883577
-0.01354912444620089,1.497514054883578
-0.01354496444620088,1.493813242879811
-0.01354080444620089,1.493813242879811
-0.01353664444620089,1.493813242879811
-0.01353248444620089,1.490112430876044
-0.01352832444620089,1.486411618872277
-0.01352416444620089,1.490112430876044
-0.01352000444620089,1.482710806868513
-0.01351584444620089,1.479009994864744
-0.01351168444620088,1.479009994864742
-0.01350752444620089,1.479009994864742
-0.01350336444620089,1.479009994864742
-0.01349920444620089,1.479009994864742
-0.01349504444620089,1.475309182860975
-0.01349088444620089,1.475309182860975
-0.01348672444620089,1.475309182860975
-0.01348256444620089,1.47160837085721
-0.01347840444620088,1.467907558853441
-0.01347424444620089,1.467907558853443
-0.01347008444620089,1.471608370857208
-0.01346592444620089,1.464206746849674
-0.01346176444620089,1.464206746849674
-0.01345760444620089,1.460505934845907
-0.01345344444620089,1.464206746849674
-0.01344928444620089,1.464206746849674
-0.01344512444620089,1.460505934845908
-0.01344096444620088,1.456805122842139
-0.01343680444620089,1.456805122842139
-0.01343264444620089,1.456805122842139
-0.01342848444620089,1.456805122842139
-0.01342432444620089,1.456805122842139
-0.01342016444620089,1.453104310838372
-0.01341600444620089,1.449403498834607
-0.01341184444620089,1.45310431083837
-0.01340768444620088,1.449403498834605
-0.01340352444620089,1.449403498834605
-0.01339936444620089,1.449403498834605
-0.01339520444620089,1.445702686830838
-0.01339104444620089,1.445702686830838
-0.01338688444620089,1.442001874827071
-0.01338272444620089,1.442001874827071
-0.01337856444620089,1.438301062823305
-0.01337440444620088,1.438301062823302
-0.01337024444620089,1.434600250819538
-0.01336608444620089,1.438301062823303
-0.01336192444620089,1.434600250819536
-0.01335776444620089,1.434600250819536
-0.01335360444620089,1.430899438815769
-0.01334944444620089,1.430899438815769
-0.01334528444620089,1.430899438815769
-0.01334112444620088,1.427198626812002
-0.01333696444620089,1.427198626812004
-0.01333280444620089,1.430899438815769
-0.01332864444620089,1.427198626812002
-0.01332448444620089,1.423497814808235
-0.01332032444620089,1.419797002804468
-0.01331616444620089,1.419797002804468
-0.01331200444620089,1.419797002804468
-0.01330784444620089,1.419797002804468
-0.01330368444620088,1.416096190800701
-0.01329952444620089,1.416096190800701
-0.01329536444620089,1.416096190800701
-0.01329120444620089,1.416096190800701
-0.01328704444620089,1.412395378796933
-0.01328288444620089,1.412395378796933
-0.01327872444620089,1.408694566793168
-0.01327456444620089,1.408694566793166
-0.01327040444620088,1.408694566793165
-0.01326624444620089,1.404993754789399
-0.01326208444620089,1.404993754789399
-0.01325792444620089,1.401292942785632
-0.01325376444620089,1.404993754789399
-0.01324960444620089,1.401292942785632
-0.01324544444620089,1.393891318778101
-0.01324128444620089,1.397592130781863
-0.01323712444620088,1.393891318778096
-0.01323296444620089,1.39019050677433
-0.01322880444620089,1.39019050677433
-0.01322464444620089,1.39019050677433
-0.01322048444620089,1.39019050677433
-0.01321632444620089,1.39019050677433
-0.01321216444620089,1.39019050677433
-0.01320800444620089,1.386489694770565
-0.01320384444620088,1.386489694770561
-0.01319968444620088,1.382788882766796
-0.01319552444620089,1.382788882766796
-0.01319136444620089,1.379088070763029
-0.01318720444620089,1.382788882766796
-0.01318304444620089,1.379088070763029
-0.01317888444620089,1.375387258759262
-0.01317472444620089,1.375387258759262
-0.01317056444620089,1.375387258759262
-0.01316640444620088,1.37538725875926
-0.01316224444620089,1.371686446755496
-0.01315808444620089,1.375387258759262
-0.01315392444620089,1.371686446755495
-0.01314976444620089,1.367985634751727
-0.01314560444620089,1.367985634751727
-0.01314144444620089,1.364284822747962
-0.01313728444620089,1.36428482274796
-0.01313312444620088,1.36428482274796
-0.01312896444620089,1.364284822747958
-0.01312480444620089,1.360584010744193
-0.01312064444620089,1.360584010744193
-0.01311648444620089,1.356883198740426
-0.01311232444620089,1.356883198740426
-0.01310816444620089,1.356883198740426
-0.01310400444620089,1.356883198740426
-0.01309984444620088,1.353182386736659
-0.01309568444620089,1.353182386736657
-0.01309152444620089,1.349481574732891
-0.01308736444620089,1.349481574732891
-0.01308320444620089,1.349481574732891
-0.01307904444620089,1.349481574732891
-0.01307488444620089,1.345780762729124
-0.01307072444620089,1.345780762729124
-0.01306656444620089,1.342079950725359
-0.01306240444620088,1.342079950725355
-0.01305824444620089,1.33837913872159
-0.01305408444620089,1.33837913872159
-0.01304992444620089,1.342079950725357
-0.01304576444620089,1.334678326717823
-0.01304160444620089,1.330977514714056
-0.01303744444620089,1.334678326717821
-0.01303328444620089,1.334678326717823
-0.01302912444620088,1.330977514714056
-0.01302496444620089,1.330977514714056
-0.01302080444620089,1.330977514714056
-0.01301664444620089,1.330977514714056
-0.01301248444620089,1.330977514714056
-0.01300832444620089,1.327276702710289
-0.01300416444620089,1.327276702710289
-0.01300000444620089,1.327276702710289
-0.01299584444620088,1.323575890706521
-0.01299168444620089,1.32357589070652
-0.01298752444620089,1.319875078702754
-0.01298336444620089,1.319875078702754
-0.01297920444620089,1.316174266698987
-0.01297504444620089,1.316174266698987
-0.01297088444620089,1.316174266698987
-0.01296672444620089,1.316174266698987
-0.01296256444620088,1.31247345469522
-0.01295840444620089,1.312473454695218
-0.01295424444620089,1.308772642691453
-0.01295008444620089,1.308772642691453
-0.01294592444620089,1.308772642691453
-0.01294176444620089,1.31247345469522
-0.01293760444620089,1.308772642691453
-0.01293344444620089,1.305071830687687
-0.01292928444620089,1.305071830687686
-0.01292512444620088,1.297670206680151
-0.01292096444620089,1.297670206680153
-0.01291680444620089,1.301371018683918
-0.01291264444620089,1.297670206680151
-0.01290848444620089,1.297670206680151
-0.01290432444620089,1.297670206680151
-0.01290016444620089,1.29026858267262
-0.01289600444620089,1.290268582672617
-0.01289184444620088,1.290268582672619
-0.01288768444620089,1.293969394676382
-0.01288352444620089,1.290268582672617
-0.01287936444620089,1.290268582672617
-0.01287520444620089,1.290268582672617
-0.01287104444620089,1.28656777066885
-0.01286688444620089,1.28656777066885
-0.01286272444620089,1.282866958665084
-0.01285856444620088,1.282866958665081
-0.01285440444620089,1.279166146661315
-0.01285024444620089,1.279166146661315
-0.01284608444620089,1.279166146661315
-0.01284192444620089,1.279166146661315
-0.01283776444620089,1.275465334657548
-0.01283360444620089,1.275465334657548
-0.01282944444620089,1.275465334657548
-0.01282528444620089,1.271764522653781
-0.01282112444620089,1.271764522653781
-0.01281696444620089,1.268063710650014
-0.01281280444620089,1.271764522653781
-0.01280864444620089,1.268063710650014
-0.01280448444620089,1.264362898646247
-0.01280032444620089,1.264362898646247
-0.01279616444620089,1.264362898646247
-0.01279200444620089,1.264362898646247
-0.01278784444620089,1.260662086642479
-0.01278368444620089,1.264362898646247
-0.01277952444620089,1.256961274638712
-0.01277536444620089,1.260662086642479
-0.01277120444620089,1.256961274638712
-0.01276704444620089,1.256961274638712
-0.01276288444620089,1.253260462634945
-0.01275872444620089,1.253260462634945
-0.01275456444620089,1.253260462634945
-0.01275040444620089,1.253260462634945
-0.01274624444620089,1.249559650631178
-0.01274208444620089,1.249559650631178
-0.01273792444620089,1.249559650631178
-0.01273376444620089,1.245858838627411
-0.01272960444620089,1.249559650631178
-0.01272544444620089,1.249559650631178
-0.01272128444620089,1.242158026623644
-0.01271712444620089,1.242158026623644
-0.01271296444620089,1.242158026623644
-0.01270880444620089,1.242158026623644
-0.01270464444620089,1.238457214619876
-0.01270048444620089,1.234756402616109
-0.01269632444620089,1.234756402616109
-0.01269216444620089,1.238457214619876
-0.01268800444620089,1.238457214619876
-0.01268384444620089,1.231055590612342
-0.01267968444620089,1.234756402616109
-0.01267552444620089,1.231055590612342
-0.01267136444620089,1.231055590612342
-0.01266720444620089,1.231055590612342
-0.01266304444620089,1.231055590612342
-0.01265888444620089,1.227354778608575
-0.01265472444620089,1.227354778608575
-0.01265056444620089,1.227354778608575
-0.01264640444620089,1.227354778608575
-0.01264224444620089,1.227354778608575
-0.01263808444620089,1.223653966604808
-0.01263392444620089,1.227354778608575
-0.01262976444620089,1.223653966604808
-0.01262560444620089,1.219953154601041
-0.01262144444620089,1.219953154601041
-0.01261728444620089,1.219953154601041
-0.01261312444620089,1.216252342597274
-0.01260896444620089,1.219953154601041
-0.01260480444620089,1.219953154601041
-0.01260064444620089,1.216252342597274
-0.01259648444620089,1.216252342597274
-0.01259232444620089,1.208850718589739
-0.01258816444620089,1.212551530593506
-0.01258400444620089,1.212551530593506
-0.01257984444620089,1.205149906585972
-0.01257568444620089,1.208850718589739
-0.01257152444620089,1.205149906585972
-0.01256736444620089,1.205149906585972
-0.01256320444620089,1.201449094582205
-0.01255904444620089,1.201449094582205
-0.01255488444620089,1.201449094582205
-0.01255072444620089,1.205149906585972
-0.01254656444620089,1.201449094582205
-0.01254240444620089,1.201449094582205
-0.01253824444620089,1.197748282578438
-0.01253408444620089,1.197748282578438
-0.01252992444620089,1.197748282578438
-0.01252576444620089,1.197748282578438
-0.01252160444620089,1.190346658570903
-0.01251744444620089,1.190346658570903
-0.01251328444620089,1.190346658570903
-0.01250912444620089,1.190346658570903
-0.01250496444620089,1.186645846567136
-0.01250080444620089,1.186645846567136
-0.01249664444620089,1.186645846567136
-0.01249248444620089,1.186645846567136
-0.01248832444620089,1.182945034563369
-0.01248416444620089,1.182945034563369
-0.01248000444620089,1.182945034563369
-0.01247584444620089,1.186645846567136
-0.01247168444620089,1.179244222559602
-0.01246752444620089,1.179244222559602
-0.01246336444620089,1.179244222559602
-0.01245920444620089,1.179244222559602
-0.01245504444620089,1.175543410555835
-0.01245088444620089,1.171842598552068
-0.01244672444620089,1.175543410555835
-0.01244256444620089,1.171842598552068
-0.01243840444620089,1.175543410555835
-0.01243424444620089,1.171842598552068
-0.01243008444620089,1.175543410555835
-0.01242592444620089,1.1681417865483
-0.01242176444620089,1.1681417865483
-0.01241760444620089,1.1681417865483
-0.01241344444620089,1.164440974544533
-0.01240928444620089,1.164440974544533
-0.01240512444620089,1.164440974544533
-0.01240096444620089,1.164440974544533
-0.01239680444620089,1.160740162540766
-0.01239264444620089,1.160740162540766
-0.01238848444620089,1.160740162540766
-0.01238432444620089,1.157039350536999
-0.01238016444620089,1.157039350536999
-0.01237600444620089,1.153338538533232
-0.01237184444620089,1.153338538533232
-0.01236768444620089,1.149637726529464
-0.01236352444620089,1.153338538533232
-0.01235936444620089,1.153338538533232
-0.01235520444620089,1.149637726529464
-0.01235104444620089,1.149637726529464
-0.01234688444620089,1.153338538533232
-0.01234272444620089,1.149637726529464
-0.01233856444620089,1.145936914525697
-0.01233440444620089,1.145936914525697
-0.01233024444620089,1.145936914525697
-0.01232608444620089,1.145936914525697
-0.01232192444620089,1.14223610252193
-0.01231776444620089,1.145936914525697
-0.01231360444620089,1.14223610252193
-0.01230944444620089,1.138535290518163
-0.01230528444620089,1.134834478514396
-0.01230112444620089,1.134834478514396
-0.01229696444620089,1.138535290518163
-0.01229280444620089,1.134834478514396
-0.01228864444620089,1.134834478514396
-0.01228448444620089,1.131133666510629
-0.01228032444620089,1.131133666510629
-0.01227616444620089,1.131133666510629
-0.01227200444620089,1.127432854506861
-0.01226784444620089,1.127432854506861
-0.01226368444620089,1.131133666510629
-0.01225952444620089,1.127432854506861
-0.01225536444620089,1.127432854506861
-0.01225120444620089,1.123732042503094
-0.01224704444620089,1.120031230499327
-0.01224288444620089,1.123732042503094
-0.01223872444620089,1.123732042503094
-0.01223456444620089,1.120031230499327
-0.01223040444620089,1.120031230499327
-0.01222624444620089,1.120031230499327
-0.01222208444620089,1.120031230499327
-0.01221792444620089,1.11633041849556
-0.01221376444620089,1.120031230499327
-0.01220960444620089,1.11633041849556
-0.01220544444620089,1.112629606491793
-0.01220128444620089,1.112629606491793
-0.01219712444620089,1.11633041849556
-0.01219296444620089,1.112629606491793
-0.01218880444620089,1.108928794488026
-0.01218464444620089,1.108928794488026
