Versuch04/Plots_Measurements/4_3_2_b_JP15_1.csv

#Digilent WaveForms Oscilloscope Acquisition
#Device Name: Discovery2
#Serial Number: SN:210321AA2D13
#Date Time: 2024-01-11 14:07:17.114
#Sample rate: 80000Hz
#Samples: 8192
#Trigger: Source: Channel 1 Type: Edge Condition: Rising Level: 0 V Hyst.: Auto HoldOff: 0 s
#Channel 1: Range: 2 V/div Offset: 0 V Attenuation: 1 X Sample Mode: Average
#Channel 2: Range: 5 V/div Offset: 0 V Attenuation: 1 X Sample Mode: Average
#Wavegen Channel 1: Running
#Mode: Simple
#Type: Sine
#Frequency: 100 Hz
#Period: 10 ms
#Amplitude: 5 V
#Offset: 0 V
#Symmetry: 50 %
#Phase: 0 °
#Wavegen Channel 2: Disabled
#Mode: Simple
#Type: Sine
#Frequency: 1 kHz
#Period: 1 ms
#Amplitude: 1 V
#Offset: 0 V
#Symmetry: 50 %
#Phase: 0 °

Time (s),Channel 1 (V),Channel 2 (V)
1.279451875,-3.02010356663873,-2.682725466707158
1.279464375,-2.95348895057109,-2.682725466707158
1.279476875,-2.890575146507174,-2.682725466707149
1.279489375,-2.820259718435758,-2.67895922742249
1.279501875,-2.7536451023681,-2.67895922742249
1.279514375,-2.687030486300442,-2.67895922742249
1.279526875,-2.620415870232785,-2.675192988137846
1.279539375,-2.550100442160179,-2.67519298813782
1.279551875,-2.483485826092545,-2.67519298813782
1.279564375,-2.420572022028661,-2.67519298813782
1.279576875,-2.353957405960998,-2.67519298813782
1.279589375,-2.283641977889582,-2.67519298813782
1.279601875,-2.220728173825676,-2.67519298813782
1.279614375,-2.150412745754284,-2.67519298813782
1.279626875,-2.080097317682867,-2.67519298813782
1.279639375,-2.013482701613971,-2.67519298813782
1.279651875,-1.943167273542555,-2.67519298813782
1.279664375,-1.872851845471181,-2.67519298813782
1.279676875,-1.806237229403523,-2.675192988137819
1.279689375,-1.739622613335865,-2.671426748853159
1.279701875,-1.673007997268208,-2.671426748853152
1.279714375,-1.598991757193063,-2.675192988137796
1.279726875,-1.532377141124177,-2.671426748853152
1.279739375,-1.465762525056469,-2.671426748853126
1.279751875,-1.391746284981344,-2.667660509568483
1.279764375,-1.328832480917454,-2.667660509568483
1.279776875,-1.254816240842279,-2.667660509568483
1.279789375,-1.188201624774618,-2.671426748853142
1.279801875,-1.114185384699463,-2.671426748853152
1.279814375,-1.047570768631769,-2.667660509568511
1.279826875,-0.977255340559132,-2.667660509568514
1.279839375,-0.9069399124877157,-2.67142674885313
1.279851875,-0.8366244844162859,-2.667660509568483
1.279864375,-0.7626082443411158,-2.667660509568483
1.279876875,-0.6922928162697315,-2.667660509568483
1.279889375,-0.6256782002020689,-2.667660509568483
1.279901875,-0.555362772130666,-2.667660509568483
1.279914375,-0.4850473440592498,-2.667660509568483
1.279926875,-0.4147319159865864,-2.667660509568483
1.279939375,-0.34441648791517,-2.667660509568483
1.279951875,-0.2741010598437537,-2.667660509568483
1.279964375,-0.2037856317723374,-2.667660509568481
1.279976875,-0.1334702037009211,-2.663894270283822
1.279989375,-0.05945396362578639,-2.663894270283815
1.280001875,0.003459840438162914,-2.667660509568457
1.280014375,0.07747608051326225,-2.663894270283849
1.280026875,0.132988260570867,-2.663894270283791
1.280039375,0.1996028766386155,-2.660128030998529
1.280051875,0.2884223647287919,-2.50947845961226
1.280064375,0.3587377928002082,-2.434153673919058
1.280076875,0.4290532208716246,-2.362595127510514
1.280089375,0.4993686489430089,-2.291036581102003
1.280101875,0.5696840770144252,-2.223244273978101
1.280114375,0.6399995050871172,-2.151685727568318
1.280126875,0.7140157451622317,-2.080127181159796
1.280139375,0.7769295492261776,-2.012334874035878
1.280151875,0.8546466013051014,-1.933243849058025
1.280164375,0.921261217372759,-1.865451541934143
1.280176875,0.9915766454441702,-1.79765923481026
1.280189375,1.061892073515554,-1.726100688401764
1.280201875,1.132207501586971,-1.654542141993221
1.280214375,1.206223741663376,-1.582983595583487
1.280226875,1.272838357731034,-1.522723767028839
1.280239375,1.339452973798708,-1.443632742051002
1.280251875,1.413469213873883,-1.375840434927119
1.280264375,1.4837846419453,-1.304281888518577
1.280276875,1.546698446009215,-1.236489581394686
1.280289375,1.617013874080598,-1.16493103498616
1.280301875,1.691030114156996,-1.097138727861112
1.280314375,1.761345542228391,-1.033112660021822
1.280326875,1.827960158296062,-0.9577878743286333
1.280339375,1.898275586367478,-0.8862293279200959
1.280351875,1.968591014438895,-0.8184370207962134
1.280364375,2.035205630506555,-0.7468784743876743
1.280376875,2.10552105857796,-0.6790861672637798
1.280389375,2.172135674645638,-0.6112938601398974
1.280401875,2.242451102718215,-0.5435015530148125
1.280414375,2.305364906782122,-0.4757092458909422
1.280426875,2.375680334853539,-0.4041506994824098
1.280439375,2.445995762924953,-0.3363583923585274
1.280451875,2.512610378992611,-0.268566085234645
1.280464375,2.579224995060268,-0.2045400173954158
1.280476875,2.645839611127926,-0.132981470986904
1.280489375,2.712454227196765,-0.06895540314646401
1.280501875,2.779068843264422,-0.00116309602255587
1.280514375,2.845683459332097,0.07039545038595246
1.280526875,2.915998887403475,0.1344215182251525
1.280539375,2.982613503471132,0.202213825349035
1.280551875,3.045527307535032,0.2700061324729174
1.280564375,3.115842735606429,0.3377984395967998
1.280576875,3.178756539670365,0.3980582681513997
1.280589375,3.24167034373541,0.4658505752763988
1.280601875,3.308284959803067,0.5298766431156434
1.280614375,3.374899575870711,0.5976689502395122
1.280626875,3.437813379934581,0.6616950180787055
1.280639375,3.50072718399848,0.7257210859179276
1.280651875,3.567341800066133,0.793513393041805
1.280664375,3.637657228137535,0.8537732215963945
1.280676875,3.693169408194005,0.9177992894355946
1.280689375,3.75978402426278,0.9855915965606211
1.280701875,3.83009945233414,1.049617664399843
1.280714375,3.889312444394291,1.113643732239066
1.280726875,3.952226248458161,1.177669800078259
1.280739375,4.01514005252206,1.237929628632821
1.280751875,4.078053856585959,1.305721935756686
1.280764375,4.140967660649857,1.36221552502664
1.280776875,4.200180652710023,1.426241592865811
1.280789375,4.266795268778771,1.494033899990813
1.280801875,4.32970907284264,1.554293728545376
1.280814375,4.385221252899035,1.614553557099945
1.280826875,4.448135056962933,1.678579624939167
1.280839375,4.511048861026803,1.735073214209047
1.280851875,4.573962665090701,1.799099282048245
1.280864375,4.633175657150862,1.859359110602828
1.280876875,4.692388649212052,1.923385178443127
1.280889375,4.751601641272193,1.983645006997648
1.280901875,4.810814633332321,2.036372356982926
1.280914375,4.866326813388708,2.100398424822142
1.280926875,4.929240617452607,2.156892014092043
1.280939375,4.984752797509,2.217151842646601
1.280951875,5.043965789569099,2.273645431916491
1.280964375,5.103178781629238,2.333905260471029
1.280976875,5.158690961686636,2.390398849741992
1.280989375,5.214203141743035,2.450658678296519
1.281001875,5.273416133803175,2.503386028281778
1.281014375,5.332629125863315,2.563645856836341
1.281026875,5.388141305919696,2.620139446106242
1.281039375,5.439952673972328,2.672866796091493
1.281051875,5.502866478036148,2.733126624645994
1.281064375,5.558378658093505,2.785853974632256
1.281076875,5.606489214142413,2.842347563902136
1.281089375,5.662001394198795,2.895074913887391
1.281101875,5.717513574255176,2.951568503157288
1.281114375,5.773025754311557,3.00429585314253
1.281126875,5.821136310360428,3.053256963843115
1.281139375,5.876648490416786,3.113516792397641
1.281151875,5.928459858469405,3.162477903098263
1.281164375,5.983972038526713,3.215205253084381
1.281176875,6.035783406579336,3.264166363784982
1.281189375,6.087594774631959,3.316893713770224
1.281201875,6.139406142684582,3.369621063755466
1.281214375,6.191217510737204,3.422348413740708
1.281226875,6.239328066786074,3.471309524441297
1.281239375,6.291139434838682,3.520270635141879
1.281251875,6.342950802892189,3.569231745843294
1.281264375,6.391061358941031,3.614426617259244
1.281276875,6.43917191498991,3.667153967244455
1.281289375,6.490983283042526,3.712348838660383
1.281301875,6.53909383909139,3.761309949360965
1.281314375,6.583503583136497,3.806504820776888
1.281326875,6.63161413918535,3.855465931477459
1.281339375,6.683425507237954,3.904427042178042
1.281351875,6.724134439280133,3.945855674310153
1.281364375,6.76854418332526,3.994816785010713
1.281376875,6.816654739374091,4.040011656426602
1.281389375,6.861064483419193,4.081440288557867
1.281401875,6.901773415460538,4.126635159973789
1.281414375,6.953584783513146,4.168063792105055
1.281426875,6.994293715554533,4.209492424236317
1.281439375,7.03500264759588,4.250921056367579
1.281451875,7.079412391641742,4.292349688499602
1.281464375,7.123822135686828,4.337544559915504
1.281476875,7.164531067728174,4.378973192046746
1.281489375,7.205239999769502,4.412869345608672
1.281501875,7.245948931810848,4.454297977739934
1.281514375,7.290358675855945,4.495726609871195
1.281526875,7.331067607897308,4.533389002717814
1.281539375,7.371776539938654,4.571051395564415
1.281551875,7.408784659976956,4.612480027696328
1.281564375,7.449493592018287,4.646376181258255
1.281576875,7.486501712055881,4.676506095535549
1.281589375,7.527210644097209,4.714168488382133
1.281601875,7.564218764134799,4.751830881228735
1.281614375,7.601226884172387,4.785727034790688
1.281626875,7.641935816213714,4.819623188352629
1.281639375,7.675243124248219,4.853519341915172
1.281651875,7.712251244285786,4.887415495477072
1.281664375,7.745558552319614,4.913779170469716
1.281676875,7.778865860353447,4.947675324031659
1.281689375,7.815873980391017,4.981571477593584
1.281701875,7.849181288424854,5.011701391870871
1.281714375,7.886189408462426,5.041831306148153
1.281726875,7.915795904492542,5.068194981140798
1.281739375,7.94910321252688,5.098324895418554
1.281751875,7.975008896553225,5.124688570411176
1.281764375,8.008316204587054,5.151052245403789
1.281776875,8.041623512620882,5.173649681111749
1.281789375,8.071230008650952,5.188714638250389
1.281801875,8.100836504681009,5.184948398965774
1.281814375,8.130443000711079,5.184948398965755
1.281826875,8.156348684737907,5.181182159681056
1.281839375,8.185955180767955,5.177415920396418
1.281851875,8.211860864794293,5.177415920396404
1.281864375,8.245168172828112,5.173649681111749
1.281876875,8.271073856854423,5.173649681111749
1.281889375,8.293278728876979,5.173649681111749
1.281901875,8.319184412903278,5.169883441827101
1.281914375,8.348790908933315,5.16988344182708
1.281926875,8.374696592960088,5.169883441827053
1.281939375,8.396901464982642,5.166117202542412
1.281951875,8.419106337005203,5.166117202542412
1.281964375,8.445012021031513,5.16611720254241
1.281976875,8.463516081050306,5.16235096325775
1.281989375,8.485720953072851,5.162350963257743
1.282001875,8.511626637099146,5.162350963257743
1.282014375,8.530130697118317,5.158584723973075
1.282026875,8.548634757137126,5.158584723973051
1.282039375,8.570839629159678,5.154818484688406
1.282051875,8.593044501182224,5.154818484688398
1.282064375,8.611548561201017,5.151052245403739
1.282076875,8.630052621219813,5.151052245403737
1.282089375,8.644855869234856,5.151052245403737
1.282101875,8.663359929253632,5.151052245403737
1.282114375,8.678163177268987,5.147286006119068
1.282126875,8.69666723728775,5.147286006119068
1.282139375,8.711470485302797,5.147286006119068
1.282151875,8.729974545321586,5.147286006119068
1.282164375,8.741076981332862,5.147286006119068
1.282176875,8.755880229347893,5.143519766834413
1.282189375,8.770683477362928,5.139753527549753
1.282201875,8.781785913374225,5.139753527549731
1.282214375,8.796589161389493,5.143519766834372
1.282226875,8.811392409404487,5.139753527549731
1.282239375,8.818794033412013,5.139753527549731
1.282251875,8.829896469423289,5.139753527549731
1.282264375,8.840998905434565,5.135987288265071
1.282276875,8.852101341445842,5.135987288265063
1.282289375,8.863203777457118,5.135987288265063
1.282301875,8.870605401464791,5.132221048980393
1.282314375,8.878007025472311,5.132221048980393
1.282326875,8.885408649479826,5.132221048980393
1.282339375,8.892810273487337,5.132221048980393
1.282351875,8.896511085491094,5.132221048980393
1.282364375,8.907613521502364,5.128454809695737
1.282376875,8.9076135215024,5.128454809695725
1.282389375,8.915015145509877,5.128454809695725
1.282401875,8.918715957513729,5.128454809695696
1.282414375,8.922416769517488,5.124688570411056
1.282426875,8.926117581521236,5.124688570411056
1.282439375,8.92611758152124,5.124688570411056
1.282451875,8.929818393524995,5.124688570411056
1.282464375,8.929818393525002,5.124688570411056
1.282476875,8.933519205528746,5.120922331126412
1.282489375,8.929818393525034,5.120922331126388
1.282501875,8.933519205528745,5.117156091841719
1.282514375,8.929818393525002,5.117156091841719
1.282526875,8.929818393525002,5.117156091841719
1.282539375,8.929818393525002,5.117156091841719
1.282551875,8.926117581521247,5.117156091841719
1.282564375,8.922416769517486,5.113389852557069
1.282576875,8.918715957513728,5.11338985255705
1.282589375,8.918715957513641,5.113389852557019
1.282601875,8.911314333506146,5.109623613272381
1.282614375,8.907613521502373,5.109623613272381
1.282626875,8.900211897494859,5.109623613272381
1.282639375,8.896511085491101,5.109623613272381
1.282651875,8.892810273487346,5.109623613272381
1.282664375,8.889109461483585,5.105857373987734
1.282676875,8.878007025472353,5.105857373987712
1.282689375,8.870605401464648,5.105857373987712
1.282701875,8.859502965453389,5.105857373987694
1.282714375,8.852101341445861,5.102091134703055
1.282726875,8.840998905434585,5.10585737398771
1.282739375,8.829896469423309,5.102091134703051
1.282751875,8.818794033412034,5.102091134703044
1.282764375,8.807691597400762,5.098324895418401
1.282776875,8.792888349385553,5.098324895418375
1.282789375,8.785486725377989,5.098324895418375
1.282801875,8.770683477362939,5.098324895418375
1.282814375,8.752179417344159,5.098324895418375
1.282826875,8.741076981332883,5.098324895418375
1.282839375,8.72627373331785,5.094558656133717
1.282851875,8.707769673299065,5.094558656133707
1.282864375,8.692966425284013,5.094558656133707
1.282876875,8.678163177268692,5.090792416849067
1.282889375,8.65965911724992,5.094558656133707
1.282901875,8.644855869234872,5.094558656133695
1.282914375,8.626351809216079,5.090792416849037
1.282926875,8.607847749197283,5.090792416849037
1.282939375,8.58934368917849,5.087026177564383
1.282951875,8.567138817155952,5.087026177564369
1.282964375,8.548634757137135,5.087026177564369
1.282976875,8.526429885114219,5.087026177564369
1.282989375,8.504225013091677,5.087026177564352
1.283001875,8.482020141069125,5.0832599382797
1.283014375,8.459815269046572,5.0832599382797
1.283026875,8.437610397024018,5.0832599382797
1.283039375,8.415405525001468,5.0832599382797
1.283051875,8.393200652978914,5.0832599382797
1.283064375,8.370995780955905,5.0832599382797
1.283076875,8.341389284925858,5.0832599382797
1.283089375,8.315483600899572,5.083259938279687
1.283101875,8.293278728877009,5.079493698995032
1.283114375,8.26367223284694,5.079493698995032
1.283126875,8.237766548820623,5.079493698995032
1.283139375,8.211860864794314,5.079493698995032
1.283151875,8.182254368764264,5.075727459710392
1.283164375,8.156348684737436,5.079493698995003
1.283176875,8.126742188707365,5.075727459710363
1.283189375,8.097135692677298,5.075727459710363
1.283201875,8.063828384643472,5.075727459710361
1.283214375,8.0342218886134,5.071961220425702
1.283226875,8.004615392583331,5.075727459710348
1.283239375,7.971308084549518,5.071961220425719
1.283251875,7.941701588519424,5.07572745971033
1.283264375,7.912095092488804,5.075727459710337
1.283276875,7.878787784454975,5.071961220425575
1.283289375,7.845480476421137,5.045597545432945
1.283301875,7.808472356383567,5.015467631155677
1.283314375,7.778865860353494,4.985337716878397
1.283326875,7.738156928312177,4.955207802601116
1.283339375,7.704849620278313,4.921311649039193
1.283351875,7.667841500240125,4.89118173476132
1.283364375,7.634534192206253,4.857285581199378
1.283376875,7.59382526016492,4.823389427637437
1.283389375,7.556817140127333,4.789493274075491
1.283401875,7.519809020089745,4.75183088122889
1.283414375,7.482800900052174,4.71793472766696
1.283426875,7.445792780014586,4.684038574105019
1.283439375,7.405083847973263,4.650142420543077
1.283451875,7.364374915931195,4.616246266980507
1.283464375,7.323665983889848,4.578583874133907
1.283476875,7.282957051848501,4.540921481287305
1.283489375,7.242248119807155,4.503259088440702
1.283501875,7.201539187765809,4.461830456309441
1.283514375,7.160830255724481,4.424168063462849
1.283526875,7.116420511679393,4.386505670616248
1.283539375,7.072010767633532,4.345077038484311
1.283551875,7.031301835592163,4.30741464563766
1.283564375,6.986892091547057,4.262219774221739
1.283576875,6.94248234750196,4.217024902805831
1.283589375,6.901773415460613,4.17936250995923
1.283601875,6.853662859411752,4.141700117112628
1.283614375,6.809253115366658,4.096505245696748
1.283626875,6.761142559317814,4.051310374280826
1.283639375,6.716732815271892,4.006115502864074
1.283651875,6.672323071226748,3.957154392163533
1.283664375,6.620511703174159,3.915725760032271
1.283676875,6.579802771132804,3.874297127901006
1.283689375,6.527991403080181,3.829102256485085
1.283701875,6.483581659035066,3.780141145784508
1.283714375,6.435471102986215,3.72741379579928
1.283726875,6.383659734933638,3.682218924383335
1.283739375,6.335549178883864,3.637024052966612
1.283751875,6.283737810831242,3.591829181550655
1.283764375,6.231926442778628,3.539101831565431
1.283776875,6.183815886729763,3.493906960149509
1.283789375,6.128303706673382,3.441179610164268
1.283801875,6.076492338620751,3.388452260179025
1.283814375,6.032082594575613,3.339491149478427
1.283826875,5.976570414518354,3.286763799492275
1.283839375,5.924759046465734,3.234036449507079
1.283851875,5.869246866409366,3.185075338806497
1.283864375,5.817435498356748,3.136114228105906
1.283876875,5.769324942307884,3.079620638836004
1.283889375,5.710111950247755,3.023127049566102
1.283901875,5.658300582195108,2.974165938865496
1.283914375,5.602788402138748,2.921438588880275
1.283926875,5.547276222081382,2.86117876032476
1.283939375,5.491764042025,2.808451410339518
1.283951875,5.436251861968634,2.75572406035429
1.283964375,5.377038869908496,2.699230471084388
1.283976875,5.321526689852115,2.642736881814485
1.283989375,5.266014509795733,2.590009531829237
1.284001875,5.206801517735608,2.529749703274706
1.284014375,5.151289337679203,2.47325611400478
1.284026875,5.095777157621837,2.416762524733901
1.284039375,5.04026497756544,2.364035174748608
1.284051875,4.981051985505319,2.300009106909429
1.284064375,4.91813818144142,2.243515517639526
1.284076875,4.858925189381279,2.187021928369625
1.284089375,4.803413009324887,2.126762099815072
1.284101875,4.740499205261026,2.062736031975869
1.284114375,4.681286213199808,2.010008681989579
1.284126875,4.622073221139669,1.953515092719633
1.284139375,4.562860229079515,1.88948902488041
1.284151875,4.499946425015645,1.825462957041224
1.284164375,4.437032620951746,1.768969367771322
1.284176875,4.377819628891602,1.708709539216765
1.284189375,4.31860663683146,1.648449710662202
1.284201875,4.251992020763847,1.580657403538365
1.284214375,4.192779028702597,1.524163814267341
1.284226875,4.133566036642419,1.463903985712741
1.284239375,4.066951420574772,1.396111678588869
1.284251875,4.004037616510873,1.332085610749648
1.284264375,3.941123812447002,1.271825782195113
1.284276875,3.881910820386854,1.2077997143559
1.284289375,3.81529620431923,1.14753988580132
1.284301875,3.752382400254158,1.087280057245624
1.284314375,3.6857677841865,1.019487750121766
1.284326875,3.619153168118858,0.9554616822825283
1.284339375,3.556239364054959,0.8876693751586663
1.284351875,3.49332555999106,0.8311757858887643
1.284364375,3.426710943923404,0.7671497180495455
1.284376875,3.363797139859524,0.699357410925704
1.284389375,3.297182523791887,0.6315651038018215
1.284401875,3.234268719726844,0.5713052752460742
1.284414375,3.171354915662904,0.5035129681221918
1.284426875,3.1010394875915,0.4357206609983333
