Versuch04/Plots_Measurements/4_3_2_b_JP15_2.csv

#Digilent WaveForms Oscilloscope Acquisition
#Device Name: Discovery2
#Serial Number: SN:210321AA2D13
#Date Time: 2024-01-11 14:06:22.665
#Sample rate: 160000Hz
#Samples: 8192
#Trigger: Source: Channel 1 Type: Edge Condition: Rising Level: 0 V Hyst.: Auto HoldOff: 0 s
#Channel 1: Range: 2 V/div Offset: 0 V Attenuation: 1 X Sample Mode: Average
#Channel 2: Range: 5 V/div Offset: 0 V Attenuation: 1 X Sample Mode: Average
#Wavegen Channel 1: Running
#Mode: Simple
#Type: Sine
#Frequency: 100 Hz
#Period: 10 ms
#Amplitude: 5 V
#Offset: 0 V
#Symmetry: 50 %
#Phase: 0 °
#Wavegen Channel 2: Disabled
#Mode: Simple
#Type: Sine
#Frequency: 1 kHz
#Period: 1 ms
#Amplitude: 1 V
#Offset: 0 V
#Symmetry: 50 %
#Phase: 0 °

Time (s),Channel 1 (V),Channel 2 (V)
1.219638020833333,-2.028285949630027,-10.6483215537815
1.219644270833333,-1.987577017588682,-10.64455531449684
1.219650520833333,-1.957970521558465,-10.6483215537814
1.219656770833333,-1.924663213524693,-10.65208779306606
1.219663020833333,-1.887655093486031,-10.65208779306613
1.219669270833333,-1.861749409459573,-10.65208779306608
1.219675520833333,-1.824741289421945,-10.64832155378146
1.219681770833333,-1.784032357380759,-10.64832155378146
1.219688020833333,-1.761827485358088,-10.64832155378146
1.219694270833333,-1.721118553316774,-10.64832155378146
1.219700520833333,-1.684110433279191,-10.64832155378146
1.219706770833333,-1.650803125245362,-10.64832155378146
1.219713020833333,-1.610094193204023,-10.64832155378146
1.219719270833333,-1.580487697173917,-10.64832155378146
1.219725520833333,-1.550881201143848,-10.64455531449682
1.219731770833333,-1.510172269102587,-10.64832155378142
1.219738020833333,-1.476864961068699,-10.64455531449684
1.219744270833333,-1.439856841031159,-10.6483215537814
1.219750520833333,-1.402848720993572,-10.64455531449685
1.219756770833333,-1.373242224962205,-10.64455531449679
1.219763020833333,-1.336234104924618,-10.64455531449679
1.219769270833333,-1.299225984887157,-10.64455531449679
1.219775520833333,-1.273320300860711,-10.64455531449679
1.219781770833333,-1.232611368819415,-10.64455531449676
1.219788020833333,-1.199304060785569,-10.64078907521214
1.219794270833333,-1.162295940747992,-10.64455531449679
1.219800520833333,-1.121587008706646,-10.64455531449679
1.219806770833333,-1.09198051267657,-10.64455531449679
1.219813020833333,-1.062374016646501,-10.64455531449679
1.219819270833333,-1.02536589660895,-10.64455531449679
1.219825520833333,-0.9920585885750943,-10.64078907521215
1.219831770833333,-0.9550504685375421,-10.64455531449674
1.219838020833333,-0.9143415364962396,-10.65962027163525
1.219844270833333,-0.8921366644734262,-10.66338651092007
1.219850520833333,-0.851427732431018,-10.66338651092007
1.219856770833333,-0.8144196123934826,-10.65962027163546
1.219863020833333,-0.7811123043596101,-10.65962027163542
1.219869270833333,-0.7441041843220578,-10.65585403235083
1.219875520833333,-0.7107968762882022,-10.65962027163546
1.219881770833333,-0.6737887562506146,-10.65962027163544
1.219888020833333,-0.6367806362130574,-10.65585403235079
1.219894270833333,-0.6108749521867394,-10.65585403235079
1.219900520833333,-0.5701660201453931,-10.65585403235079
1.219906770833333,-0.5294570881040652,-10.65208779306614
1.219913020833333,-0.4998505920739448,-10.65208779306613
1.219919270833333,-0.4628424720364077,-10.65208779306613
1.219925520833333,-0.41843272799137,-10.64455531449687
1.219931770833333,-0.3925270439648484,-10.64455531449679
1.219938020833333,-0.3555189239274123,-10.64455531449679
1.219944270833333,-0.3222116158924072,-10.63702283592745
1.219950520833333,-0.292605119862115,-10.63702283592734
1.219956770833333,-0.2481953758171513,-10.62949035735811
1.219963020833333,-0.2148880677833747,-10.62949035735804
1.219969270833333,-0.1852815717531902,-10.62195787878875
1.219975520833333,-0.1408718277081862,-10.61819163950409
1.219981770833333,-0.1149661436818395,-10.61442540021943
1.219988020833333,-0.07795802364424861,-10.61065916093476
1.219994270833333,-0.03724909160290233,-10.59936044308078
1.220000520833333,-0.01134340757657086,-10.59182796451145
1.220006770833333,0.02936552446470307,-10.57676300737285
1.220013020833333,0.06267283249857897,-10.56546428951884
1.220019270833333,0.09227932852868098,-10.54286685381098
1.220025520833333,0.1255866365624694,-10.44494463241064
1.220031770833333,0.1440906965814583,-9.454423700556795
1.220038020833333,0.162594756601893,-6.7540301333005
1.220044270833333,0.2366109966764386,0.7746821966984269
1.220050520833333,0.2699183047104138,5.930663777330505
1.220056770833333,0.3143280487553977,5.957027452323044
1.220063020833333,0.3476353567891811,5.975858648746182
1.220069270833333,0.3772418528193167,5.975858648746271
1.220075520833333,0.417950784860663,5.990923605884898
1.220081770833333,0.4586597169019891,6.002222323738863
1.220088020833333,0.4845654009283004,6.002222323738863
1.220094270833333,0.5252743329696332,6.021053520162147
1.220100520833333,0.5585816410034856,6.036118477300799
1.220106770833333,0.5918889490373144,6.05118343443944
1.220113020833333,0.6325978810786035,6.077547109431974
1.220119270833333,0.6622043771087711,6.096378305855341
1.220125520833333,0.6992124971462644,6.118975741563253
1.220131770833333,0.7399214291875551,6.156638134409628
1.220138020833333,0.7695279252189848,6.1830018094035
1.220144270833333,0.8065360452565725,6.216897962965442
1.220150520833333,0.8435441652940759,6.250794116527296
1.220156770833333,0.8731506613242133,6.277157791520021
1.220163020833333,0.9101587813617754,6.314820184366596
1.220169270833333,0.9434660893956043,6.348716337928538
1.220175520833333,0.9767733974294314,6.382612491490478
1.220181770833333,1.017482329470778,6.424041123621739
1.220188020833333,1.047088825500853,6.457937277183683
1.220194270833333,1.080396133534672,6.491833430745625
1.220200520833333,1.121105065575981,6.529495823592207
1.220206770833333,1.1470107496024,6.555859498584911
1.220213020833333,1.187719681643605,6.597288130716027
1.220219270833333,1.228428613684932,6.63871676284727
1.220225520833333,1.258035109715164,6.668846677124716
1.220231770833333,1.295043229753879,6.706509069972588
1.220238020833333,1.328350537787708,6.747937702103743
1.220244270833333,1.361657845821581,6.781833855665685
1.220250520833333,1.398665965859132,6.815730009227662
1.220256770833333,1.431973273892988,6.853392402074264
1.220263020833333,1.468981393930576,6.891054794920903
1.220269270833333,1.505989513968133,6.936249666336773
1.220275520833333,1.531895197994432,6.962613341329382
1.220281770833333,1.572604130035779,6.996509494891322
1.220288020833333,1.609612250073375,7.037938127022567
1.220294270833333,1.635517934099737,7.064301802015257
1.220300520833333,1.676226866140982,7.105730434146415
1.220306770833333,1.713234986178603,7.139626587708425
1.220313020833333,1.742841482208757,7.169756501985749
1.220319270833333,1.783550414249952,7.211185134116857
1.220325520833333,1.813156910281249,7.252613766249327
1.220331770833333,1.842763406311521,7.278977441242155
1.220338020833333,1.887173150356444,7.320406073373278
1.220344270833333,1.916779646386588,7.350535987650634
1.220350520833333,1.953787766424176,7.388198380497265
1.220356770833333,1.990795886461703,7.429627012628424
1.220363020833333,2.016701570488061,7.452224448336432
1.220369270833333,2.057410502529401,7.489886841183036
1.220375520833333,2.09071781056323,7.531315473314298
1.220381770833333,2.116623494589551,7.55767914830694
1.220388020833333,2.161033238634568,7.602874019722773
1.220394270833333,2.194340546668468,7.63300393400015
1.220400520833333,2.223947042698569,7.666900087562058
1.220406770833333,2.260955162736077,7.708328719693237
1.220413020833333,2.290561658766244,7.734692394686057
1.220419270833333,2.327569778803718,7.768588548247882
1.220425520833333,2.364577898842503,7.813783419664974
1.220431770833333,2.394184394872671,7.843913333942304
1.220438020833333,2.431192514910259,7.877809487504368
1.220444270833333,2.468200634947738,7.923004358920116
1.220450520833333,2.494106318974115,7.949368033912782
1.220456770833333,2.531114439011703,7.983264187474735
1.220463020833333,2.568122559049275,8.020926580321316
1.220469270833333,2.594028243075586,8.043524016029277
1.220475520833333,2.634737175116919,8.088718887445179
1.220481770833333,2.668044483150771,8.122615041007156
1.220488020833333,2.697650979180848,8.152744955284444
1.220494270833333,2.734659099218375,8.190407348130982
1.220500520833333,2.764265595248522,8.224303501692964
1.220506770833333,2.797572903282304,8.254433415970292
1.220513020833333,2.834581023319836,8.295862048101386
1.220519270833333,2.860486707347494,8.32222572309538
1.220525520833333,2.901195639388689,8.359888115941983
1.220531770833333,2.930802135418801,8.397550508788456
1.220538020833333,2.964109443452663,8.42391418378118
1.220544270833333,3.001117563490187,8.461576576627738
1.220550520833333,3.030724059520257,8.49547273018965
1.220556770833333,3.060330555550347,8.521836405182304
1.220563020833333,3.101039487591693,8.567031276598225
1.220569270833333,3.126945171618011,8.593394951590858
1.220575520833333,3.163953291655568,8.627291105152779
1.220581770833333,3.200961411693156,8.668719737284
1.220588020833333,3.223166283715817,8.698849651561364
1.220594270833333,3.263875215756986,8.732745805123269
1.220600520833333,3.3008833357946,8.770408197969807
1.220606770833333,3.326789019821073,8.796771872962594
1.220613020833333,3.363797139859787,8.834434265810279
1.220619270833333,3.400805259897218,8.868330419372114
1.220625520833333,3.426710943923573,8.894694094364871
1.220631770833333,3.456317439953678,8.932356487211399
1.220638020833333,3.48962474798748,8.962486401488652
1.220644270833333,3.519231244017606,8.988850076481368
1.220650520833333,3.559940176058922,9.034044947897229
1.220656770833333,3.589546672088978,9.056642383605178
1.220663020833333,3.619153168119048,9.09430477645178
1.220669270833333,3.656161288156619,9.131967169298381
1.220675520833333,3.682066972182981,9.158330844291054
1.220681770833333,3.715374280216759,9.192226997852943
1.220688020833333,3.752382400254313,9.22988939069951
1.220694270833333,3.774587272277034,9.252486826407642
1.220700520833333,3.811595392314402,9.293915458538628
1.220706770833333,3.844902700349488,9.32404537281711
1.220713020833333,3.878210008383248,9.350409047809885
1.220719270833333,3.907816504413272,9.388071440656301
1.220725520833333,3.933722188439695,9.410668876364376
1.220731770833333,3.970730308477282,9.444565029926373
1.220738020833333,4.00773842851479,9.485993662057533
1.220744270833333,4.02994330053739,9.508591097765541
1.220750520833333,4.066951420574973,9.546253490612139
1.220756770833333,4.100258728608788,9.580149644174066
1.220763020833333,4.129865224638865,9.6065133191667
1.220769270833333,4.159471720668934,9.647941951297902
1.220775520833333,4.189078216699004,9.674305626290618
1.220781770833333,4.218684712729074,9.700669301283238
1.220788020833333,4.251992020762862,9.738331694129716
1.220794270833333,4.285299328796691,9.768461608407097
1.220800520833333,4.314905824827934,9.79859152268558
1.220806770833333,4.348213132861648,9.836253915532007
1.220813020833333,4.374118816887995,9.862617590524664
1.220819270833333,4.403725312918104,9.892747504801985
1.220825520833333,4.437032620951842,9.926643658363833
1.220831770833333,4.459237492974482,9.949241094071882
1.220838020833333,4.496245613012055,9.98690348691847
1.220844270833333,4.529552921045875,10.0207996404804
1.220850520833333,4.555458605072186,10.04339707618836
1.220856770833333,4.592466725109763,10.0848257083196
1.220863020833333,4.614671597132364,10.11118938331227
1.220869270833333,4.644278093162379,10.14131929758952
1.220875520833333,4.681286213199906,10.1714492118668
1.220881770833333,4.703491085222613,10.19781288685946
1.220888020833333,4.740499205260013,10.2317090404213
1.220894270833333,4.770105701290194,10.26560519398324
1.220900520833333,4.796011385317605,10.29196886897699
1.220906770833333,4.829318693351384,10.32209878325422
1.220913020833333,4.858925189381412,10.34846245824689
1.220919270833333,4.884830873407791,10.37859237252417
1.220925520833333,4.918138181441557,10.40872228680141
1.220931770833333,4.944043865467883,10.43508596179406
1.220938020833333,4.97365036149796,10.46898211535601
1.220944270833333,5.006957669531789,10.50664450820261
1.220950520833333,5.03656416556186,10.52924194391058
1.220956770833333,5.06617066159193,10.55937185818784
1.220963020833333,5.095777157622,10.59326801174976
1.220969270833333,5.121682841648327,10.61963168674243
1.220975520833333,5.15128933767836,10.64599536173505
1.220981770833333,5.18089583370843,10.68365775458151
1.220988020833333,5.20310070573109,10.70248895100508
1.220994270833333,5.236408013765853,10.73638510456791
1.221000520833333,5.266014509795818,10.76651501884509
1.221006770833333,5.288219381818502,10.78911245455314
1.221013020833333,5.321526689852261,10.81924236883042
1.221019270833333,5.347432373878572,10.84937228310764
1.221025520833333,5.373338057904905,10.87196971881565
1.221031770833333,5.406645365938709,10.90586587237756
1.221038020833333,5.428850237961261,10.92846330808552
1.221044270833333,5.458456733991331,10.9585932223628
1.221050520833333,5.491764042025151,10.99248937592474
1.221056770833333,5.513968914047754,11.01508681163275
1.221063020833333,5.547276222081508,11.04898296519461
1.221069270833333,5.576882718111611,11.07158040090268
1.221075520833333,5.595386778130532,11.09794407589525
1.221081770833333,5.624993274160436,11.12807399017247
1.221088020833333,5.647198146184023,11.15443766516609
1.221094270833333,5.676804642214146,11.18080134015882
1.221100520833333,5.710111950247839,11.21469749372057
1.221106770833333,5.732316822270429,11.23352869014395
1.221113020833333,5.758222506296796,11.25989236513663
1.221119270833333,5.791529814330564,11.29378851869851
1.221125520833333,5.813734686353129,11.31638595440648
1.221131770833333,5.839640370379444,11.3427496293991
1.221138020833333,5.8692468664095,11.36911330439171
1.221144270833333,5.891451738432067,11.39171074009968
1.221150520833333,5.917357422458362,11.42184065437693
1.221156770833333,5.950664730492144,11.44820432936958
1.221163020833333,5.969168790511066,11.4745680043622
1.221169270833333,6.006176910548451,11.50469791863943
1.221175520833333,6.028381782571198,11.53106159363211
1.221181770833333,6.054287466597441,11.55365902934012
1.221188020833333,6.083893962628279,11.58378894361823
1.221194270833333,6.098697210643495,11.60638637932622
1.221200520833333,6.128303706673566,11.63275005431884
1.221206770833333,6.157910202703545,11.65911372931146
1.221213020833333,6.176414262722426,11.68547740430409
1.221219270833333,6.209721570756228,11.71184107929671
1.221225520833333,6.235627254782528,11.73820475428932
1.221231770833333,6.254131314801323,11.76080218999728
1.221238020833333,6.280036998827616,11.78716586498989
1.221244270833333,6.305942682853927,11.80223082212857
1.221250520833333,6.328147554876501,11.82859449712113
1.221256770833333,6.361454862910239,11.85872441139838
1.221263020833333,6.376258110925468,11.87378936853717
1.221269270833333,6.405864606955349,11.90391928281426
1.221275520833333,6.431770290981716,11.93404919709154
1.221281770833333,6.450274351001472,11.94911415423116
1.221288020833333,6.479880847031491,11.97547782922388
1.221294270833333,6.505786531057749,12.0093739827856
1.221300520833333,6.527991403080302,12.02443893992434
1.221306770833333,6.550196275102879,12.05080261491694
1.221313020833333,6.576101959129159,12.0734000506249
1.221319270833333,6.594606019147967,12.09599748633286
1.221325520833333,6.620511703174278,12.11859492204082
1.221331770833333,6.646417387200589,12.14119235774878
1.221338020833333,6.664921447219403,12.16755603274139
1.221344270833333,6.694527943249417,12.19391970773401
1.221350520833333,6.713032003268284,12.20898466487273
1.221356770833333,6.738937687294521,12.23534833986524
1.221363020833333,6.764843371320833,12.26547825414247
1.221369270833333,6.779646619336029,12.27677697199673
1.221375520833333,6.805552303363071,12.30314064698997
1.221381770833333,6.831457987389279,12.32573808269782
1.221388020833333,6.849962047408161,12.34080303983664
1.221394270833333,6.875867731434401,12.37093295411378
1.221400520833333,6.894371791453248,12.38599791125247
1.221406770833333,6.920277475479549,12.40859534696044
1.221413020833333,6.946183159505842,12.43495902195304
1.221419270833333,6.964687219524636,12.45002397909168
1.221425520833333,6.986892091547189,12.47262141479964
1.221431770833333,7.009096963569741,12.49898508979225
1.221438020833333,7.027601023588552,12.51781628621558
1.221444270833333,7.04980589561108,12.53664748263889
1.221450520833333,7.072010767633621,12.55547867906218
1.221456770833333,7.090514827652458,12.57430987548548
1.221463020833333,7.116420511678666,12.59690731119339
1.221469270833333,7.138625383702005,12.61950474690208
1.221475520833333,7.157129443720852,12.63833594332544
1.221481770833333,7.179334315743314,12.66093337903331
1.221488020833333,7.194137563758423,12.67599833617199
1.221494270833333,7.216342435780975,12.69482953259535
1.221500520833333,7.238547307803527,12.7211932075879
1.221506770833333,7.26075217982607,12.73625816472656
1.221513020833333,7.282957051848624,12.75885560043452
1.221519270833333,7.308862735874936,12.78145303614248
1.221525520833333,7.319965171886239,12.79275175399648
1.221531770833333,7.345870855912489,12.81158295041975
1.221538020833333,7.364374915931331,12.83041414684305
1.221544270833333,7.382878975950124,12.84924534326635
1.221550520833333,7.405083847972636,12.87184277897427
1.221556770833333,7.423587907991479,12.89067397539762
1.221563020833333,7.442091968010985,12.90573893253698
1.221569270833333,7.464296840033426,12.92833636824483
1.221575520833333,7.479100088048508,12.94340132538352
1.221581770833333,7.497604148067341,12.96223252180686
1.221588020833333,7.519809020089832,12.98482995751472
1.221594270833333,7.534612268104889,12.99612867536875
1.221600520833333,7.553116328123696,13.01495987179204
1.221606770833333,7.575321200146239,13.03002482893068
1.221613020833333,7.590124448161275,13.04508978606932
1.221619270833333,7.61232932018381,13.06768722177726
1.221625520833333,7.630833380202617,13.07898593963128
1.221631770833333,7.64933744022141,13.09781713605454
1.221638020833333,7.667841500240204,13.11664833247784
1.221644270833333,7.682644748255279,13.1279470503319
1.221650520833333,7.701148808274024,13.1467782467551
1.221656770833333,7.719652868292819,13.1618432038938
1.221663020833333,7.734456116308502,13.17314192174837
1.221669270833333,7.752960176327345,13.19197311817167
1.221675520833333,7.775165048349767,13.21080431459488
1.221681770833333,7.786267484361107,13.22210303244892
1.221688020833333,7.804771544379902,13.2409342288722
1.221694270833333,7.823275604398694,13.25599918601082
1.221700520833333,7.841779664417489,13.26729790386481
1.221706770833333,7.860283724436282,13.28236286100345
1.221713020833333,7.87508697245132,13.29742781814209
1.221719270833333,7.889890220466348,13.31625901456538
1.221725520833333,7.908394280485121,13.33132397170404
1.221731770833333,7.919496716496455,13.34262268955804
1.221738020833333,7.941701588518896,13.35768764669665
1.221744270833333,7.956504836534021,13.3765188431199
1.221750520833333,7.971308084549057,13.38028508240478
1.221756770833333,7.986111332564677,13.40288251811304
1.221763020833333,8.004615392583418,13.41418123596702
1.221769270833333,8.019418640598454,13.42547995382105
1.221775520833333,8.034221888613516,13.44054491095968
1.221781770833333,8.05272594863226,13.45560986809822
1.221788020833333,8.063828384643569,13.45560986809822
1.221794270833333,8.082332444662345,13.45560986809821
1.221800520833333,8.093434880673623,13.45184362881355
1.221806770833333,8.108238128688658,13.44807738952889
1.221813020833333,8.126742188707443,13.44807738952888
1.221819270833333,8.137844624718753,13.44431115024424
1.221825520833333,8.156348684737496,13.44431115024421
1.221831770833333,8.167451120748835,13.44431115024421
1.221838020833333,8.182254368763827,13.43677867167498
1.221844270833333,8.197057616778862,13.44054491095948
