Versuch04/Plots_Measurements/4_4_2_b.csv

#Digilent WaveForms Oscilloscope Acquisition
#Device Name: Discovery2
#Serial Number: SN:210321AA2D13
#Date Time: 2024-01-11 14:08:20.856
#Sample rate: 80000Hz
#Samples: 8192
#Trigger: Source: Channel 1 Type: Edge Condition: Rising Level: 0 V Hyst.: Auto HoldOff: 0 s
#Channel 1: Range: 2 V/div Offset: 0 V Attenuation: 1 X Sample Mode: Average
#Channel 2: Range: 5 V/div Offset: 0 V Attenuation: 1 X Sample Mode: Average
#Wavegen Channel 1: Running
#Mode: Simple
#Type: Sine
#Frequency: 100 Hz
#Period: 10 ms
#Amplitude: 5 V
#Offset: 0 V
#Symmetry: 50 %
#Phase: 0 °
#Wavegen Channel 2: Disabled
#Mode: Simple
#Type: Sine
#Frequency: 1 kHz
#Period: 1 ms
#Amplitude: 1 V
#Offset: 0 V
#Symmetry: 50 %
#Phase: 0 °

Time (s),Channel 1 (V),Channel 2 (V)
1.285407894736842,-2.328051721935229,-0.9125930029128693
1.285420394736842,-2.40206796201037,-0.9125930029128693
1.285432894736842,-2.468682578078019,-0.9125930029128607
1.285445394736842,-2.531596382141919,-0.9088267636282006
1.285457894736842,-2.598210998209576,-0.9125930029128607
1.285470394736842,-2.668526426280984,-0.9125930029128693
1.285482894736842,-2.731440230344917,-0.9088267636282262
1.285495394736842,-2.79805484641373,-0.9125930029128693
1.285507894736842,-2.864669462481388,-0.9125930029128932
1.285520394736842,-2.931284078549001,-0.9163592421975243
1.285532894736842,-2.994197882612911,-0.9125930029128744
1.285545394736842,-3.064513310684327,-0.9163592421975345
1.285557894736842,-3.131127926751987,-0.9163592421975379
1.285570394736842,-3.194041730815898,-0.9163592421975379
1.285582894736842,-3.260656346883535,-0.9125930029128984
1.285595394736842,-3.327270962952375,-0.9125930029128693
1.285607894736842,-3.393885579019972,-0.9125930029128693
1.285620394736842,-3.449397759076358,-0.9125930029128693
1.285632894736842,-3.516012375144015,-0.9125930029128693
1.285645394736842,-3.582626991211673,-0.9125930029128693
1.285657894736842,-3.649241607279331,-0.908826763628216
1.285670394736842,-3.712155411343244,-0.9088267636282006
1.285682894736842,-3.771368403403408,-0.9088267636282006
1.285695394736842,-3.837983019472133,-0.9088267636282006
1.285707894736842,-3.897196011532289,-0.9088267636282006
1.285720394736842,-3.96010981559616,-0.9088267636282075
1.285732894736842,-4.023023619660059,-0.9125930029128676
1.285745394736842,-4.085937423723958,-0.9088267636282109
1.285757894736842,-4.145150415784108,-0.9088267636282006
1.285770394736842,-4.211765031851727,-0.9088267636282006
1.285782894736842,-4.274678835916739,-0.9125930029128693
1.285795394736842,-4.333891827976879,-0.9125930029128693
1.285807894736842,-4.393104820037033,-0.9125930029128693
1.285820394736842,-4.456018624100932,-0.9125930029128693
1.285832894736842,-4.518932428164801,-0.9125930029128693
1.285845394736842,-4.574444608221193,-0.9125930029128693
1.285857894736842,-4.637358412285065,-0.9163592421975156
1.285870394736842,-4.696571404345226,-0.9125930029129001
1.285882894736842,-4.755784396406391,-0.9125930029128693
1.285895394736842,-4.811296576462789,-0.9125930029128504
1.285907894736842,-4.87050956852294,-0.9088267636282006
1.285920394736842,-4.933423372586835,-0.9088267636282022
1.285932894736842,-4.988935552643216,-0.9125930029128624
1.285945394736842,-5.048148544703324,-0.9125930029128693
1.285957894736842,-5.107361536763463,-0.9088267636282262
1.285970394736842,-5.162873716820854,-0.9088267636282006
1.285982894736842,-5.218385896877259,-0.9088267636282006
1.285995394736842,-5.277598888937384,-0.9088267636281852
1.286007894736842,-5.333111068993759,-0.9050605243435388
1.286020394736842,-5.384922437046381,-0.9088267636281989
1.286032894736842,-5.444135429106518,-0.9088267636282006
1.286045394736842,-5.499647609162884,-0.9088267636282006
1.286057894736842,-5.555159789219266,-0.9088267636282006
1.286070394736842,-5.606971157272864,-0.9088267636281715
1.286082894736842,-5.662483337329245,-0.9050605243435319
1.286095394736842,-5.717995517385627,-0.9050605243435439
1.286107894736842,-5.773507697442001,-0.9088267636282006
1.286120394736842,-5.821618253490865,-0.9088267636282006
1.286132894736842,-5.877130433547237,-0.9088267636282006
1.286145394736842,-5.932642613603592,-0.9088267636282006
1.286157894736842,-5.980753169652504,-0.9088267636282006
1.286170394736842,-6.032564537706013,-0.9088267636282262
1.286182894736842,-6.084375905758618,-0.9125930029128693
1.286195394736842,-6.132486461807491,-0.9125930029128607
1.286207894736842,-6.184297829860113,-0.9088267636282006
1.286220394736842,-6.236109197912735,-0.9088267636282006
1.286232894736842,-6.284219753961608,-0.9088267636282006
1.286245394736842,-6.332330310010472,-0.9088267636282006
1.286257894736842,-6.380440866060228,-0.9050605243435628
1.286270394736842,-6.435953046116543,-0.9088267636282006
1.286282894736842,-6.480362790161662,-0.9088267636282006
1.286295394736842,-6.528473346210525,-0.9088267636281955
1.286307894736842,-6.576583902259389,-0.9050605243435353
1.286320394736842,-6.620993646304497,-0.9088267636281886
1.286332894736842,-6.669104202353349,-0.9088267636282006
1.286345394736842,-6.717214758402213,-0.905060524343561
1.286357894736842,-6.761624502448135,-0.9050605243435319
1.286370394736842,-6.806034246493219,-0.9050605243435319
1.286382894736842,-6.850443990538335,-0.9050605243435319
1.286395394736842,-6.898554546587197,-0.9050605243435319
1.286407894736842,-6.942964290632302,-0.9050605243435319
1.286420394736842,-6.987374034677407,-0.9050605243435319
1.286432894736842,-7.028082966718769,-0.9050605243435319
1.286445394736842,-7.068791898760114,-0.9012942850588956
1.286457894736842,-7.116902454809692,-0.9012942850588888
1.286470394736842,-7.153910574847313,-0.9050605243435319
1.286482894736842,-7.198320318892391,-0.9050605243435388
1.286495394736842,-7.239029250933737,-0.9088267636281989
1.286507894736842,-7.276037370971326,-0.9050605243435422
1.286520394736842,-7.320447115016412,-0.9088267636281817
1.286532894736842,-7.361156047057777,-0.9088267636282006
1.286545394736842,-7.401864979099814,-0.9088267636281697
1.286557894736842,-7.438873099137424,-0.9050605243435319
1.286570394736842,-7.479582031178743,-0.9050605243435319
1.286582894736842,-7.512889339212564,-0.9050605243435319
1.286595394736842,-7.553598271253909,-0.9050605243435319
1.286607894736842,-7.586905579287749,-0.9088267636281869
1.286620394736842,-7.623913699325323,-0.9050605243435542
1.286632894736842,-7.664622631366647,-0.9050605243435319
1.286645394736842,-7.697929939401128,-0.9012942850588905
1.286657894736842,-7.731237247434974,-0.905060524343513
1.286670394736842,-7.768245367472562,-0.9012942850588734
1.286682894736842,-7.805253487510133,-0.9050605243435319
1.286695394736842,-7.834859983540203,-0.9012942850588717
1.286707894736842,-7.868167291574023,-0.9050605243435148
1.286720394736842,-7.905175411611594,-0.9012942850588888
1.286732894736842,-7.938482719646006,-0.9012942850588631
1.286745394736842,-7.968089215676054,-0.9012942850588631
1.286757894736842,-7.993994899702394,-0.9012942850588631
1.286770394736842,-8.027302207736216,-0.9012942850588631
1.286782894736842,-8.056908703766286,-0.9012942850588631
1.286795394736842,-8.090216011800099,-0.9012942850588631
1.286807894736842,-8.119822507830181,-0.897528045774215
1.286820394736842,-8.14942900386025,-0.8975280457741944
1.286832894736842,-8.17533468788705,-0.901294285058834
1.286845394736842,-8.201240371913382,-0.897528045774215
1.286857894736842,-8.230846867943429,-0.9012942850588631
1.286870394736842,-8.253051739965986,-0.9012942850588597
1.286882894736842,-8.282658235996056,-0.8975280457741995
1.286895394736842,-8.308563920022374,-0.8975280457741944
1.286907894736842,-8.338170416052417,-0.8975280457741944
1.286920394736842,-8.360375288075016,-0.9012942850588306
1.286932894736842,-8.38628097210173,-0.8975280457741944
1.286945394736842,-8.408485844124282,-0.8975280457741944
1.286957894736842,-8.430690716146835,-0.8975280457741944
1.286970394736842,-8.452895588169387,-0.8975280457741944
1.286982894736842,-8.475100460191941,-0.8975280457741944
1.286995394736842,-8.497305332214491,-0.8975280457741944
1.287007894736842,-8.519510204237035,-0.8975280457741944
1.287020394736842,-8.541715076259951,-0.8975280457741944
1.287032894736842,-8.560219136278745,-0.8975280457741944
1.287045394736842,-8.578723196297551,-0.8975280457741944
1.287057894736842,-8.600928068320105,-0.8975280457741944
1.287070394736842,-8.623132940342657,-0.8975280457741944
1.287082894736842,-8.637936188357697,-0.8975280457741944
1.287095394736842,-8.65644024837648,-0.9012942850588426
1.287107894736842,-8.667542684387792,-0.8975280457742253
1.287120394736842,-8.686046744406854,-0.8937618064895532
1.287132894736842,-8.70455080442561,-0.8975280457741944
1.287145394736842,-8.715653240436906,-0.8975280457741841
1.287157894736842,-8.734157300455699,-0.8937618064895257
1.287170394736842,-8.748960548470734,-0.8937618064895257
1.287182894736842,-8.763763796485769,-0.897528045774179
1.287195394736842,-8.771165420493316,-0.8937618064895497
1.287207894736842,-8.789669480512039,-0.8937618064895257
1.287220394736842,-8.800771916523573,-0.8937618064895257
1.287232894736842,-8.811874352534849,-0.8937618064895257
1.287245394736842,-8.822976788546123,-0.8937618064895257
1.287257894736842,-8.834079224557401,-0.8937618064895257
1.287270394736842,-8.84148084856492,-0.8937618064895257
1.287282894736842,-8.852583284576186,-0.8937618064895257
1.287295394736842,-8.863685720587464,-0.8937618064895257
1.287307894736842,-8.871087344595137,-0.8937618064895257
1.287320394736842,-8.878488968602678,-0.8937618064895257
1.287332894736842,-8.889591404613926,-0.8937618064895257
1.287345394736842,-8.893292216617688,-0.8937618064895257
1.287357894736842,-8.900693840625204,-0.8937618064895257
1.287370394736842,-8.904394652628968,-0.8937618064895257
1.287382894736842,-8.908095464632728,-0.8937618064895257
1.287395394736842,-8.915497088640223,-0.8937618064895257
1.287407894736842,-8.91919790064405,-0.8937618064894983
1.287420394736842,-8.919197900644068,-0.8899955672048759
1.287432894736842,-8.922898712647829,-0.8937618064895154
1.287445394736842,-8.926599524651586,-0.8899955672048571
1.287457894736842,-8.926599524651586,-0.8899955672048571
1.287470394736842,-8.930300336655336,-0.8899955672048571
1.287482894736842,-8.930300336655352,-0.8899955672048571
1.287495394736842,-8.930300336655352,-0.8937618064895257
1.287507894736842,-8.930300336655328,-0.8937618064895257
1.287520394736842,-8.926599524651586,-0.8937618064895257
1.287532894736842,-8.926599524651579,-0.8937618064895189
1.287545394736842,-8.922898712647822,-0.8899955672048605
1.287557894736842,-8.922898712647818,-0.8899955672048571
1.287570394736842,-8.91919790064407,-0.8899955672048571
1.287582894736842,-8.915497088640311,-0.8899955672048571
1.287595394736842,-8.91179627663646,-0.8899955672048571
1.287607894736842,-8.904394652628982,-0.8899955672048571
1.287620394736842,-8.904394652628959,-0.8899955672048451
1.287632894736842,-8.896993028621443,-0.8862293279201918
1.287645394736842,-8.893292216617688,-0.8899955672048502
1.287657894736842,-8.882189780606424,-0.8862293279202038
1.287670394736842,-8.878488968602635,-0.8862293279201884
1.287682894736842,-8.871087344595141,-0.8899955672048245
1.287695394736842,-8.859984908583726,-0.8899955672048571
1.287707894736842,-8.852583284576191,-0.88999556720484
1.287720394736842,-8.841480848564915,-0.8862293279201884
1.287732894736842,-8.830378412553639,-0.8862293279201884
1.287745394736842,-8.82297678854612,-0.8899955672048485
1.287757894736842,-8.80817354053111,-0.8862293279202073
1.287770394736842,-8.793370292516075,-0.8899955672048296
1.287782894736842,-8.782267856504575,-0.8862293279201884
1.287795394736842,-8.771165420493277,-0.8862293279201884
1.287807894736842,-8.756362172478243,-0.8862293279201884
1.287820394736842,-8.741558924463208,-0.8862293279201884
1.287832894736842,-8.726755676448173,-0.8862293279201884
1.287845394736842,-8.711952428433136,-0.8862293279201884
1.287857894736842,-8.6971491804181,-0.8862293279201884
1.287870394736842,-8.678645120399336,-0.8862293279201884
1.287882894736842,-8.663841872384008,-0.8862293279201884
1.287895394736842,-8.649038624368973,-0.8862293279201884
1.287907894736842,-8.63423537635393,-0.8862293279201884
1.287920394736842,-8.615731316335134,-0.8862293279201867
1.287932894736842,-8.597227256316341,-0.8824630886355266
1.287945394736842,-8.578723196297547,-0.8862293279201729
1.287957894736842,-8.556518324275011,-0.8862293279201884
1.287970394736842,-8.538014264256201,-0.882463088635554
1.287982894736842,-8.515809392233287,-0.8824630886355197
1.287995394736842,-8.49360452021075,-0.8824630886355351
1.288007894736842,-8.475100460191943,-0.8862293279201884
1.288020394736842,-8.449194776165633,-0.8862293279201884
1.288032894736842,-8.430690716146835,-0.8899955672048467
1.288045394736842,-8.408485844124293,-0.8862293279202073
1.288057894736842,-8.378879348094259,-0.8824630886355471
1.288070394736842,-8.352973664067523,-0.8862293279201575
1.288082894736842,-8.334469604048696,-0.8824630886355197
1.288095394736842,-8.308563920022374,-0.8824630886355197
1.288107894736842,-8.278957423992304,-0.8824630886355197
1.288120394736842,-8.249350927962235,-0.8824630886355197
1.288132894736842,-8.223445243935917,-0.8824630886355197
1.288145394736842,-8.197539559909606,-0.8824630886355197
1.288157894736842,-8.167933063879557,-0.8824630886355197
1.288170394736842,-8.142027379852729,-0.8824630886354923
1.288182894736842,-8.112420883822656,-0.8786968493508509
1.288195394736842,-8.079113575788845,-0.8786968493508595
1.288207894736842,-8.053207891762533,-0.8824630886355197
1.288220394736842,-8.023601395732463,-0.8824630886355197
1.288232894736842,-7.990294087698643,-0.878696849350868
1.288245394736842,-7.960687591668556,-0.8786968493508509
1.288257894736842,-7.927380283634194,-0.8786968493508509
1.288270394736842,-7.897773787604077,-0.8786968493508749
1.288282894736842,-7.860765667566504,-0.8824630886355197
1.288295394736842,-7.827458359532691,-0.8824630886355197
1.288307894736842,-7.794151051498861,-0.8824630886355197
1.288320394736842,-7.760843743465032,-0.8786968493508629
1.288332894736842,-7.723835623427457,-0.8824630886354992
1.288345394736842,-7.690528315393609,-0.8824630886355197
1.288357894736842,-7.653520195355393,-0.8786968493508509
1.288370394736842,-7.616512075317805,-0.8786968493508714
1.288382894736842,-7.579503955280217,-0.8824630886355077
1.288395394736842,-7.54249583524263,-0.8786968493508509
1.288407894736842,-7.50548771520506,-0.8786968493508509
1.288420394736842,-7.468479595167472,-0.8786968493508509
1.288432894736842,-7.431471475129884,-0.8786968493508509
1.288445394736842,-7.39076254308784,-0.8786968493508509
1.288457894736842,-7.350053611046493,-0.8786968493508509
1.288470394736842,-7.309344679005148,-0.8786968493508509
1.288482894736842,-7.268635746963801,-0.8786968493508509
1.288495394736842,-7.227926814922455,-0.8786968493508509
1.288507894736842,-7.187217882881127,-0.8749306100661925
1.288520394736842,-7.14650895083978,-0.878696849350832
1.288532894736842,-7.105800018798434,-0.8824630886354923
1.288545394736842,-7.065091086756306,-0.8786968493508509
1.288557894736842,-7.016980530707485,-0.8786968493508286
1.288570394736842,-6.976271598666125,-0.8749306100661959
1.288582894736842,-6.931861854621021,-0.8786968493508509
1.288595394736842,-6.887452110575915,-0.8786968493508509
1.288607894736842,-6.839341554527077,-0.8786968493508509
1.288620394736842,-6.798632622485703,-0.8749306100662045
1.288632894736842,-6.75422287844062,-0.8749306100661822
1.288645394736842,-6.706112322390934,-0.8749306100661822
1.288657894736842,-6.658001766342089,-0.8749306100661822
1.288670394736842,-6.613592022296973,-0.8749306100661822
1.288682894736842,-6.565481466248111,-0.8749306100661822
1.288695394736842,-6.521071722203006,-0.8749306100661822
1.288707894736842,-6.47296116615415,-0.8749306100661822
1.288720394736842,-6.421149798101565,-0.8749306100661822
1.288732894736842,-6.369338430048943,-0.8749306100661822
1.288745394736842,-6.321227873999216,-0.8749306100661822
1.288757894736842,-6.276818129954065,-0.8749306100661668
1.288770394736842,-6.221305949897697,-0.8711643707815204
1.288782894736842,-6.173195393848834,-0.8749306100661806
1.288795394736842,-6.121384025796212,-0.8749306100661822
1.288807894736842,-6.073273469747339,-0.8711643707815324
1.288820394736842,-6.021462101694734,-0.8749306100661548
1.288832894736842,-5.969650733641245,-0.8749306100661822
1.288845394736842,-5.921540177592321,-0.8749306100661822
1.288857894736842,-5.862327185532204,-0.8749306100661702
1.288870394736842,-5.810515817479579,-0.871164370781517
1.288882894736842,-5.755003637423197,-0.8749306100661771
1.288895394736842,-5.70319226937057,-0.8711643707815272
1.288907894736842,-5.651380901317947,-0.8711643707815135
1.288920394736842,-5.595868721261589,-0.8749306100661514
1.288932894736842,-5.544057353207989,-0.8711643707815135
1.288945394736842,-5.488545173151599,-0.8711643707815135
1.288957894736842,-5.425631369087718,-0.8711643707815135
1.288970394736842,-5.370119189031336,-0.8711643707815135
1.288982894736842,-5.318307820978714,-0.8673981314968534
1.288995394736842,-5.262795640922341,-0.8673981314968449
1.289007894736842,-5.203582648862217,-0.8711643707814879
1.289020394736842,-5.148070468804827,-0.8673981314968449
1.289032894736842,-5.092558288748422,-0.8673981314968449
1.289045394736842,-5.033345296688295,-0.8673981314968585
1.289057894736842,-4.970431492624407,-0.8711643707815135
1.289070394736842,-4.914919312568025,-0.8711643707815135
1.289082894736842,-4.859407132511643,-0.8711643707815135
1.289095394736842,-4.800194140451516,-0.8673981314968654
1.289107894736842,-4.740981148391375,-0.8711643707814845
1.289120394736842,-4.681768156330185,-0.8711643707815135
1.289132894736842,-4.622555164270045,-0.8711643707815135
1.289145394736842,-4.563342172209932,-0.871164370781493
1.289157894736842,-4.50412918014979,-0.8636318922121796
1.289170394736842,-4.441215376085891,-0.8711643707814999
1.289182894736842,-4.378301572021993,-0.8711643707815135
1.289195394736842,-4.319088579961837,-0.8673981314968688
1.289207894736842,-4.259875587900614,-0.8673981314968449
1.289220394736842,-4.196961783836715,-0.8673981314968449
1.289232894736842,-4.134047979772832,-0.8673981314968449
1.289245394736842,-4.074834987712684,-0.8673981314968449
1.289257894736842,-4.011921183648814,-0.8673981314968449
1.289270394736842,-3.949007379584916,-0.8673981314968449
1.289282894736842,-3.886093575521017,-0.8711643707814947
1.289295394736842,-3.823179771457118,-0.8711643707815135
1.289307894736842,-3.760265967392103,-0.8673981314968449
1.289320394736842,-3.697352163328183,-0.8673981314968449
1.289332894736842,-3.630737547260552,-0.8673981314968449
1.289345394736842,-3.571524555200402,-0.8673981314968449
1.289357894736842,-3.504909939132744,-0.8673981314968449
1.289370394736842,-3.44199613506887,-0.8636318922121898
1.289382894736842,-3.379082331004972,-0.8673981314968225
1.289395394736842,-3.312467714937336,-0.8673981314968449
1.289407894736842,-3.242152286864784,-0.8673981314968174
1.289420394736842,-3.182939294804607,-0.8636318922121762
1.289432894736842,-3.116324678736949,-0.8636318922121865
1.289445394736842,-3.04971006266929,-0.8673981314968432
1.289457894736842,-2.979394634597873,-0.8636318922121831
1.289470394736842,-2.91648083053399,-0.8673981314968278
1.289482894736842,-2.853567026470091,-0.8673981314968449
1.289495394736842,-2.783251598398725,-0.8673981314968449
1.289507894736842,-2.716636982329876,-0.8673981314968449
1.289520394736842,-2.653723178265947,-0.8673981314968449
1.289532894736842,-2.583407750194537,-0.867398131496838
1.289545394736842,-2.51679313412688,-0.8636318922121778
1.289557894736842,-2.450178518059222,-0.8673981314968345
1.289570394736842,-2.383563901991595,-0.8673981314968449
1.289582894736842,-2.313248473920199,-0.8636318922122053
1.289595394736842,-2.24663385785136,-0.8636318922122053
1.289607894736842,-2.1837200537874,-0.8673981314968243
1.289620394736842,-2.109703813712249,-0.8636318922121762
